Place,Name,Country,BirthDate,BodyweightKg,Squat1Kg,Squat2Kg,Squat3Kg,Squat4Kg,Bench1Kg,Bench2Kg,Bench3Kg,Bench4Kg,Deadlift1Kg,Deadlift2Kg,Deadlift3Kg,Deadlift4Kg,TotalKg,WeightClassKg,Division,Sex,Event,Equipment,Tested,Best3SquatKg,Best3BenchKg,Best3DeadliftKg,BirthYear
1,Jakub Jarończyk,Poland,2005-10-24,74.75,115,125,135,,75,85,-90,,150,160,170,,390,75,Pro Teen 13-15,M,SBD,Wraps,No,135,85,170,2005
1,Marcin Zwoliński,Poland,2005-01-22,82.7,95,105,112.5,,90,97.5,100,,145,155,165,,377.5,90,Pro Teen 13-15,M,SBD,Wraps,No,112.5,100,165,2005
1,Radosław Bober,Poland,2004-01-28,58.4,115,125,132.5,,75,85,90,,140,-150,150,,372.5,60,Pro Teen 16-17,M,SBD,Wraps,No,132.5,90,150,2004
1,Nikodem Hapka,Poland,2003-10-04,85.7,160,165,-170,,100,105,107.5,,180,192.5,-200,,465,90,Pro Teen 16-17,M,SBD,Wraps,No,165,107.5,192.5,2003
2,Paweł Abramowicz,Poland,2004-09-04,88.75,130,140,150,,-70,70,-80,,130,140,145,,365,90,Pro Teen 16-17,M,SBD,Wraps,No,150,70,145,2004
1,Hubert Jaworski,Poland,2004-03-11,98.95,180,-200,-200,,120,125,127.5,,200,210,-215,,517.5,100,Pro Teen 16-17,M,SBD,Wraps,No,180,127.5,210,2004
1,Dominik Dorożewycz,Poland,2002-03-19,64.7,-160,165,-170,,-110,115,-125,,-240,-240,240,,520,67.5,Pro Teen 18-19,M,SBD,Wraps,No,165,115,240,2002
1,Maksymilian Lehman,Poland,2001-07-17,73.6,170,180,187.5,,100,110,-115,,200,215,225,,522.5,75,Pro Teen 18-19,M,SBD,Wraps,No,187.5,110,225,2001
2,Krystian Poniewierski,Poland,2002-04-04,73.3,140,150,160,,70,75,-80,,155,165,175,,410,75,Pro Teen 18-19,M,SBD,Wraps,No,160,75,175,2002
1,Piotr Szewczyk,Poland,2001-09-19,88.3,200,212.5,-220,,132.5,140,142.5,,-210,210,-215,,565,90,Pro Teen 18-19,M,SBD,Wraps,No,212.5,142.5,210,2001
1,Kacper Konwerski,Poland,2001-07-11,94.85,205,215,-220,,120,-125,-125,,220,230,-240,,565,100,Pro Teen 18-19,M,SBD,Wraps,No,215,120,230,2001
2,Alan Walkowiak,Poland,2002-08-26,98.3,190,200,205,,100,107.5,-110,,200,210,215,,527.5,100,Pro Teen 18-19,M,SBD,Wraps,No,205,107.5,215,2002
3,Ivan Chervonyi,Ukraine,2003-01-19,95.55,190,-220,-235,,110,125,-135,,180,205,-215,,520,100,Pro Teen 18-19,M,SBD,Wraps,No,190,125,205,2003
1,Patryk Mróz,Poland,2002-11-06,107.5,-160,160,170,,90,95,-97.5,,180,190,-200,,455,110,Pro Teen 18-19,M,SBD,Wraps,No,170,95,190,2002
1,Konrad Mrozowski,Poland,1999-07-12,79.25,185,195,200,,115,120,-122.5,,200,215,225,,545,82.5,Pro Juniors 20-23,M,SBD,Wraps,No,200,120,225,1999
2,Jan Forzpańczyk,Poland,2001-03-21,80.85,150,160,-170,,105,112.5,117.5,,170,180,190,,467.5,82.5,Pro Juniors 20-23,M,SBD,Wraps,No,160,117.5,190,2001
3,Wojtek Zawadzki,Poland,1998-05-29,81.65,155,165,-170,,90,95,100,,180,190,200,,465,82.5,Pro Juniors 20-23,M,SBD,Wraps,No,165,100,200,1998
1,Kacper Cecko,Poland,1997-11-27,89.3,140,160,-170,,90,102.5,-110,,180,205,215,,477.5,90,Pro Juniors 20-23,M,SBD,Wraps,No,160,102.5,215,1997
1,Michał Łopata,Poland,1998-05-04,97.55,215,222.5,230,,145,155,-162.5,,250,262.5,-275,,647.5,100,Pro Juniors 20-23,M,SBD,Wraps,No,230,155,262.5,1998
2,Paweł Zadrożny,Poland,1998-06-12,98.5,215,222.5,230,,140,145,-150,,-260,260,-285.5,,635,100,Pro Juniors 20-23,M,SBD,Wraps,No,230,145,260,1998
3,Damian Stankiewicz,Poland,1998-09-05,93.35,165,175,-182.5,,105,110,-115,,170,185,-192.5,,470,100,Pro Juniors 20-23,M,SBD,Wraps,No,175,110,185,1998
1,Marcin Boruchowski,Poland,1996-09-30,71.95,220,225,230,,130,135,-140,,200,212.5,222.5,,587.5,75,Pro Open,M,SBD,Wraps,No,230,135,222.5,1996
2,Adrian Wierzbicki,Poland,1993-04-14,71.6,-170,-175,180,,-115,-115,115,,200,210,-215,,505,75,Pro Open,M,SBD,Wraps,No,180,115,210,1993
DD,Iwo Daleki,Poland,1995-01-01,74.45,232.5,242.5,-250,,127.5,132.5,-137.5,,250,265,-280,,,75,Pro Open,M,SBD,Wraps,No,242.5,132.5,265,1995
1,Mariusz Zych,Poland,1994-02-27,82,190,205,220,,90,97.5,-105,,185,200,215,,532.5,82.5,Pro Open,M,SBD,Wraps,No,220,97.5,215,1994
2,Borys Birkowski,Poland,1990-08-11,82.4,-170,175,-185,,-110,110,,,190,210,-225,,495,82.5,Pro Open,M,SBD,Wraps,No,175,110,210,1990
2,Adrian Jatczak,Poland,1994-05-16,88.4,200,215,230,,120,125,130,,220,240,255,,615,90,Pro Open,M,SBD,Wraps,No,230,130,255,1994
3,Mateusz Wnuk,Poland,1996-04-27,89.35,200,-210,-220,,125,-132.5,-132.5,,220,230,-240,,555,90,Pro Open,M,SBD,Wraps,No,200,125,230,1996
1,Marcin Kosut,Poland,1988-10-23,92.25,260,270,275,,175,-180,-180,,260,270,275,,725,100,Pro Open,M,SBD,Wraps,No,275,175,275,1988
2,Andrii Petruk,Ukraine,1975-01-15,98.75,-240,-240,240,,190,-200,-200,,240,250,-255,,680,100,Pro Open,M,SBD,Wraps,No,240,190,250,1975
3,Damian Olender,Poland,1993-04-21,98.6,225,-242.5,250,,150,-160,-160,,245,260,-272.5,,660,100,Pro Open,M,SBD,Wraps,No,250,150,260,1993
4,Jacek Beczkowski,Poland,1990-04-29,98.65,200,210,-220,,135,140,145,,215,230,-245,,585,100,Pro Open,M,SBD,Wraps,No,210,145,230,1990
5,Ivan Chervonyi,Ukraine,2003-01-19,95.55,190,-220,-235,,110,125,-135,,180,205,-215,,520,100,Pro Open,M,SBD,Wraps,No,190,125,205,2003
1,Jakub Koćmiel,Poland,1996-05-22,104.3,190,-205,-205,,140,147.5,-152.5,,225,240,250,,587.5,110,Pro Open,M,SBD,Wraps,No,190,147.5,250,1996
2,Igor Czechowski,Poland,1992-09-29,108.8,195,-205,-205,,130,135,-140,,215,225,230,,560,110,Pro Open,M,SBD,Wraps,No,195,135,230,1992
3,Marcin Wajda,Poland,1986-09-03,117.1,120,130,140,,120,140,150,,140,170,-200,,460,125,Pro Open,M,SBD,Wraps,No,140,150,170,1986
1,Piotr Rózga,Poland,1987-04-05,74.4,160,170,-180,,100,105,-112.5,,-160,170,-190,,445,75,Pro Submasters 33-39,M,SBD,Wraps,No,170,105,170,1987
1,Mariusz Gładysz,Poland,1981-12-19,81.3,180,200,-210,,140,150,155,,220,240,-250,,595,82.5,Pro Submasters 33-39,M,SBD,Wraps,No,200,155,240,1981
1,Marcin Wajda,Poland,1986-09-03,117.1,120,130,140,,120,140,150,,140,170,-200,,460,125,Pro Submasters 33-39,M,SBD,Wraps,No,140,150,170,1986
1,Dariusz Zwoliński,Poland,1974-11-06,90,145,155,162.5,,127.5,135,137.5,,172.5,182.5,190,,490,90,Pro Masters 45-49,M,SBD,Wraps,No,162.5,137.5,190,1974
1,Andrii Petruk,Ukraine,1975-01-15,98.75,-240,-240,240,,190,-200,-200,,240,250,-255,,680,100,Pro Masters 45-49,M,SBD,Wraps,No,240,190,250,1975
1,Rafał Klauz,Poland,1971-04-16,114.3,205,-220,-225,,145,155,-165,,220,240,-260,,600,125,Pro Masters 45-49,M,SBD,Wraps,No,205,155,240,1971
1,Jan Augustat,Germany,1969-05-17,79.95,182.5,-202.5,-205,,110,120.5,-125,,190,210,-215,,513,82.5,Pro Masters 50-54,M,SBD,Wraps,No,182.5,120.5,210,1969
1,Adam Urbański,Poland,1962-05-18,105.4,160,-180,-180,,130,140,145,,175,190,-200,,495,110,Pro Masters 55-59,M,SBD,Wraps,No,160,145,190,1962
1,Petr Jirásek,Czechia,1960-06-18,88.9,140,-150,-150,,110,115,-120,,160,170,180,,435,90,Pro Masters 60-64,M,SBD,Wraps,No,140,115,180,1960
1,Mieczysłąw Maczka,Germany,1954-09-11,81.8,120,140,-150,,92.5,100,102.5,,125,145,152.5,,395,82.5,Pro Masters 65-69,M,SBD,Wraps,No,140,102.5,152.5,1954
1,Wayne Grenier,USA,1949-11-14,89.9,82.5,92.5,-105,,77.5,82.5,85,,135,145,155,,332.5,90,Pro Masters 70-74,M,SBD,Wraps,No,92.5,85,155,1949
1,Amelia Fudalej,Poland,2005-11-10,55.86,75,-90,90,-100.5,32.5,37.5,-40,,70,85,-92.5,,212.5,56,Pro Teen 13-15,F,SBD,Wraps,No,90,37.5,85,2005
1,Angelika Gryc,Poland,2003-07-23,77.85,90,-100,100,,45,55,65,,150,160,170,,335,82.5,Pro Teen 16-17,F,SBD,Wraps,No,100,65,170,2003
1,Paulina Romejko,Poland,2002-06-20,54.42,100,-110,-115,,52.5,55,-60,,107.5,115,125,,280,56,Pro Teen 18-19,F,SBD,Wraps,No,100,55,125,2002
1,Dominika Groń,Poland,2002-06-27,58.18,90,100,-105,,47.5,-50,-50,,105,110,117.5,,265,60,Pro Teen 18-19,F,SBD,Wraps,No,100,47.5,117.5,2002
1,Daria Zielińska,Poland,2002-04-03,62.45,125,132.5,140,,65,70,-75,,150,-157.5,157.5,,367.5,67.5,Pro Teen 18-19,F,SBD,Wraps,No,140,70,157.5,2002
1,Ela Kardaś,Poland,1999-12-16,56,80,90,-100,,40,45,50,,120,130,-140,,270,56,Pro Juniors 20-23,F,SBD,Wraps,No,90,50,130,1999
2,Karolina Wątorczyk,Poland,1998-09-22,55.7,70,80,-90,,35,40,-45,,100,115,-125,,235,56,Pro Juniors 20-23,F,SBD,Wraps,No,80,40,115,1998
DQ,Kasandra Patelczyk,Poland,2000-06-06,58.78,-145,-150,-150,,-62.5,,,,-125,,,,,60,Pro Juniors 20-23,F,SBD,Wraps,No,,,,2000
1,Małgorzata Stachura,Poland,2001-01-01,63.5,60,62.5,67.5,,32.5,35,-37.5,,70,80,-87.5,,182.5,67.5,Pro Juniors 20-23,F,SBD,Wraps,No,67.5,35,80,2001
1,Svitlana Vyshnevska,Ukraine,1992-10-21,55.8,100,110,-117.5,,45,50,52.5,,110,120,-130,,282.5,56,Pro Open,F,SBD,Wraps,No,110,52.5,120,1992
1,Olimpia Felińska,Poland,1992-04-18,59.85,120,130,-140,,75,80,85,-85.5,120.5,128,135,140,350,60,Pro Open,F,SBD,Wraps,No,130,85,135,1992
1,Paulina Zakostowicz,Poland,1992-09-10,64.4,115,125,-135,,40,45,-47.5,,120,130,-135,,300,67.5,Pro Open,F,SBD,Wraps,No,125,45,130,1992
2,Patrycja Skrzypek,Poland,1992-03-09,62.9,100,-107.5,-110,,45,47.5,50,,100,110,-120,,260,67.5,Pro Open,F,SBD,Wraps,No,100,50,110,1992
1,Natalia Hupało,Poland,1995-07-27,68.85,130,140,-150,,77.5,82.5,85,,125,135,140,,365,75,Pro Open,F,SBD,Wraps,No,140,85,140,1995
2,Monika Nowicka-Tymecka,Poland,1990-10-15,70,80,90,100,,50,-55,57.5,,130,145,155,,312.5,75,Pro Open,F,SBD,Wraps,No,100,57.5,155,1990
3,Kaja Kwiatkowska,Poland,1974-08-24,73.9,-102.5,-102.5,102.5,,45,-47.5,-47.5,,122.5,-132.5,-132.5,,270,75,Pro Open,F,SBD,Wraps,No,102.5,45,122.5,1974
DQ,Christina Ullman,USA,1971-05-01,85.2,-135,-135,,,72.5,-78.5,-78.5,,150,157.5,-160,,,90,Pro Open,F,SBD,Wraps,No,,72.5,157.5,1971
1,Małgorzata Krzyżanowska,Poland,1979-07-25,59.5,-127.5,-132.5,132.5,,47.5,55,57.5,,140,150,155,,345,60,Pro Masters 40-44,F,SBD,Wraps,No,132.5,57.5,155,1979
1,Milena Jabłońska,Poland,1978-04-02,61.8,65,72.5,80,-80.5,-35,37.5,40,,95,107.5,112.5,,232.5,67.5,Pro Masters 40-44,F,SBD,Wraps,No,80,40,112.5,1978
1,Kaja Kwiatkowska,Poland,1974-08-24,73.9,-102.5,-102.5,102.5,,45,-47.5,-47.5,,122.5,-132.5,-132.5,,270,75,Pro Masters 45-49,F,SBD,Wraps,No,102.5,45,122.5,1974
DQ,Christina Ullman,USA,1971-05-01,85.2,-135,-135,,,72.5,-78.5,-78.5,,150,157.5,-160,,,90,Pro Masters 45-49,F,SBD,Wraps,No,,72.5,157.5,1971
1,Olimpia Felińska,Poland,1992-04-18,59.85,120,130,-140,,75,80,85,-85.5,120.5,128,135,140,350,60,Pro Military/Fire/Police,F,SBD,Wraps,No,130,85,135,1992
1,Mieczysłąw Maczka,Germany,1954-09-11,81.8,120,140,-150,,92.5,100,102.5,,125,145,152.5,,395,82.5,Pro Masters 65-69,M,SBD,Multi-ply,No,140,102.5,152.5,1954
1,Damian Chrostek,Poland,2001-11-07,89.3,,,,,105,-110,-110,,190,-205,-205,,295,90,Pro Teen 18-19,M,BD,Raw,No,,105,190,2001
1,Paweł Zadrożny,Poland,1998-06-12,98.5,,,,,140,145,-150,,-260,260,-285.5,,405,100,Pro Juniors 20-23,M,BD,Raw,No,,145,260,1998
1,Kostiantyn Kovalenko,Ukraine,1990-02-13,73.25,,,,,110,117.5,-122.5,,200,-222.5,-222.5,,317.5,75,Pro Open,M,BD,Raw,No,,117.5,200,1990
1,Mikko Mäntymäki,Finland,1971-09-29,82.05,,,,,125,130,-135,,220,230,-235,,360,82.5,Pro Open,M,BD,Raw,No,,130,230,1971
2,Marcin Wajda,Poland,1986-09-03,117.1,,,,,120,140,150,,140,170,-200,,320,125,Pro Open,M,BD,Raw,No,,150,170,1986
1,Marcin Wajda,Poland,1986-09-03,117.1,,,,,120,140,150,,140,170,-200,,320,125,Pro Submasters 33-39,M,BD,Raw,No,,150,170,1986
1,Mikko Mäntymäki,Finland,1971-09-29,82.05,,,,,125,130,-135,,220,230,-235,,360,82.5,Pro Masters 45-49,M,BD,Raw,No,,130,230,1971
1,Mieczysłąw Maczka,Germany,1954-09-11,81.8,,,,,92.5,100,102.5,,125,145,152.5,,255,82.5,Pro Masters 65-69,M,BD,Raw,No,,102.5,152.5,1954
1,Wayne Grenier,USA,1949-11-14,89.9,,,,,77.5,82.5,85,,135,145,155,,240,90,Pro Masters 70-74,M,BD,Raw,No,,85,155,1949
1,Stefan Sochaňski,Poland,1948-11-17,90.9,,,,,80,85,,,170,180,185,,270,100,Pro Masters 70-74,M,BD,Raw,No,,85,185,1948
1,Stefan Sochaňski,Poland,1948-11-17,90.9,,,,,80,85,,,170,180,185,,270,100,Pro Military/Fire/Police,M,BD,Raw,No,,85,185,1948
1,Christina Ullman,USA,1971-05-01,85.2,,,,,72.5,-78.5,-78.5,,150,157.5,-160,,230,90,Pro Open,F,BD,Raw,No,,72.5,157.5,1971
1,Agnieszka Michalska,Poland,1987-09-05,73.4,,,,,60,65,-70,,90,100,105,,170,75,Pro Submasters 33-39,F,BD,Raw,No,,65,105,1987
1,Christina Ullman,USA,1971-05-01,85.2,,,,,72.5,-78.5,-78.5,,150,157.5,-160,,230,90,Pro Masters 45-49,F,BD,Raw,No,,72.5,157.5,1971
1,Stefan Sochaňski,Poland,1948-11-17,90.9,,,,,90,-100,100,,180,190,200,,300,100,Pro Masters 70-74,M,BD,Multi-ply,No,,100,200,1948
1,Kamil Szlagowski,Poland,2005-06-18,99.2,,,,,95,-100,100,,,,,,100,100,Pro Teen 13-15,M,B,Raw,No,,100,,2005
1,Kamil Płaksa,Poland,2005-01-09,66,,,,,85,-90,90,,,,,,90,67.5,Pro Teen 16-17,M,B,Raw,No,,90,,2005
1,Krystian Canert,Poland,2002-01-03,87,,,,,-105,105,-110,,,,,,105,90,Pro Teen 18-19,M,B,Raw,No,,105,,2002
2,Damian Chrostek,Poland,2001-11-07,89.3,,,,,105,-110,-110,,,,,,105,90,Pro Teen 18-19,M,B,Raw,No,,105,,2001
1,Patryk Wójcik,Poland,2000-05-28,66.25,,,,,120,-127.5,-127.5,,,,,,120,67.5,Pro Juniors 20-23,M,B,Raw,No,,120,,2000
1,Mateusz Tchorek,Poland,1999-10-07,82,,,,,160,167.5,-175,,,,,,167.5,82.5,Pro Juniors 20-23,M,B,Raw,No,,167.5,,1999
1,Patryk Szlembarski,Poland,1999-07-18,87,,,,,130,137.5,145,,,,,,145,90,Pro Juniors 20-23,M,B,Raw,No,,145,,1999
1,Damian Redzynia,Poland,1993-01-14,66,,,,,-120,120,-125,,,,,,120,67.5,Pro Open,M,B,Raw,No,,120,,1993
2,Patryk Wójcik,Poland,2000-05-28,66.25,,,,,120,-127.5,-127.5,,,,,,120,67.5,Pro Open,M,B,Raw,No,,120,,2000
1,Adam Kawka,Poland,1997-06-19,74,,,,,157.5,-165,-165,,,,,,157.5,75,Pro Open,M,B,Raw,No,,157.5,,1997
2,Wiesław Kiwacki,Poland,1976-11-11,73.15,,,,,-130,140,-150.5,,,,,,140,75,Pro Open,M,B,Raw,No,,140,,1976
3,Łukasz Cywiński,Poland,1990-04-12,73,,,,,110,115,120,,,,,,120,75,Pro Open,M,B,Raw,No,,120,,1990
4,Damian Kaszuba,Poland,1990-10-02,73.75,,,,,120,-125,-125,,,,,,120,75,Pro Open,M,B,Raw,No,,120,,1990
1,Mikko Mäntymäki,Finland,1971-09-29,82.05,,,,,125,130,-135,,,,,,130,82.5,Pro Open,M,B,Raw,No,,130,,1971
2,Robert Skirzyński,Poland,1995-09-07,88.8,,,,,170,175,177.5,,,,,,177.5,90,Pro Open,M,B,Raw,No,,177.5,,1995
3,Paweł Niesatki,Poland,1989-01-01,86.65,,,,,160,-167.5,-167.5,,,,,,160,90,Pro Open,M,B,Raw,No,,160,,1989
4,Paweł Czechowski,Poland,1989-11-08,86.95,,,,,140,-150,-152.5,,,,,,140,90,Pro Open,M,B,Raw,No,,140,,1989
1,Andrzej Banach,Poland,1992-04-07,98.6,,,,,170,175,180,,,,,,180,100,Pro Open,M,B,Raw,No,,180,,1992
2,Mateusz Młynarczyk,Poland,1988-08-26,98.85,,,,,180,-187.5,-187.5,,,,,,180,100,Pro Open,M,B,Raw,No,,180,,1988
3,Hubert Przybyłek,Poland,1993-08-11,98.85,,,,,165,170,175,,,,,,175,100,Pro Open,M,B,Raw,No,,175,,1993
1,Krystian Liebrecht,Poland,1989-07-11,104.75,,,,,180,190,195,,,,,,195,110,Pro Open,M,B,Raw,No,,195,,1989
2,Krystian Tryba,Poland,1994-05-09,102.55,,,,,145,-155,-155,,,,,,145,110,Pro Open,M,B,Raw,No,,145,,1994
1,Wiktor Szłapka,Poland,1992-09-26,123.95,,,,,165,175,-185,,,,,,175,125,Pro Open,M,B,Raw,No,,175,,1992
2,Marcin Wajda,Poland,1986-09-03,117.1,,,,,120,140,150,,,,,,150,125,Pro Open,M,B,Raw,No,,150,,1986
1,Krzysztof Halczyk,Poland,1974-12-15,129.45,,,,,165,170,175,,,,,,175,140,Pro Open,M,B,Raw,No,,175,,1974
1,Łukasz Żulczyk,Poland,1987-02-24,83,,,,,155,-160,-160,,,,,,155,90,Pro Submasters 33-39,M,B,Raw,No,,155,,1987
1,Leszek Przybył,Poland,1982-07-07,93,,,,,-145,-145,145,,,,,,145,100,Pro Submasters 33-39,M,B,Raw,No,,145,,1982
1,Grzegorsz Ruda,Poland,1986-03-11,105.45,,,,,-160,-160,160,,,,,,160,110,Pro Submasters 33-39,M,B,Raw,No,,160,,1986
2,Jacek Słotwiński,Poland,1985-02-01,103.3,,,,,140,150,-155,,,,,,150,110,Pro Submasters 33-39,M,B,Raw,No,,150,,1985
1,Radosław Darnowski,Poland,1986-09-08,111.75,,,,,160,170,-175,,,,,,170,125,Pro Submasters 33-39,M,B,Raw,No,,170,,1986
2,Marcin Wajda,Poland,1986-09-03,117.1,,,,,120,140,150,,,,,,150,125,Pro Submasters 33-39,M,B,Raw,No,,150,,1986
1,Wiesław Kiwacki,Poland,1976-11-11,73.15,,,,,-130,140,-150.5,,,,,,140,75,Pro Masters 40-44,M,B,Raw,No,,140,,1976
1,Michał Jabłoński,Poland,1980-02-22,99.85,,,,,100,-110,112.5,,,,,,112.5,100,Pro Masters 40-44,M,B,Raw,No,,112.5,,1980
1,Grzegorz Chałubiński,Poland,1972-09-06,89.65,,,,,115,120,-125,,,,,,120,90,Pro Masters 45-49,M,B,Raw,No,,120,,1972
1,Michał Kijański,Poland,1972-05-03,97.98,,,,,-150,150,160,,,,,,160,100,Pro Masters 45-49,M,B,Raw,No,,160,,1972
1,Tomasz Prętkiewicz,Poland,1973-04-09,113.15,,,,,150,155,-160,,,,,,155,125,Pro Masters 45-49,M,B,Raw,No,,155,,1973
1,Krzysztof Halczyk,Poland,1974-12-15,129.45,,,,,165,170,175,,,,,,175,140,Pro Masters 45-49,M,B,Raw,No,,175,,1974
1,Jarosław Bastek,Poland,1969-09-23,120.65,,,,,180,-185,-185,,,,,,180,125,Pro Masters 50-54,M,B,Raw,No,,180,,1969
1,Grzegorz Kantor,Poland,1972-01-19,138.75,,,,,175,180,182.5,,,,,,182.5,140,Pro Masters 50-54,M,B,Raw,No,,182.5,,1972
1,Adam Urbański,Poland,1962-05-18,105.4,,,,,130,140,145,,,,,,145,110,Pro Masters 55-59,M,B,Raw,No,,145,,1962
1,Krzysztof Kłopocki,Poland,1959-04-10,105.5,,,,,155,162.5,167.5,,,,,,167.5,110,Pro Masters 60-64,M,B,Raw,No,,167.5,,1959
1,Mieczysłąw Maczka,Germany,1954-09-11,81.8,,,,,92.5,100,102.5,,,,,,102.5,82.5,Pro Masters 65-69,M,B,Raw,No,,102.5,,1954
1,Leszek Pasieka,Poland,1955-01-22,92.8,,,,,135,140,145,,,,,,145,100,Pro Masters 65-69,M,B,Raw,No,,145,,1955
1,Kazimierz Tamiłowski,Poland,1948-02-02,86.85,,,,,130,135,-140,,,,,,135,90,Pro Masters 70-74,M,B,Raw,No,,135,,1948
2,Wayne Grenier,USA,1949-11-14,89.9,,,,,77.5,82.5,85,,,,,,85,90,Pro Masters 70-74,M,B,Raw,No,,85,,1949
1,Stefan Sochaňski,Poland,1948-11-17,90.9,,,,,80,85,,,,,,,85,100,Pro Masters 70-74,M,B,Raw,No,,85,,1948
1,Adam Kawka,Poland,1997-06-19,74,,,,,157.5,-165,-165,,,,,,157.5,75,Pro Military/Fire/Police,M,B,Raw,No,,157.5,,1997
1,Mieczysłąw Maczka,Germany,1954-09-11,81.8,,,,,92.5,100,102.5,,,,,,102.5,82.5,Pro Military/Fire/Police,M,B,Raw,No,,102.5,,1954
1,Robert Skirzyński,Poland,1995-09-07,88.8,,,,,170,175,177.5,,,,,,177.5,90,Pro Military/Fire/Police,M,B,Raw,No,,177.5,,1995
2,Patryk Szlembarski,Poland,1999-07-18,87,,,,,130,137.5,145,,,,,,145,90,Pro Military/Fire/Police,M,B,Raw,No,,145,,1999
3,Paweł Czechowski,Poland,1989-11-08,86.95,,,,,140,-150,-152.5,,,,,,140,90,Pro Military/Fire/Police,M,B,Raw,No,,140,,1989
1,Mateusz Młynarczyk,Poland,1988-08-26,98.85,,,,,180,-187.5,-187.5,,,,,,180,100,Pro Military/Fire/Police,M,B,Raw,No,,180,,1988
2,Leszek Przybył,Poland,1982-07-07,93,,,,,-145,-145,145,,,,,,145,100,Pro Military/Fire/Police,M,B,Raw,No,,145,,1982
3,Stefan Sochaňski,Poland,1948-11-17,90.9,,,,,80,85,,,,,,,85,100,Pro Military/Fire/Police,M,B,Raw,No,,85,,1948
1,Jacek Słotwiński,Poland,1985-02-01,103.3,,,,,140,150,-155,,,,,,150,110,Pro Military/Fire/Police,M,B,Raw,No,,150,,1985
1,Jarosław Bastek,Poland,1969-09-23,120.65,,,,,180,-185,-185,,,,,,180,125,Pro Military/Fire/Police,M,B,Raw,No,,180,,1969
1,Artur Lis,Poland,1985-09-12,74.95,,,,,155,160,165,,,,,,165,75,Pro Paralympian,M,B,Raw,No,,165,,1985
1,Mateusz Leśniewski,Poland,2005-01-13,78,,,,,70,77.5,-80,,,,,,77.5,82.5,Pro Paralympian,M,B,Raw,No,,77.5,,2005
1,Izabela Krol,Poland,1979-05-18,55.4,,,,,45,47.5,50,,,,,,50,56,Pro Open,F,B,Raw,No,,50,,1979
1,Olimpia Felińska,Poland,1992-04-18,59.85,,,,,75,80,85,-85.5,,,,,85,60,Pro Open,F,B,Raw,No,,85,,1992
2,Viktoriia Kurchyn,Ukraine,1985-04-22,59.5,,,,,70,75,-80,,,,,,75,60,Pro Open,F,B,Raw,No,,75,,1985
3,Karolina Boruszka,Poland,1996-02-14,59.45,,,,,42.5,45,47.5,,,,,,47.5,60,Pro Open,F,B,Raw,No,,47.5,,1996
1,Moonika Aus,Estonia,1971-04-19,65.05,,,,,60,65,-67.5,,,,,,65,67.5,Pro Open,F,B,Raw,No,,65,,1971
2,Magdalena Mądraszek,Poland,1998-12-29,65.5,,,,,52.5,55,-57.5,,,,,,55,67.5,Pro Open,F,B,Raw,No,,55,,1998
1,Christina Ullman,USA,1971-05-01,85.2,,,,,72.5,-78.5,-78.5,,,,,,72.5,90,Pro Open,F,B,Raw,No,,72.5,,1971
1,Viktoriia Kurchyn,Ukraine,1985-04-22,59.5,,,,,70,75,-80,,,,,,75,60,Pro Submasters 33-39,F,B,Raw,No,,75,,1985
1,Izabela Krol,Poland,1979-05-18,55.4,,,,,45,47.5,50,,,,,,50,56,Pro Masters 40-44,F,B,Raw,No,,50,,1979
1,Moonika Aus,Estonia,1971-04-19,65.05,,,,,60,65,-67.5,,,,,,65,67.5,Pro Masters 45-49,F,B,Raw,No,,65,,1971
1,Christina Ullman,USA,1971-05-01,85.2,,,,,72.5,-78.5,-78.5,,,,,,72.5,90,Pro Masters 45-49,F,B,Raw,No,,72.5,,1971
1,Olimpia Felińska,Poland,1992-04-18,59.85,,,,,75,80,85,-85.5,,,,,85,60,Pro Military/Fire/Police,F,B,Raw,No,,85,,1992
1,Remigiusz Zwoliński,Poland,2003-08-15,100.5,,,,,162.5,-175,-175,,,,,,162.5,110,Pro Teen 16-17,M,B,Multi-ply,No,,162.5,,2003
1,Damian Kasza,Poland,1993-05-19,82.6,,,,,140,145,-152.5,,,,,,145,90,Pro Open,M,B,Multi-ply,No,,145,,1993
1,Wojciech Kramer,Poland,1961-08-10,118.5,,,,,180,-200,200,,,,,,200,125,Pro Masters 55-59,M,B,Multi-ply,No,,200,,1961
1,Krzysztof Kłopocki,Poland,1959-04-10,105.5,,,,,155,160,165,,,,,,165,110,Pro Masters 60-64,M,B,Multi-ply,No,,165,,1959
1,Mieczysłąw Maczka,Germany,1954-09-11,81.8,,,,,92.5,100,102.5,,,,,,102.5,82.5,Pro Masters 65-69,M,B,Multi-ply,No,,102.5,,1954
1,Kazimierz Tamiłowski,Poland,1948-02-02,86.85,,,,,150,155,-160,,,,,,155,90,Pro Masters 70-74,M,B,Multi-ply,No,,155,,1948
1,Stefan Sochaňski,Poland,1948-11-17,90.9,,,,,90,-100,100,,,,,,100,100,Pro Masters 70-74,M,B,Multi-ply,No,,100,,1948
1,Mieczysłąw Maczka,Germany,1954-09-11,81.8,,,,,92.5,100,102.5,,,,,,102.5,82.5,Pro Military/Fire/Police,M,B,Multi-ply,No,,102.5,,1954
1,Stefan Sochaňski,Poland,1948-11-17,90.9,,,,,90,-100,100,,,,,,100,100,Pro Military/Fire/Police,M,B,Multi-ply,No,,100,,1948
1,Wojciech Kramer,Poland,1961-08-10,118.5,,,,,180,-200,200,,,,,,200,125,Pro Military/Fire/Police,M,B,Multi-ply,No,,200,,1961
1,Moonika Aus,Estonia,1971-04-19,65.05,,,,,77.5,80,82.5,,,,,,82.5,67.5,Pro Open,F,B,Multi-ply,No,,82.5,,1971
1,Moonika Aus,Estonia,1971-04-19,65.05,,,,,77.5,80,82.5,,,,,,82.5,67.5,Pro Masters 45-49,F,B,Multi-ply,No,,82.5,,1971
1,Marcin Zwoliński,Poland,2005-01-22,82.7,,,,,105,115,-120,,,,,,115,90,Pro Teen 16-17,M,B,Multi-ply,No,,115,,2005
1,Remigiusz Zwoliński,Poland,2003-08-15,100.5,,,,,150,-180,180,-200,,,,,180,110,Pro Teen 16-17,M,B,Multi-ply,No,,180,,2003
1,Piotr Szymański,Poland,2001-05-07,96.4,,,,,160,-180,-180,,,,,,160,100,Pro Teen 18-19,M,B,Multi-ply,No,,160,,2001
1,Damian Kasza,Poland,1993-05-19,82.6,,,,,170,190,-205,,,,,,190,90,Pro Open,M,B,Multi-ply,No,,190,,1993
1,Piotr Szymański,Poland,2001-05-07,96.4,,,,,160,-180,-180,,,,,,160,100,Pro Open,M,B,Multi-ply,No,,160,,2001
1,Marcin Wajda,Poland,1986-09-03,117.1,,,,,150,170,-180,,,,,,170,125,Pro Open,M,B,Multi-ply,No,,170,,1986
1,Marcin Wajda,Poland,1986-09-03,117.1,,,,,150,170,-180,,,,,,170,125,Pro Submasters 33-39,M,B,Multi-ply,No,,170,,1986
1,Dariusz Zwoliński,Poland,1974-11-06,90,,,,,160,170,180,,,,,,180,90,Pro Masters 45-49,M,B,Multi-ply,No,,180,,1974
1,Wojciech Kramer,Poland,1961-08-10,118.5,,,,,-220,220,-255,,,,,,220,125,Pro Masters 55-59,M,B,Multi-ply,No,,220,,1961
1,Mieczysłąw Maczka,Germany,1954-09-11,81.8,,,,,92.5,100,102.5,,,,,,102.5,82.5,Pro Masters 65-69,M,B,Multi-ply,No,,102.5,,1954
1,Mieczysłąw Maczka,Germany,1954-09-11,81.8,,,,,92.5,100,102.5,,,,,,102.5,82.5,Pro Military/Fire/Police,M,B,Multi-ply,No,,102.5,,1954
1,Wojciech Kramer,Poland,1961-08-10,118.5,,,,,-220,220,-255,,,,,,220,125,Pro Military/Fire/Police,M,B,Multi-ply,No,,220,,1961
1,Mateusz Bosacki,Poland,2007-07-26,56,,,,,,,,,100,-115,-115,,100,56,Amateur Teen 13-15,M,D,Raw,Yes,,,100,2007
1,Jakub Jarończyk,Poland,2005-10-24,74.75,,,,,,,,,150,160,170,,170,75,Amateur Teen 13-15,M,D,Raw,Yes,,,170,2005
1,Radosław Bober,Poland,2004-01-28,58.4,,,,,,,,,140,-150,150,,150,60,Amateur Teen 16-17,M,D,Raw,Yes,,,150,2004
1,Jacek Szeszycki,Poland,2005-02-02,73.4,,,,,,,,,130,145,152.5,,152.5,75,Amateur Teen 16-17,M,D,Raw,Yes,,,152.5,2005
1,Nikodem Hapka,Poland,2003-10-04,85.7,,,,,,,,,180,192.5,-200,,192.5,90,Amateur Teen 16-17,M,D,Raw,Yes,,,192.5,2003
1,Damian Chrostek,Poland,2001-11-07,89.3,,,,,,,,,190,-205,-205,,190,90,Amateur Teen 18-19,M,D,Raw,Yes,,,190,2001
2,Krystian Canert,Poland,2002-01-03,87,,,,,,,,,155,170,185,,185,90,Amateur Teen 18-19,M,D,Raw,Yes,,,185,2002
1,Paweł Zadrożny,Poland,1998-06-12,98.5,,,,,,,,,-260,260,-285.5,,260,100,Amateur Juniors 20-23,M,D,Raw,Yes,,,260,1998
1,Kostiantyn Kovalenko,Ukraine,1990-02-13,73.25,,,,,,,,,200,-222.5,-222.5,,200,75,Amateur Open,M,D,Raw,Yes,,,200,1990
2,Dominik Kowalewski,Poland,1982-05-20,74.75,,,,,,,,,170,180,-185,,180,75,Amateur Open,M,D,Raw,Yes,,,180,1982
1,Bartłomiej Szaflarski,Poland,1990-08-01,79.25,,,,,,,,,230,245,255,,255,82.5,Amateur Open,M,D,Raw,Yes,,,255,1990
2,Mikko Mäntymäki,Finland,1971-09-29,82.05,,,,,,,,,220,230,-235,,230,82.5,Amateur Open,M,D,Raw,Yes,,,230,1971
1,Marcin Kosut,Poland,1988-10-23,92.25,,,,,,,,,260,270,275,,275,100,Amateur Open,M,D,Raw,Yes,,,275,1988
2,Grzegorz Rompalski,Poland,1982-07-04,97.85,,,,,,,,,250,265,275,,275,100,Amateur Open,M,D,Raw,Yes,,,275,1982
3,Michał Szaszkowski,Poland,1988-09-11,98.45,,,,,,,,,190,205,-220,,205,100,Amateur Open,M,D,Raw,Yes,,,205,1988
3,Marcin Wajda,Poland,1986-09-03,117.1,,,,,,,,,140,170,-200,,170,125,Amateur Open,M,D,Raw,Yes,,,170,1986
1,Grzegorz Rompalski,Poland,1982-07-04,97.85,,,,,,,,,250,265,275,,275,100,Amateur Submasters 33-39,M,D,Raw,Yes,,,275,1982
2,Artur Podraza,Poland,1986-08-18,96.75,,,,,,,,,-240,240,-245,,240,100,Amateur Submasters 33-39,M,D,Raw,Yes,,,240,1986
1,Łukasz Woźniak,Poland,1985-01-21,120,,,,,,,,,-230,230,260,,260,125,Amateur Submasters 33-39,M,D,Raw,Yes,,,260,1985
2,Marcin Wajda,Poland,1986-09-03,117.1,,,,,,,,,140,170,-200,,170,125,Amateur Submasters 33-39,M,D,Raw,Yes,,,170,1986
1,Vasyl Ivantyshyn,Ukraine,1978-10-03,72,,,,,,,,,170,-195,-195,,170,75,Amateur Masters 40-44,M,D,Raw,Yes,,,170,1978
1,Mikko Mäntymäki,Finland,1971-09-29,82.05,,,,,,,,,220,230,-235,,230,82.5,Amateur Masters 45-49,M,D,Raw,Yes,,,230,1971
1,Grzegorz Chałubiński,Poland,1972-09-06,89.65,,,,,,,,,165,175,185,,185,90,Amateur Masters 45-49,M,D,Raw,Yes,,,185,1972
1,Mieczysłąw Maczka,Germany,1954-09-11,81.8,,,,,,,,,125,145,152.5,,152.5,82.5,Amateur Masters 65-69,M,D,Raw,Yes,,,152.5,1954
1,Jan Łuka,Poland,1949-06-07,85.25,,,,,,,,,230,-250,-250,,230,90,Amateur Masters 70-74,M,D,Raw,Yes,,,230,1949
2,Wayne Grenier,USA,1949-11-14,89.9,,,,,,,,,135,145,155,,155,90,Amateur Masters 70-74,M,D,Raw,Yes,,,155,1949
1,Stefan Sochaňski,Poland,1948-11-17,90.9,,,,,,,,,170,180,185,,185,100,Amateur Masters 70-74,M,D,Raw,Yes,,,185,1948
2,Stefan Sochaňski,Poland,1948-11-17,90.9,,,,,,,,,170,180,185,,185,100,Amateur Military/Fire/Police,M,D,Raw,Yes,,,185,1948
1,Łucja Milaniak,Poland,2003-12-10,63.15,,,,,,,,,90,-100,100,,100,67.5,Amateur Teen 16-17,F,D,Raw,Yes,,,100,2003
1,Zuzanna Buchowiecka,Poland,2002-09-01,44,,,,,,,,,80,90,100,102.5,100,44,Amateur Teen 18-19,F,D,Raw,Yes,,,100,2002
1,Ela Kardaś,Poland,1999-12-16,56,,,,,,,,,120,130,-140,,130,56,Amateur Juniors 20-23,F,D,Raw,Yes,,,130,1999
2,Karolina Wątorczyk,Poland,1998-09-22,55.7,,,,,,,,,100,115,-125,,115,56,Amateur Juniors 20-23,F,D,Raw,Yes,,,115,1998
1,Moonika Aus,Estonia,1971-04-19,65.05,,,,,,,,,95,105,115,,115,67.5,Amateur Open,F,D,Raw,Yes,,,115,1971
1,Christina Ullman,USA,1971-05-01,85.2,,,,,,,,,150,157.5,-160,,157.5,90,Amateur Open,F,D,Raw,Yes,,,157.5,1971
1,Marietta Kiszka,Poland,1984-04-05,60.2,,,,,,,,,85,92.5,95,,95,67.5,Amateur Submasters 33-39,F,D,Raw,Yes,,,95,1984
1,Moonika Aus,Estonia,1971-04-19,65.05,,,,,,,,,95,105,115,,115,67.5,Amateur Masters 45-49,F,D,Raw,Yes,,,115,1971
1,Christina Ullman,USA,1971-05-01,85.2,,,,,,,,,150,157.5,-160,,157.5,90,Amateur Masters 45-49,F,D,Raw,Yes,,,157.5,1971
1,Piotr Szymański,Poland,2001-05-07,96.4,,,,,,,,,140,160,-170,,160,100,Amateur Teen 18-19,M,D,Multi-ply,Yes,,,160,2001
1,Przemysław Kaźmierczak,Poland,1993-07-07,88.6,,,,,,,,,240,255,267.5,,267.5,90,Amateur Open,M,D,Multi-ply,Yes,,,267.5,1993
1,Piotr Szymański,Poland,2001-05-07,96.4,,,,,,,,,140,160,-170,,160,100,Amateur Open,M,D,Multi-ply,Yes,,,160,2001
1,Mieczysłąw Maczka,Germany,1954-09-11,81.8,,,,,,,,,125,145,152.5,,152.5,82.5,Amateur Masters 65-69,M,D,Multi-ply,Yes,,,152.5,1954
1,Stefan Sochaňski,Poland,1948-11-17,90.9,,,,,,,,,180,190,200,,200,100,Amateur Masters 70-74,M,D,Multi-ply,Yes,,,200,1948
1,Stefan Sochaňski,Poland,1948-11-17,90.9,,,,,,,,,180,190,200,,200,100,Amateur Military/Fire/Police,M,D,Multi-ply,Yes,,,200,1948
1,Moonika Aus,Estonia,1971-04-19,65.05,,,,,,,,,95,110,120,,120,67.5,Amateur Open,F,D,Multi-ply,Yes,,,120,1971
1,Moonika Aus,Estonia,1971-04-19,65.05,,,,,,,,,95,110,120,,120,67.5,Amateur Masters 45-49,F,D,Multi-ply,Yes,,,120,1971
1,Seweryn Floryczyk,Poland,2006-05-04,94.1,100,110,-115,,70,75,-77.5,,-120,120,125,,310,100,Pro Teen 13-15,M,SBD,Wraps,No,110,75,125,2006
1,Sebastian Pajor,Poland,2005-05-21,137.25,150,160,170,,100,105,110,,160,170,190,,470,140,Pro Teen 13-15,M,SBD,Wraps,No,170,110,190,2005
DQ,Filip Tołoczko,Poland,2003-09-19,87.85,-190,-190,190,,-125,-125,-125,,-190,,,,,90,Pro Teen 16-17,M,SBD,Wraps,No,190,,,2003
1,Jakub Frączek,Poland,2004-09-07,94.25,180,190,-200,,107.5,112.5,117.5,,190,205,215,,522.5,100,Pro Teen 16-17,M,SBD,Wraps,No,190,117.5,215,2004
1,Jakub Makosz,Poland,2002-12-02,66,145,157.5,162.5,,105,110,-115,,190,202.5,-210,,475,67.5,Pro Teen 18-19,M,SBD,Wraps,No,162.5,110,202.5,2002
1,Nikodem Labuda,Poland,2001-09-05,87.8,-210,220,235,,125,130,132.5,,230,250,,,617.5,90,Pro Teen 18-19,M,SBD,Wraps,No,235,132.5,250,2001
2,Dominik Czestkowski,Poland,2002-07-12,88.1,205,-215,220,,132.5,140,142.5,,220,-232.5,237.5,,600,90,Pro Teen 18-19,M,SBD,Wraps,No,220,142.5,237.5,2002
3,Jan Gajewski,Poland,2001-07-15,90,180,190,-200,,100,110,-115,,170,185,200,,500,90,Pro Teen 18-19,M,SBD,Wraps,No,190,110,200,2001
1,Dawid Sobolewski,Poland,2002-07-08,97.25,-220,220,245,,170,-180,-180,,220,-240,-240,,635,100,Pro Teen 18-19,M,SBD,Wraps,No,245,170,220,2002
2,Mikołaj Wilczyński,Poland,2002-07-18,97.65,200,220,230,,115,125,135,,-250,250,270,,635,100,Pro Teen 18-19,M,SBD,Wraps,No,230,135,270,2002
3,Krystian Walkowski,Poland,2002-07-19,98.55,210,-230,-230,,115,125,130,,215,225,240,,580,100,Pro Teen 18-19,M,SBD,Wraps,No,210,130,240,2002
1,Adam Woźny,Poland,2001-09-12,103.25,280,-295,,,150,160,-165,,235,250,260,,700,110,Pro Teen 18-19,M,SBD,Wraps,No,280,160,260,2001
1,Szymon Tarwacki,Poland,2002-06-09,121.8,320,335,-345,,180,190,-195,,260,275,-290,,800,125,Pro Teen 18-19,M,SBD,Wraps,No,335,190,275,2002
2,Jan Szopa,Poland,2001-12-09,124,245,252.5,265,,140,147.5,155,,250,260,-270,,680,125,Pro Teen 18-19,M,SBD,Wraps,No,265,155,260,2001
1,Dominik Szczebak,Poland,1997-05-03,59.22,145,-155,155,,90,95,-100,,175,182.5,-190,,432.5,60,Pro Juniors 20-23,M,SBD,Wraps,No,155,95,182.5,1997
1,Filip Stelmach,Poland,2000-03-16,73.25,-197.5,205,-212.5,,110,115,-120,,210,220,-227.5,,540,75,Pro Juniors 20-23,M,SBD,Wraps,No,205,115,220,2000
1,Oliver Kurek,Slovakia,1999-03-23,80.15,240,250,-260,,160,-165,-165,,290.5,300,-310,,710,82.5,Pro Juniors 20-23,M,SBD,Wraps,No,250,160,300,1999
2,Szymon Mazurek,Poland,1998-10-17,82.1,245,262.5,-270.5,,135,142.5,-147.5,,230,240,-250,,645,82.5,Pro Juniors 20-23,M,SBD,Wraps,No,262.5,142.5,240,1998
3,Łukasz Babecki,Poland,1999-01-21,80.9,200,210,-220,,132.5,140,-145,,227.5,240,250,,600,82.5,Pro Juniors 20-23,M,SBD,Wraps,No,210,140,250,1999
4,Maciej Brodecki,Poland,1998-02-12,81.05,200,-210,-220,,115,-120,-120,,240,252.5,-260,,567.5,82.5,Pro Juniors 20-23,M,SBD,Wraps,No,200,115,252.5,1998
5,Dawid Ożga,Poland,1999-02-09,76.45,190,200,-210,,100,-105,-107.5,,190,-205,205,,505,82.5,Pro Juniors 20-23,M,SBD,Wraps,No,200,100,205,1999
1,Nikodem Romanowski,Poland,1997-07-30,89.8,-270,-270,270,,162.5,170,175,,-280,280,300,-310,745,90,Pro Juniors 20-23,M,SBD,Wraps,No,270,175,300,1997
2,Jakub Pączkowski,Poland,1997-10-27,88.2,240,260,,,150,160,-162.5,,250,270,-280,,690,90,Pro Juniors 20-23,M,SBD,Wraps,No,260,160,270,1997
3,Paweł Just,Poland,1999-08-14,87.85,240,-252.5,-252.5,,130,137.5,-142.5,,210,222.5,-232.5,,600,90,Pro Juniors 20-23,M,SBD,Wraps,No,240,137.5,222.5,1999
4,Karol Gajowniczek,Poland,1999-05-10,87.9,200,-220,220,,-110,115,125,,200,225,-250,,570,90,Pro Juniors 20-23,M,SBD,Wraps,No,220,125,225,1999
5,Adrian Janecki,Poland,2000-08-17,87.15,185,202.5,-205,,125,-132.5,132.5,,200,215,-222.5,,550,90,Pro Juniors 20-23,M,SBD,Wraps,No,202.5,132.5,215,2000
6,Mateusz Masłowski,Poland,1997-04-24,88.05,190,205,215,,100,-107.5,-107.5,,200,215,-225,,530,90,Pro Juniors 20-23,M,SBD,Wraps,No,215,100,215,1997
1,Kajetan Nakonieczny,Poland,2000-09-04,98.9,280,300,-307.5,,175,-182.5,-182.5,,287.5,300,-307.5,,775,100,Pro Juniors 20-23,M,SBD,Wraps,No,300,175,300,2000
2,Bartosz Szczepankiewicz,Poland,1999-05-19,100,-270,-270,270,,170,-177.5,-177.5,,270,-280,-280,,710,100,Pro Juniors 20-23,M,SBD,Wraps,No,270,170,270,1999
3,Mateusz Olszówka,Poland,1999-06-11,96.65,240,255,-270,,130,140,150,,255,270,280,,685,100,Pro Juniors 20-23,M,SBD,Wraps,No,255,150,280,1999
4,Wojciech Celner,Poland,1997-10-17,98.8,250,265,-275,,135,140,150,,230,250,260,,675,100,Pro Juniors 20-23,M,SBD,Wraps,No,265,150,260,1997
1,Michał Pawłowski,Poland,1998-01-25,108.6,290,305,-315,,185,195,-200,,295,305.5,-310,,805.5,110,Pro Juniors 20-23,M,SBD,Wraps,No,305,195,305.5,1998
2,Michał Zięba,Poland,1998-09-22,108.9,185,197.5,-215,,100,105,-115,,185,200,215,,517.5,110,Pro Juniors 20-23,M,SBD,Wraps,No,197.5,105,215,1998
1,Boris Štulajter,Slovakia,2000-08-13,122.6,-280,280,-300,,150,155,-162.5,,280,-290,-290,,715,125,Pro Juniors 20-23,M,SBD,Wraps,No,280,155,280,2000
2,Hubert Woźniak,Poland,1998-09-26,116.3,-270,270,-290,,135,142.5,-147.5,,230,-240,240,,652.5,125,Pro Juniors 20-23,M,SBD,Wraps,No,270,142.5,240,1998
DQ,Kamil Sobecki,Poland,1998-05-12,116.4,150,165,175,,-135,-145,-145,,-190,,,,,125,Pro Juniors 20-23,M,SBD,Wraps,No,175,,,1998
DQ,Marcin Gierczak,Poland,1998-12-15,120.75,-310,,,,-140,,,,-330,,,,,125,Pro Juniors 20-23,M,SBD,Wraps,No,,,,1998
1,Konrad Blewązka,Poland,1998-01-01,135.75,-380,380,-400,,205,215,225,,350,370,,,975,140,Pro Juniors 20-23,M,SBD,Wraps,No,380,225,370,1998
2,Jakub Dylewski,Poland,1997-06-24,136.8,310,330,350,,170,180,187.5,,275,290,300,,837.5,140,Pro Juniors 20-23,M,SBD,Wraps,No,350,187.5,300,1997
3,Sebastian Gałkiewicz,Poland,1999-08-23,134.4,280,290,300,,185,195,-202.5,,310,330,-340,,825,140,Pro Juniors 20-23,M,SBD,Wraps,No,300,195,330,1999
1,Paweł Szymanek,Poland,1997-02-06,66.45,147.5,155,-170,,95,100,-102.5,,180,200,207.5,,462.5,67.5,Pro Open,M,SBD,Wraps,No,155,100,207.5,1997
2,Paweł Chojnacki,Poland,1990-07-05,67.1,150,-160,-167.5,,115,120,125,,170,180,187.5,,462.5,67.5,Pro Open,M,SBD,Wraps,No,150,125,187.5,1990
1,Daniel Chaciński,Poland,1996-02-22,74.1,205,-225,-225,,155,170,-175,,215,232.5,-242.5,,607.5,75,Pro Open,M,SBD,Wraps,No,205,170,232.5,1996
2,Bartłomiej Wierciński,Poland,1995-11-18,74.6,200,215,-222.5,,120,-127.5,127.5,,245,260,-275,,602.5,75,Pro Open,M,SBD,Wraps,No,215,127.5,260,1995
3,Andrzej Kołodziejczyk,Poland,1990-11-10,73.35,180,190,200,,140,-147.5,147.5,,205,215,222.5,,570,75,Pro Open,M,SBD,Wraps,No,200,147.5,222.5,1990
4,Oleksandr Trondiuk,Ukraine,1995-12-28,73.9,200,210,,,100,110,-112.5,,230,-250,250,,570,75,Pro Open,M,SBD,Wraps,No,210,110,250,1995
5,Marceli Gierszon,Poland,1992-09-07,71.9,210,-220,227.5,,115,120,-122.5,,210,220,-227.5,,567.5,75,Pro Open,M,SBD,Wraps,No,227.5,120,220,1992
6,Mariusz Łydziński,Poland,1990-01-25,73.3,-170,170,185,,110,-115,-115,,210,217.5,220,,515,75,Pro Open,M,SBD,Wraps,No,185,110,220,1990
1,Tomasz Borowczyk,Poland,1988-08-27,80.45,230,240,245,,135,142.5,150,,260,265,275,,670,82.5,Pro Open,M,SBD,Wraps,No,245,150,275,1988
2,Mateusz Piórkowski,Poland,1991-04-18,82.5,230,-240,-240,,160,165,-167.5,,-260,260,-277.5,,655,82.5,Pro Open,M,SBD,Wraps,No,230,165,260,1991
3,Paweł Likus,Poland,1991-04-01,80.85,-220,220,-235,,140,145,-150,,-245,250,-260,,615,82.5,Pro Open,M,SBD,Wraps,No,220,145,250,1991
4,Bartłomiej Woryński,Poland,1997-01-13,81.15,-200,-200,200,,100,-107.5,107.5,,200,215,230,,537.5,82.5,Pro Open,M,SBD,Wraps,No,200,107.5,230,1997
5,Dawid Ożga,Poland,1999-02-09,76.45,190,200,-210,,100,-105,-107.5,,190,-205,205,,505,82.5,Pro Open,M,SBD,Wraps,No,200,100,205,1999
1,Tomasz Moniak,Poland,1994-12-13,89.4,270,285,-292.5,,145,152.5,-160,,300,310,-315,,747.5,90,Pro Open,M,SBD,Wraps,No,285,152.5,310,1994
2,Marcin Nowaczek,Poland,1994-05-06,89.65,-255,255,-270,,175,-185,185,,285,300,,,740,90,Pro Open,M,SBD,Wraps,No,255,185,300,1994
3,Jakub Pączkowski,Poland,1997-10-27,88.2,240,260,,,150,160,-162.5,,250,270,-280,,690,90,Pro Open,M,SBD,Wraps,No,260,160,270,1997
4,Tomasz Wygoda,Poland,1990-10-14,87.3,200,210,220,,165,175,182.5,,250,260,275,,677.5,90,Pro Open,M,SBD,Wraps,No,220,182.5,275,1990
5,Zdenko Bystrianský,Slovakia,1989-05-03,88.4,250,-265,265,,145,155,-160,,240,250,-260,,670,90,Pro Open,M,SBD,Wraps,No,265,155,250,1989
6,Tomasz Drożdż,Poland,1994-01-07,89.05,-230,230,-245,,120,127.5,135,,230,240,250,,615,90,Pro Open,M,SBD,Wraps,No,230,135,250,1994
7,Filip Dec,Poland,1993-11-25,86.75,200,212.5,217.5,,135,145,150,,235,245,-255,,612.5,90,Pro Open,M,SBD,Wraps,No,217.5,150,245,1993
8,Przemysław Ćwil,Poland,1993-03-11,88.78,220,225,232.5,,130,-137.5,-137.5,,235,250,-255,,612.5,90,Pro Open,M,SBD,Wraps,No,232.5,130,250,1993
9,Jarosław Janas,Poland,1988-10-01,88.6,200,210,220,,-120,120,130,,210,222.5,-230,,572.5,90,Pro Open,M,SBD,Wraps,No,220,130,222.5,1988
10,Adrian Pańczyk,Poland,1996-10-17,89,210,215,230,,110,117.5,125,,200,210,-220,,565,90,Pro Open,M,SBD,Wraps,No,230,125,210,1996
11,Adam Malarski,Poland,1996-08-18,88.75,205,215,222.5,,115,-120,122.5,,205,-220,-220,-220,550,90,Pro Open,M,SBD,Wraps,No,222.5,122.5,205,1996
1,Kajetan Nakonieczny,Poland,2000-09-04,98.9,280,300,-307.5,,175,-182.5,-182.5,,287.5,300,-307.5,,775,100,Pro Open,M,SBD,Wraps,No,300,175,300,2000
2,Piotr Woźniak,Poland,1988-05-06,96.9,270,-290,290,,175,190,-200,,270,280,290,,770,100,Pro Open,M,SBD,Wraps,No,290,190,290,1988
3,Kacper Uszakiewicz,Poland,1988-05-17,99.1,250,265,275,,150,160,,,290,300,-310,,735,100,Pro Open,M,SBD,Wraps,No,275,160,300,1988
4,Krystian Chmura,Poland,1997-01-21,97.75,250,-260,260,,145,155,-160,,255,270,-285,,685,100,Pro Open,M,SBD,Wraps,No,260,155,270,1997
5,Radosław Piątkowski,Poland,1991-09-06,97.9,250,-265,-270,,130,137.5,-142.5,,250,265,280,,667.5,100,Pro Open,M,SBD,Wraps,No,250,137.5,280,1991
6,Piotr Jastrzębski,Poland,1996-05-31,95.6,-235,245,255,,135,142.5,150,,200,215,230,,635,100,Pro Open,M,SBD,Wraps,No,255,150,230,1996
7,Tomasz Charytoniuk,Poland,1996-03-12,100,235,-250,-250,,152.5,157.5,-160,,220,235,-252.5,,627.5,100,Pro Open,M,SBD,Wraps,No,235,157.5,235,1996
8,Jakub Boczarski,Poland,1993-06-19,94,210,225,235,,110,120,130,,220,240,255,,620,100,Pro Open,M,SBD,Wraps,No,235,130,255,1993
9,Damian Polak,Poland,1990-08-21,95.65,230,-250,-250,,110,120,-125,,250,270,-285,,620,100,Pro Open,M,SBD,Wraps,No,230,120,270,1990
10,Mariusz Parzybót,Poland,1983-04-07,98.1,-230,-230,230,,122.5,130,137.5,,225,240,250,,617.5,100,Pro Open,M,SBD,Wraps,No,230,137.5,250,1983
11,Robert Rędzia,Poland,1990-12-27,99.8,200,210,220,,-140,140,150,,210,220,230,,600,100,Pro Open,M,SBD,Wraps,No,220,150,230,1990
12,Marcin Bednarski,Poland,1990-01-17,97,-190,200,210,,130,135,140,,225,235,-240,,585,100,Pro Open,M,SBD,Wraps,No,210,140,235,1990
13,Dawid Drężek,Poland,1996-01-14,99.1,210,225,-232.5,,115,122.5,130,,195,207.5,220,,575,100,Pro Open,M,SBD,Wraps,No,225,130,220,1996
14,Michał Surmacz,Poland,1997-12-01,94.2,-200,205,215,,120,130,-140,,190,200,-210,,545,100,Pro Open,M,SBD,Wraps,No,215,130,200,1997
1,Oskar Bar,Poland,1994-10-02,109.45,330,-350,-350,,185,-195,,,280,-295,-295,,795,110,Pro Open,M,SBD,Wraps,No,330,185,280,1994
2,Paweł Łukomski,Poland,1992-09-09,109.8,315,-325,-335,,150,160,-165,,315,-322.5,-322.5,,790,110,Pro Open,M,SBD,Wraps,No,315,160,315,1992
3,Mateusz Wrzesiński,Poland,1993-02-17,109.65,-260,-260,260,,-180,180,190,,300,315,-347.5,,765,110,Pro Open,M,SBD,Wraps,No,260,190,315,1993
4,Damian Głuchowski,Poland,1993-06-14,102.85,260,270,280,,180,190,200,,270,-280,280,,760,110,Pro Open,M,SBD,Wraps,No,280,200,280,1993
5,Przemek Brodala,Poland,1988-10-15,107.2,270,-285,-285,,170,185,-195,,275,-290,-290,,730,110,Pro Open,M,SBD,Wraps,No,270,185,275,1988
6,Dariusz Korniak,Poland,1992-02-28,108.25,260,-270,-275,,160,-165,-165,,270,280,-285,,700,110,Pro Open,M,SBD,Wraps,No,260,160,280,1992
7,Łukasz Machynia,Poland,1995-09-01,108.2,-255,255,-277.5,,145,155,-160,,255,272.5,-275,,682.5,110,Pro Open,M,SBD,Wraps,No,255,155,272.5,1995
8,Serhii Stashenko,Ukraine,1988-06-20,103.4,200,220,225,,150,155,160,,280,295,,,680,110,Pro Open,M,SBD,Wraps,No,225,160,295,1988
1,Artur Lisowski,Poland,1994-07-28,112.8,325,350,-370,,190,200,205,,305,315,-330,,870,125,Pro Open,M,SBD,Wraps,No,350,205,315,1994
2,Sebastian Pawlik,Poland,1992-09-02,115.9,-330,-330,330,,210,220,-225,,305,-315,-315,,855,125,Pro Open,M,SBD,Wraps,No,330,220,305,1992
3,Damian Ordon,Poland,1980-06-21,120.7,260,275,290,,185,195,202.5,,270,280,-290,,772.5,125,Pro Open,M,SBD,Wraps,No,290,202.5,280,1980
4,Petr Pastýřík,Czechia,1989-08-07,120.6,270,290,-302.5,,185,190,192.5,,270,280,-300,,762.5,125,Pro Open,M,SBD,Wraps,No,290,192.5,280,1989
5,Maciej Młynarczyk,Poland,1991-02-15,117.25,-270,-280,280,,-195,200,-210,,-280,280,-300,,760,125,Pro Open,M,SBD,Wraps,No,280,200,280,1991
6,Michał Pacholczak,Poland,1990-10-24,118.75,230,245,260,,160,170,175,,240,255,-270,,690,125,Pro Open,M,SBD,Wraps,No,260,175,255,1990
7,Michał Pyczak,Poland,1996-01-27,118.5,235,-245,-250,,150,157.5,165,,280,-290,-290,,680,125,Pro Open,M,SBD,Wraps,No,235,165,280,1996
8,Michal Pukin,Poland,1988-05-29,123.7,195,-225,-250,,150,162.5,-170,,280,302.5,315,,672.5,125,Pro Open,M,SBD,Wraps,No,195,162.5,315,1988
9,Mateusz Szmyt,Poland,1990-11-02,118.6,270,-285,290,,120,,,,250,,,,660,125,Pro Open,M,SBD,Wraps,No,290,120,250,1990
1,Mateusz Sobczak,Poland,1995-10-18,134.2,-335,352.5,362,,180,190,200,,290,307.5,320,,882,140,Pro Open,M,SBD,Wraps,No,362,200,320,1995
2,Patryk Neukirch,Poland,1996-04-11,136.5,240,255,270,,147.5,155,-162.5,,250,262.5,275,,700,140,Pro Open,M,SBD,Wraps,No,270,155,275,1996
1,Łukasz Klugiewicz,Poland,1993-12-17,143.35,337.5,357.5,370,,195,210,-220,,310,325,-340,,905,140+,Pro Open,M,SBD,Wraps,No,370,210,325,1993
1,Paweł Grab,Poland,1983-11-06,73.95,190,197.5,-205,,145,-150.5,150.5,,220,230,-240.5,,578,75,Pro Submasters 33-39,M,SBD,Wraps,No,197.5,150.5,230,1983
1,Łukasz Dobrowolski,Poland,1983-12-28,88.9,170,185,200,,137.5,-145,-145,,200,215,-230,,552.5,90,Pro Submasters 33-39,M,SBD,Wraps,No,200,137.5,215,1983
1,Mateusz Morawiec,Poland,1985-09-27,97.25,-230,235,250,,145,152.5,157.5,,250,265,280,,687.5,100,Pro Submasters 33-39,M,SBD,Wraps,No,250,157.5,280,1985
2,Kevork Tutunjian,Armenia,1986-01-04,97.45,190,210,-225,,140,150,157.5,,230,245,260,,627.5,100,Pro Submasters 33-39,M,SBD,Wraps,No,210,157.5,260,1986
3,Jakub Palenik,Poland,1985-03-31,99.8,210,-220,220,,135,140,-142.5,,205,220,-230,,580,100,Pro Submasters 33-39,M,SBD,Wraps,No,220,140,220,1985
1,Cezary Urbaniak,Poland,1982-08-08,106.85,-235,235,250,,170,180,190,,250,270,-280,,710,110,Pro Submasters 33-39,M,SBD,Wraps,No,250,190,270,1982
1,Kamil Kargul,Poland,1985-10-26,123.6,270,285,290,,-175,175,-185.5,,280,300.5,,,765.5,125,Pro Submasters 33-39,M,SBD,Wraps,No,290,175,300.5,1985
2,Marcin Czermiński,Poland,1981-04-25,114.3,225,240,255,,140,150,157.5,,-252.5,252.5,-255,,665,125,Pro Submasters 33-39,M,SBD,Wraps,No,255,157.5,252.5,1981
3,Przemysław Rybacki,Poland,1985-03-07,111.35,190,200,210,,170,-180,180,,200,-220,230,,620,125,Pro Submasters 33-39,M,SBD,Wraps,No,210,180,230,1985
DQ,Gegham Hakobyan,Armenia,1981-07-01,119.35,220,240,260,,140,150,-155,,-250,-250,-250,,,125,Pro Submasters 33-39,M,SBD,Wraps,No,260,150,,1981
1,Shavarsh Khachatrian,Armenia,1987-12-04,128.75,-180,180,-200,,120,130,,,180,190,205,,515,140,Pro Submasters 33-39,M,SBD,Wraps,No,180,130,205,1987
1,Mateusz Dziura,Poland,1980-07-03,98.55,-215,215,-240,,130,140,147.5,,240,260,275,,637.5,100,Pro Masters 40-44,M,SBD,Wraps,No,215,147.5,275,1980
2,Arkadiusz Kalinowski,Poland,1976-10-04,95.4,160,172.5,185,,110,117.5,125,,210,225,240,,550,100,Pro Masters 40-44,M,SBD,Wraps,No,185,125,240,1976
1,Seweryn Kononiuk,Poland,1977-11-21,100.1,200,-220,220,,150,-160,-160,,210,220,230,,600,110,Pro Masters 40-44,M,SBD,Wraps,No,220,150,230,1977
1,Robert Drozdowski,Poland,1979-04-02,124.25,290,-310,310,,210,220,225,,280,300,305,,840,125,Pro Masters 40-44,M,SBD,Wraps,No,310,225,305,1979
2,Damian Ordon,Poland,1980-06-21,120.7,260,275,290,,185,195,202.5,,270,280,-290,,772.5,125,Pro Masters 40-44,M,SBD,Wraps,No,290,202.5,280,1980
1,Daniel Cieplak,Poland,1973-10-20,82.4,200,210,217.5,-218,145,152.5,157.5,,200,220,235.5,,610.5,82.5,Pro Masters 45-49,M,SBD,Wraps,No,217.5,157.5,235.5,1973
2,Wojciech Walania,Poland,1976-01-29,79.4,100,-140,-150,,80,100,,,120,150,170,,370,82.5,Pro Masters 45-49,M,SBD,Wraps,No,100,100,170,1976
1,Krzysztof Tur,Poland,1967-07-30,89.65,200,-220.5,222.5,,132.5,140,-145,,220.5,237.5,242.5,,605,90,Pro Masters 50-54,M,SBD,Wraps,No,222.5,140,242.5,1967
1,Ivan Levický,Slovakia,1970-05-06,102.25,180,-200,210,,130,140,150,,220,230,240,,600,110,Pro Masters 50-54,M,SBD,Wraps,No,210,150,240,1970
1,Józef Sokołowski,Poland,1955-07-28,105.1,240,-260,260,,120,-130,,,280,300,310,,690,110,Pro Masters 65-69,M,SBD,Wraps,No,260,120,310,1955
1,Mariusz Łydziński,Poland,1990-01-25,73.3,-170,170,185,,110,-115,-115,,210,217.5,220,,515,75,Pro Military/Fire/Police,M,SBD,Wraps,No,185,110,220,1990
1,Maciej Brodecki,Poland,1998-02-12,81.05,200,-210,-220,,115,-120,-120,,240,252.5,-260,,567.5,82.5,Pro Military/Fire/Police,M,SBD,Wraps,No,200,115,252.5,1998
1,Tomasz Wygoda,Poland,1990-10-14,87.3,200,210,220,,165,175,182.5,,250,260,275,,677.5,90,Pro Military/Fire/Police,M,SBD,Wraps,No,220,182.5,275,1990
1,Marcin Bednarski,Poland,1990-01-17,97,-190,200,210,,130,135,140,,225,235,-240,,585,100,Pro Military/Fire/Police,M,SBD,Wraps,No,210,140,235,1990
1,Cezary Urbaniak,Poland,1982-08-08,106.85,-235,235,250,,170,180,190,,250,270,-280,,710,110,Pro Military/Fire/Police,M,SBD,Wraps,No,250,190,270,1982
2,Dariusz Korniak,Poland,1992-02-28,108.25,260,-270,-275,,160,-165,-165,,270,280,-285,,700,110,Pro Military/Fire/Police,M,SBD,Wraps,No,260,160,280,1992
1,Robert Drozdowski,Poland,1979-04-02,124.25,290,-310,310,,210,220,225,,280,300,305,,840,125,Pro Military/Fire/Police,M,SBD,Wraps,No,310,225,305,1979
2,Mateusz Szmyt,Poland,1990-11-02,118.6,270,-285,290,,120,,,,250,,,,660,125,Pro Military/Fire/Police,M,SBD,Wraps,No,290,120,250,1990
3,Przemysław Rybacki,Poland,1985-03-07,111.35,190,200,210,,170,-180,180,,200,-220,230,,620,125,Pro Military/Fire/Police,M,SBD,Wraps,No,210,180,230,1985
DQ,Kacper Kowalewski,Poland,1996-05-09,74.95,-200,-200,,,120,125,132.5,,-170,,,,,75,Pro Paralympian,M,SBD,Wraps,No,,132.5,,1996
1,Katarzyna Gierlicka,Poland,2001-12-09,67.1,140,-155,-155,,-55,-55,55,,135,145,-150,,340,67.5,Pro Teen 18-19,F,SBD,Wraps,No,140,55,145,2001
1,Magdalena Maciejczak,Poland,1998-12-29,64.55,150,-160.5,-165,,70,75,-77.5,,120,127.5,135,,360,67.5,Pro Juniors 20-23,F,SBD,Wraps,No,150,75,135,1998
2,Zuzanna Kiszel,Poland,1999-04-09,65.35,120,-130,130,,62.5,-65,-65,,125,135,145,,337.5,67.5,Pro Juniors 20-23,F,SBD,Wraps,No,130,62.5,145,1999
1,Małgorzata Pacyna,Poland,2000-09-06,72.65,95,100,-105,,55,57.5,60,,100,107.5,112.5,,272.5,75,Pro Juniors 20-23,F,SBD,Wraps,No,100,60,112.5,2000
1,Paulina Ławniczak,Poland,2000-01-22,82.4,100,-112.5,-115,,40,47.5,52.5,,100,110,120,,272.5,82.5,Pro Juniors 20-23,F,SBD,Wraps,No,100,52.5,120,2000
1,Magda Urbanowicz,Poland,1993-10-13,47.4,-115,-115,115,,65,-67.5,-67.5,,120,125,130,140.5,310,48,Pro Open,F,SBD,Wraps,No,115,65,130,1993
1,Aleksandra Szymczykowska,Poland,1998-04-17,55.72,135,145,-153,,85,90,-92.5,,140,150,-155,,385,56,Pro Open,F,SBD,Wraps,No,145,90,150,1998
2,Marlena Filipska,Poland,1988-09-04,54,120,-125,125,,55,-60,-60,,127.5,132.5,137.5,,317.5,56,Pro Open,F,SBD,Wraps,No,125,55,137.5,1988
3,Anna Przybysz,Poland,1989-01-27,56,-105,105,110,,40,47.5,-50,,-110,110,117.5,,275,56,Pro Open,F,SBD,Wraps,No,110,47.5,117.5,1989
1,Klaudia Łącz,Poland,1995-05-26,59.9,152.5,160,-165,,72.5,75,-77.5,,140,150,-157.5,,385,60,Pro Open,F,SBD,Wraps,No,160,75,150,1995
2,Anna Kaźmierowska,Poland,1996-04-24,58.34,-110,110,115,,50,52.5,-55,,135,147.5,155,,322.5,60,Pro Open,F,SBD,Wraps,No,115,52.5,155,1996
3,Justyna Stasiowska,Poland,1988-04-14,59.3,95,105,112.5,,40,42.5,45,,110,117.5,122.5,,280,60,Pro Open,F,SBD,Wraps,No,112.5,45,122.5,1988
1,Weronika Obuchowicz,Poland,1997-04-07,64.25,-150,150,160,,70,77.5,-82.5,,190,200,205,,442.5,67.5,Pro Open,F,SBD,Wraps,No,160,77.5,205,1997
2,Aleksandra Fabiańska,Poland,1990-05-31,66.95,140,150,-160,,65,70,-72.5,,140,150,160,,380,67.5,Pro Open,F,SBD,Wraps,No,150,70,160,1990
3,Klementyna Sas,Poland,1992-12-08,60.5,85,-95,-95,,45,50,52.5,,95,102.5,-105,,240,67.5,Pro Open,F,SBD,Wraps,No,85,52.5,102.5,1992
1,Hiulmira Stelmak,Poland,1996-04-27,73.35,130,140,-147.5,,65,-67.5,-67.5,,140,147.5,152.5,,357.5,75,Pro Open,F,SBD,Wraps,No,140,65,152.5,1996
DQ,Beata Koroniecka,Poland,1992-05-18,76.2,100,110,-120,,-60,-65,-65,,-110,,,,,82.5,Pro Open,F,SBD,Wraps,No,110,,,1992
1,Oktawia Lurka,Poland,1990-02-22,83.5,185,195,205,,112.5,115,117.5,,190,202.5,207.5,,530,90,Pro Open,F,SBD,Wraps,No,205,117.5,207.5,1990
1,Małgorzata Bartosiak,Poland,1983-06-06,54.28,110,115,120,,45,50,-55,,135,142.5,-148,,312.5,56,Pro Submasters 33-39,F,SBD,Wraps,No,120,50,142.5,1983
1,Kasia Hertlein,Poland,1986-10-04,65,100,105,-112.5,,47.5,52.5,-55,,105,112.5,117.5,,275,67.5,Pro Submasters 33-39,F,SBD,Wraps,No,105,52.5,117.5,1986
2,Kamila Grzywacz,Poland,1985-10-19,62,80,85,92.5,,45,47.5,-50,,100,107.5,115,,255,67.5,Pro Submasters 33-39,F,SBD,Wraps,No,92.5,47.5,115,1985
1,Janina Łyczko-Schmidt,Poland,1982-02-05,70.65,115,125,135,,60,65,70,,125,140,152.5,,357.5,75,Pro Submasters 33-39,F,SBD,Wraps,No,135,70,152.5,1982
2,Ilona Krzyżanowska,Poland,1985-05-03,71.85,-90,95,-105,,55,60,-65,,130,145,-155,,300,75,Pro Submasters 33-39,F,SBD,Wraps,No,95,60,145,1985
1,Magdalena Plewa,Poland,1977-05-31,88.8,110,115,120,,50,52.5,55,,105,115,122.5,,297.5,90,Pro Masters 40-44,F,SBD,Wraps,No,120,55,122.5,1977
1,Monika Świrska,Poland,1976-01-19,54.88,117.5,125,130,,67.5,72.5,-75,,135,145,152.5,-160,355,56,Pro Masters 45-49,F,SBD,Wraps,No,130,72.5,152.5,1976
1,Małgorzata Meronk,Poland,1959-05-21,73.2,-85,-85,85,,40,42.5,-45,,95,100,-105,,227.5,75,Pro Masters 60-64,F,SBD,Wraps,No,85,42.5,100,1959
1,Małgorzata Bartosiak,Poland,1983-06-06,54.28,110,115,120,,45,50,-55,,135,142.5,-148,,312.5,56,Pro Military/Fire/Police,F,SBD,Wraps,No,120,50,142.5,1983
1,Damian Doliwka,Poland,1999-02-26,86.85,,,,,135,142.5,145,,230,245.5,252.5,-260,397.5,90,Pro Juniors 20-23,M,BD,Raw,No,,145,252.5,1999
1,Michał Pawłowski,Poland,1998-01-25,108.6,,,,,185,195,-200,,295,305.5,-310,,500.5,110,Pro Juniors 20-23,M,BD,Raw,No,,195,305.5,1998
1,Andrzej Kołodziejczyk,Poland,1990-11-10,73.35,,,,,140,-147.5,147.5,,205,215,222.5,,370,75,Pro Open,M,BD,Raw,No,,147.5,222.5,1990
1,Viktor Reshenin,Ukraine,1996-04-03,76.55,,,,,170,180,-185,,190,-205,,,370,82.5,Pro Open,M,BD,Raw,No,,180,190,1996
1,Rafał Meronk,Poland,1996-01-19,92.2,,,,,145,150,155,,220,-235,-235,,375,100,Pro Open,M,BD,Raw,No,,155,220,1996
1,Mateusz Wrzesiński,Poland,1993-02-17,109.65,,,,,-180,180,190,,300,315,-347.5,,505,110,Pro Open,M,BD,Raw,No,,190,315,1993
2,Artyom Khugoyan,Armenia,1989-09-10,109.95,,,,,202.5,-210,-210,,-295,-300,300,,502.5,110,Pro Open,M,BD,Raw,No,,202.5,300,1989
1,Petr Pastýřík,Czechia,1989-08-07,120.6,,,,,185,190,192.5,,270,280,-300,,472.5,125,Pro Open,M,BD,Raw,No,,192.5,280,1989
1,Mateusz Pawlikowski,Poland,1992-06-14,138,,,,,-25,25,,,280,300,-320,,325,140,Pro Open,M,BD,Raw,No,,25,300,1992
1,Zbigniew Koper,Poland,1953-10-04,73,,,,,95,100,105,,150,160,-165,,265,75,Pro Masters 65-69,M,BD,Raw,No,,105,160,1953
1,Zbigniew Cabaj,Poland,1955-04-10,87.95,,,,,100,110,120,,170,190,200,,320,90,Pro Masters 65-69,M,BD,Raw,No,,120,200,1955
DQ,Kacper Kowalewski,Poland,1996-05-09,74.95,,,,,120,125,132.5,,-170,,,,,75,Pro Paralympian,M,BD,Raw,No,,132.5,,1996
1,Natalia Sobczak,Poland,1996-01-04,57.5,,,,,55,60,-62.5,,120,132.5,-140,,192.5,60,Pro Open,F,BD,Raw,No,,60,132.5,1996
1,Lusine Mkrtchyan,Armenia,1978-02-18,64.25,,,,,62.5,67.5,-70,,125,132.5,140,,207.5,67.5,Pro Masters 40-44,F,BD,Raw,No,,67.5,140,1978
1,Bettina Razzouki-Korkis,Poland,1965-08-28,57.5,,,,,55,60,-62.5,,110,120,130,135,190,60,Pro Masters 55-59,F,BD,Raw,No,,60,130,1965
1,Krystyna Puzio,Poland,1965-04-23,86.4,,,,,-65,65,-70,,130,140,150,,215,90,Pro Masters 55-59,F,BD,Raw,No,,65,150,1965
1,Jagoda Owczarek,Poland,2002-02-11,62.1,,,,,35,40,-47.5,,,,,,40,67.5,Pro Teen 18-19,F,B,Raw,No,,40,,2002
1,Anna Syvokobylska,Ukraine,1998-05-30,67.5,,,,,75,-82.5,82.5,,,,,,82.5,67.5,Pro Juniors 20-23,F,B,Raw,No,,82.5,,1998
2,Jadwiga Baran,Poland,1997-06-03,63.8,,,,,40,45,-47.5,,,,,,45,67.5,Pro Juniors 20-23,F,B,Raw,No,,45,,1997
1,Kristýna Tomšovicová,Czechia,1998-03-22,93.1,,,,,30,35,-37.5,,,,,,35,100,Pro Juniors 20-23,F,B,Raw,No,,35,,1998
1,Sarita Pruszyńska,Poland,1995-08-04,44,,,,,25,27.5,-30,,,,,,27.5,44,Pro Open,F,B,Raw,No,,27.5,,1995
1,Magdalena Kratiuk,Poland,1989-10-16,55,,,,,62.5,67.5,-70,,,,,,67.5,56,Pro Open,F,B,Raw,No,,67.5,,1989
1,Jolanta Anasiewicz-Popowicz,Poland,1969-04-11,61.5,,,,,100,105,-110,,,,,,105,67.5,Pro Open,F,B,Raw,No,,105,,1969
2,Magdalena Pawelak,Poland,1991-10-28,64.7,,,,,80,90,-100,,,,,,90,67.5,Pro Open,F,B,Raw,No,,90,,1991
1,Marta Chachuła,Poland,1987-12-07,70,,,,,105,107.5,-110,,,,,,107.5,75,Pro Open,F,B,Raw,No,,107.5,,1987
2,Adrianna Puszkarów,Poland,1981-02-07,74.4,,,,,92.5,97.5,100,,,,,,100,75,Pro Open,F,B,Raw,No,,100,,1981
1,Małgorzata Malikowska-Pikula,Poland,1985-11-29,75.4,,,,,125,130,135,141,,,,,135,82.5,Pro Open,F,B,Raw,No,,135,,1985
1,Katarzyna Kamieńska,Poland,1984-06-18,82.6,,,,,87.5,90,-92.5,,,,,,90,90,Pro Open,F,B,Raw,No,,90,,1984
1,Daria Walczykiewicz,Poland,1982-09-06,59.8,,,,,75,80,-82.5,,,,,,80,60,Pro Submasters 33-39,F,B,Raw,No,,80,,1982
1,Małgorzata Kruza,Poland,1982-10-13,64.8,,,,,85,90,-100,,,,,,90,67.5,Pro Submasters 33-39,F,B,Raw,No,,90,,1982
1,Marta Chachuła,Poland,1987-12-07,70,,,,,105,107.5,-110,,,,,,107.5,75,Pro Submasters 33-39,F,B,Raw,No,,107.5,,1987
2,Agnieszka Kubeczek,Poland,1986-12-06,71.1,,,,,47.5,52.5,-55,,,,,,52.5,75,Pro Submasters 33-39,F,B,Raw,No,,52.5,,1986
1,Małgorzata Malikowska-Pikula,Poland,1985-11-29,75.4,,,,,125,130,135,141,,,,,135,82.5,Pro Submasters 33-39,F,B,Raw,No,,135,,1985
1,Katarzyna Kamieńska,Poland,1984-06-18,82.6,,,,,87.5,90,-92.5,,,,,,90,90,Pro Submasters 33-39,F,B,Raw,No,,90,,1984
1,Adrianna Puszkarów,Poland,1981-02-07,74.4,,,,,92.5,97.5,100,,,,,,100,75,Pro Masters 40-44,F,B,Raw,No,,100,,1981
1,Jolanta Anasiewicz-Popowicz,Poland,1969-04-11,61.5,,,,,100,105,-110,,,,,,105,67.5,Pro Masters 50-54,F,B,Raw,No,,105,,1969
1,Krystyna Puzio,Poland,1965-04-23,86.4,,,,,60,65,70,,,,,,70,90,Pro Masters 55-59,F,B,Raw,No,,70,,1965
1,Małgorzata Kruza,Poland,1982-10-13,64.8,,,,,85,90,-100,,,,,,90,67.5,Pro Military/Fire/Police,F,B,Raw,No,,90,,1982
2,Jadwiga Baran,Poland,1997-06-03,63.8,,,,,40,45,-47.5,,,,,,45,67.5,Pro Military/Fire/Police,F,B,Raw,No,,45,,1997
1,Adrianna Puszkarów,Poland,1981-02-07,74.4,,,,,92.5,97.5,100,,,,,,100,75,Pro Military/Fire/Police,F,B,Raw,No,,100,,1981
DQ,Fabian Piekarski,Poland,2006-06-26,94.25,,,,,-90,-95,-100,,,,,,,100,Pro Teen 13-15,M,B,Raw,No,,,,2006
1,Wojciech Jabłoński,Poland,2003-04-23,87.05,,,,,-145,145,155,161,,,,,155,90,Pro Teen 16-17,M,B,Raw,No,,155,,2003
1,Krystian Tuzikowski,Poland,2001-06-19,64.3,,,,,115,-117.5,-117.5,,,,,,115,67.5,Pro Teen 18-19,M,B,Raw,No,,115,,2001
1,Jakub Chrzanowski,Poland,1997-09-22,73.9,,,,,200,210,215,,,,,,215,75,Pro Juniors 20-23,M,B,Raw,No,,215,,1997
1,Jakub Koeijvoets,Poland,2000-05-23,82.57,,,,,127.5,135,-140,,,,,,135,90,Pro Juniors 20-23,M,B,Raw,No,,135,,2000
2,Jakub Nowak,Poland,1999-11-20,88.65,,,,,-115,120,-125,,,,,,120,90,Pro Juniors 20-23,M,B,Raw,No,,120,,1999
1,Piotr Garbaczewski,Poland,1997-12-12,97.7,,,,,200,205,207.5,,,,,,207.5,100,Pro Juniors 20-23,M,B,Raw,No,,207.5,,1997
2,Hubert Fink,Poland,1999-11-15,98.95,,,,,170,182.5,-190,,,,,,182.5,100,Pro Juniors 20-23,M,B,Raw,No,,182.5,,1999
3,Kamil Dębczak,Poland,1999-06-02,90.7,,,,,-120,-120,120,,,,,,120,100,Pro Juniors 20-23,M,B,Raw,No,,120,,1999
1,Seweryn Praszkowski,Poland,1997-06-07,107.45,,,,,210,215,220,,,,,,220,110,Pro Juniors 20-23,M,B,Raw,No,,220,,1997
2,Lukáš Gorol,Czechia,1998-02-23,109.65,,,,,200,-210,-210,,,,,,200,110,Pro Juniors 20-23,M,B,Raw,No,,200,,1998
3,Michał Pawłowski,Poland,1998-01-25,108.6,,,,,185,195,-200,,,,,,195,110,Pro Juniors 20-23,M,B,Raw,No,,195,,1998
1,Krystian Ludkowski,Poland,1998-10-21,119.45,,,,,185,-190,190,,,,,,190,125,Pro Juniors 20-23,M,B,Raw,No,,190,,1998
DQ,Dawid Dychowski,Poland,1998-02-05,124.85,,,,,-220,-220,-220,,,,,,,125,Pro Juniors 20-23,M,B,Raw,No,,,,1998
1,Jakub Elgert,Poland,2000-08-21,129.45,,,,,200,-207.5,-207.5,,,,,,200,140,Pro Juniors 20-23,M,B,Raw,No,,200,,2000
1,Rafał Roch,Poland,1983-10-04,52,,,,,145,-150,150,,,,,,150,52,Pro Paralympian,M,B,Raw,No,,150,,1983
1,Krystian Tuzikowski,Poland,2001-06-19,64.3,,,,,115,-117.5,-117.5,,,,,,115,67.5,Pro Paralympian,M,B,Raw,No,,115,,2001
1,Sebastian Świtoński,Poland,1998-04-09,73.6,,,,,140,152.5,-160.5,,,,,,152.5,75,Pro Paralympian,M,B,Raw,No,,152.5,,1998
2,Kacper Kowalewski,Poland,1996-05-09,74.95,,,,,100,120,132.5,,,,,,132.5,75,Pro Paralympian,M,B,Raw,No,,132.5,,1996
1,Bartłomiej Rogoziński,Poland,1982-06-05,108.25,,,,,172.5,177.5,-185,,,,,,177.5,110,Pro Paralympian,M,B,Raw,No,,177.5,,1982
1,Sebastian Niedziela,Poland,1979-04-02,82.3,,,,,170,175,180,,,,,,180,82.5,Pro Masters 40-44,M,B,Raw,No,,180,,1979
2,Krzysztof Wieczorek,Poland,1979-01-26,80.86,,,,,120,130,135,,,,,,135,82.5,Pro Masters 40-44,M,B,Raw,No,,135,,1979
1,Marcin Kowalski,Poland,1978-01-01,83.8,,,,,215,-225,-225,,,,,,215,90,Pro Masters 40-44,M,B,Raw,No,,215,,1978
2,Daniel Bielecki,Poland,1976-11-18,82.6,,,,,170,-180,-190,,,,,,170,90,Pro Masters 40-44,M,B,Raw,No,,170,,1976
1,Daniel Kowalczyk,Poland,1977-12-24,93.4,,,,,200,-207.5,207.5,,,,,,207.5,100,Pro Masters 40-44,M,B,Raw,No,,207.5,,1977
2,Marcin Pujan,Poland,1980-11-10,90.75,,,,,150,160,167.5,,,,,,167.5,100,Pro Masters 40-44,M,B,Raw,No,,167.5,,1980
1,Rafał Pałubicki,Poland,1976-10-04,108.45,,,,,200,210,215,,,,,,215,110,Pro Masters 40-44,M,B,Raw,No,,215,,1976
2,Krzysztof Zakrzewski,Poland,1977-12-09,106.55,,,,,200,-210,-210,,,,,,200,110,Pro Masters 40-44,M,B,Raw,No,,200,,1977
3,Marek Sadowski,Poland,1979-06-17,107.95,,,,,160,-170,-170,,,,,,160,110,Pro Masters 40-44,M,B,Raw,No,,160,,1979
1,Paweł Liszcz,Poland,1978-01-24,116.65,,,,,250,255,-260,,,,,,255,125,Pro Masters 40-44,M,B,Raw,No,,255,,1978
2,Daniel Žarnowski,Poland,1981-01-23,111.18,,,,,-180,185,-192.5,,,,,,185,125,Pro Masters 40-44,M,B,Raw,No,,185,,1981
1,Maciek Kiślewski,Poland,1979-05-07,126.5,,,,,200,-205,-205,,,,,,200,140,Pro Masters 40-44,M,B,Raw,No,,200,,1979
1,Robert Wiejas,Poland,1977-05-26,145.2,,,,,220,225,-230,,,,,,225,140+,Pro Masters 40-44,M,B,Raw,No,,225,,1977
2,Tomasz Węgliński,Poland,1978-03-06,145.2,,,,,210,-220,-220,,,,,,210,140+,Pro Masters 40-44,M,B,Raw,No,,210,,1978
1,Jan Gorol,Czechia,1975-01-31,75,,,,,120,130,140,,,,,,140,75,Pro Masters 45-49,M,B,Raw,No,,140,,1975
DQ,Paweł Pracownik,Poland,1973-08-27,75,,,,,-140,-140,,,,,,,,75,Pro Masters 45-49,M,B,Raw,No,,,,1973
1,Jacek Krysiuk,Poland,1973-05-11,88.15,,,,,140,150,165,,,,,,165,90,Pro Masters 45-49,M,B,Raw,No,,165,,1973
2,Juliusz Zbierski,Poland,1974-04-02,88.6,,,,,155,160,-165,,,,,,160,90,Pro Masters 45-49,M,B,Raw,No,,160,,1974
1,Michał Kopiec,Poland,1974-08-29,90.8,,,,,175,-182.5,-182.5,,,,,,175,100,Pro Masters 45-49,M,B,Raw,No,,175,,1974
2,Wojciech Kaliciak,Poland,2001-12-15,98.1,,,,,145,-155,155,,,,,,155,100,Pro Masters 45-49,M,B,Raw,No,,155,,2001
3,Hovhannes Yazichyan,Armenia,1971-05-08,94,,,,,150,,,,,,,,150,100,Pro Masters 45-49,M,B,Raw,No,,150,,1971
4,Robert Kozłowski,Poland,1973-06-25,99.35,,,,,140,-155,-157.5,,,,,,140,100,Pro Masters 45-49,M,B,Raw,No,,140,,1973
1,Tadeusz Serafin,Poland,1973-01-23,103.5,,,,,-200,200,-210,,,,,,200,110,Pro Masters 45-49,M,B,Raw,No,,200,,1973
2,Krzysztof Golendzinowski,Poland,1971-07-18,107.45,,,,,170,175,177.5,,,,,,177.5,110,Pro Masters 45-49,M,B,Raw,No,,177.5,,1971
1,Maciej Knap,Poland,1975-07-06,133.4,,,,,210,225,-235,,,,,,225,140,Pro Masters 45-49,M,B,Raw,No,,225,,1975
2,Marcin Czaja,Poland,1976-04-06,129.75,,,,,170,180,-187.5,,,,,,180,140,Pro Masters 45-49,M,B,Raw,No,,180,,1976
1,Rico Martinez,Germany,1970-06-21,87.15,,,,,170,-180,-180,,,,,,170,90,Pro Masters 50-54,M,B,Raw,No,,170,,1970
1,Oldřich Procházka,Czechia,1970-12-23,98.7,,,,,185,-197.5,-197.5,,,,,,185,100,Pro Masters 50-54,M,B,Raw,No,,185,,1970
1,Adam Ubertowski,Poland,1967-02-19,124.3,,,,,155,165,-170,,,,,,165,125,Pro Masters 50-54,M,B,Raw,No,,165,,1967
2,Jacek Leszczyński,Poland,1966-10-23,110.2,,,,,140,150,-165,,,,,,150,125,Pro Masters 50-54,M,B,Raw,No,,150,,1966
1,Tahvo Jauhojärvi,Sweden,1961-12-08,73.3,,,,,-135,142.5,147.5,,,,,,147.5,75,Pro Masters 55-59,M,B,Raw,No,,147.5,,1961
1,Jerzy Jankowski,Poland,1965-02-23,99.2,,,,,-185,185,190,,,,,,190,100,Pro Masters 55-59,M,B,Raw,No,,190,,1965
1,Ladislav Beňo,Slovakia,1965-12-10,108.6,,,,,125,130,-135,,,,,,130,110,Pro Masters 55-59,M,B,Raw,No,,130,,1965
1,Waldemar Nacewicz,Poland,1963-04-21,140,,,,,-220,230,-250,,,,,,230,140,Pro Masters 55-59,M,B,Raw,No,,230,,1963
1,Mirosław Urbaniak,Poland,1961-04-06,88.65,,,,,150,155,157.5,,,,,,157.5,90,Pro Masters 60-64,M,B,Raw,No,,157.5,,1961
DQ,Ryszard Derkacz,Poland,1961-02-16,89,,,,,-160,-160,-160,,,,,,,90,Pro Masters 60-64,M,B,Raw,No,,,,1961
1,Roman Raczykowski,Poland,1962-02-13,103.5,,,,,130,140,142.5,,,,,,142.5,110,Pro Masters 60-64,M,B,Raw,No,,142.5,,1962
1,Antoni Kaliňski,Poland,1953-10-01,66.9,,,,,100,107.5,111,,,,,,111,67.5,Pro Masters 65-69,M,B,Raw,No,,111,,1953
1,Zbigniew Koper,Poland,1953-10-04,73,,,,,95,100,105,,,,,,105,75,Pro Masters 65-69,M,B,Raw,No,,105,,1953
1,Zbigniew Cabaj,Poland,1955-04-10,87.95,,,,,100,110,120,,,,,,120,90,Pro Masters 65-69,M,B,Raw,No,,120,,1955
1,Ryszard Wilczak,Poland,1955-10-26,101,,,,,135,140,150,,,,,,150,110,Pro Masters 65-69,M,B,Raw,No,,150,,1955
1,Henryk Świerzy,Poland,1956-03-08,110.4,,,,,135,140,-145,,,,,,140,125,Pro Masters 65-69,M,B,Raw,No,,140,,1956
1,Wiesław Ostrowski,Poland,1948-03-21,81.8,,,,,110,120,,,,,,,120,82.5,Pro Masters 70-74,M,B,Raw,No,,120,,1948
2,Roman Wanot,Poland,1948-05-22,82.2,,,,,85,-90,-90,,,,,,85,82.5,Pro Masters 70-74,M,B,Raw,No,,85,,1948
1,Jan Cenkiel,Poland,1949-03-16,97.7,,,,,135,-142.5,-142.5,,,,,,135,100,Pro Masters 70-74,M,B,Raw,No,,135,,1949
2,Henryk Odelski,Poland,1949-07-15,95.6,,,,,100,107.5,110,,,,,,110,100,Pro Masters 70-74,M,B,Raw,No,,110,,1949
1,Wojciech Grabowski,Poland,1951-03-31,107.65,,,,,130,145,152.5,,,,,,152.5,110,Pro Masters 70-74,M,B,Raw,No,,152.5,,1951
DQ,Fabian Piekarski,Poland,2006-06-26,94.25,,,,,-90,-95,-100,,,,,,,100,Pro Teen 13-15,M,B,Raw,No,,,,2006
1,Wojciech Jabłoński,Poland,2003-04-23,87.05,,,,,-145,145,155,-161,,,,,155,90,Pro Teen 16-17,M,B,Raw,No,,155,,2003
1,Krystian Tuzikowski,Poland,2001-06-19,64.3,,,,,115,-117.5,-117.5,,,,,,115,67.5,Pro Teen 18-19,M,B,Raw,No,,115,,2001
1,Jakub Chrzanowski,Poland,1997-09-22,73.9,,,,,200,210,215,,,,,,215,75,Pro Juniors 20-23,M,B,Raw,No,,215,,1997
1,Jakub Koeijvoets,Poland,2000-05-23,82.57,,,,,127.5,135,-140,,,,,,135,90,Pro Juniors 20-23,M,B,Raw,No,,135,,2000
2,Jakub Nowak,Poland,1999-11-20,88.65,,,,,-115,120,-125,,,,,,120,90,Pro Juniors 20-23,M,B,Raw,No,,120,,1999
1,Piotr Garbaczewski,Poland,1997-12-12,97.7,,,,,200,205,207.5,,,,,,207.5,100,Pro Juniors 20-23,M,B,Raw,No,,207.5,,1997
2,Hubert Fink,Poland,1999-11-15,98.95,,,,,170,182.5,-190,,,,,,182.5,100,Pro Juniors 20-23,M,B,Raw,No,,182.5,,1999
3,Kamil Dębczak,Poland,1999-06-02,90.7,,,,,-120,-120,120,,,,,,120,100,Pro Juniors 20-23,M,B,Raw,No,,120,,1999
1,Seweryn Praszkowski,Poland,1997-06-07,107.45,,,,,210,215,220,,,,,,220,110,Pro Juniors 20-23,M,B,Raw,No,,220,,1997
2,Lukáš Gorol,Czechia,1998-02-23,109.65,,,,,200,-210,-210,,,,,,200,110,Pro Juniors 20-23,M,B,Raw,No,,200,,1998
3,Michał Pawłowski,Poland,1998-01-25,108.6,,,,,185,195,-200,,,,,,195,110,Pro Juniors 20-23,M,B,Raw,No,,195,,1998
1,Krystian Ludkowski,Poland,1998-10-21,119.45,,,,,185,-190,190,,,,,,190,125,Pro Juniors 20-23,M,B,Raw,No,,190,,1998
DQ,Dawid Dychowski,Poland,1998-02-05,124.85,,,,,-220,-220,-220,,,,,,,125,Pro Juniors 20-23,M,B,Raw,No,,,,1998
1,Jakub Elgert,Poland,2000-08-21,129.45,,,,,200,-207.5,-207.5,,,,,,200,140,Pro Juniors 20-23,M,B,Raw,No,,200,,2000
1,Piotr Jęsiak,Poland,1993-07-13,64.45,,,,,140,145,150,,,,,,150,67.5,Pro Open,M,B,Raw,No,,150,,1993
2,Tomasz Pierunek,Poland,1988-12-29,65.95,,,,,115,122.5,-127.5,,,,,,122.5,67.5,Pro Open,M,B,Raw,No,,122.5,,1988
1,Jakub Chrzanowski,Poland,1997-09-22,73.9,,,,,200,210,215,,,,,,215,75,Pro Open,M,B,Raw,No,,215,,1997
2,Łukasz Kozłowski,Poland,1982-12-10,73.8,,,,,155,162.5,-170,,,,,,162.5,75,Pro Open,M,B,Raw,No,,162.5,,1982
3,Serhii Kryvorotko,Ukraine,1995-11-01,74.15,,,,,147.5,-152.5,152.5,,,,,,152.5,75,Pro Open,M,B,Raw,No,,152.5,,1995
4,Filip Váša,Czechia,1990-10-31,74,,,,,140,145,147.5,,,,,,147.5,75,Pro Open,M,B,Raw,No,,147.5,,1990
1,Marcin Bała,Poland,1995-02-15,81.3,,,,,182.5,190,195,,,,,,195,82.5,Pro Open,M,B,Raw,No,,195,,1995
2,Mateusz Lewandowicz,Poland,1990-12-14,81.85,,,,,175,185,190,,,,,,190,82.5,Pro Open,M,B,Raw,No,,190,,1990
3,Mateusz Pawelak,Poland,1990-10-14,82.5,,,,,180,190,-192.5,,,,,,190,82.5,Pro Open,M,B,Raw,No,,190,,1990
4,Viktor Reshenin,Ukraine,1996-04-03,76.55,,,,,170,180,-185,,,,,,180,82.5,Pro Open,M,B,Raw,No,,180,,1996
5,Zbigniiew Boczar,Poland,1985-01-18,80.15,,,,,170,175,180,,,,,,180,82.5,Pro Open,M,B,Raw,No,,180,,1985
1,Dawid Trzciński,Poland,1990-05-29,88,,,,,195,205,210,,,,,,210,90,Pro Open,M,B,Raw,No,,210,,1990
2,Szymon Zmora,Poland,1986-06-27,88.85,,,,,-205,-205,207.5,,,,,,207.5,90,Pro Open,M,B,Raw,No,,207.5,,1986
3,Jakub Honz,Czechia,1994-03-17,88.3,,,,,-170,170,180,,,,,,180,90,Pro Open,M,B,Raw,No,,180,,1994
4,Patryk Kaczmarek,Poland,1995-04-23,89.2,,,,,175,180,-182.5,,,,,,180,90,Pro Open,M,B,Raw,No,,180,,1995
5,Gracjan Hnatów,Poland,1992-06-15,89.7,,,,,170,-180,180,,,,,,180,90,Pro Open,M,B,Raw,No,,180,,1992
6,Kamil Kuś,Poland,1990-04-02,88.75,,,,,160,170,172.5,,,,,,172.5,90,Pro Open,M,B,Raw,No,,172.5,,1990
7,Erik Váša,Czechia,1994-08-22,88,,,,,160,170,-172.5,,,,,,170,90,Pro Open,M,B,Raw,No,,170,,1994
8,Ryszard Derkacz,Poland,1961-02-16,89,,,,,160,-165,170,,,,,,170,90,Pro Open,M,B,Raw,No,,170,,1961
9,Łukasz Brzeźiński,Poland,1989-05-14,89.5,,,,,-170,170,-175,,,,,,170,90,Pro Open,M,B,Raw,No,,170,,1989
1,Mariusz Borczyk,Poland,1989-03-05,98.65,,,,,232.5,240,-245,,,,,,240,100,Pro Open,M,B,Raw,No,,240,,1989
2,Krystian Piotrak,Poland,1995-10-06,100,,,,,220,-230,-230,,,,,,220,100,Pro Open,M,B,Raw,No,,220,,1995
3,Aleksander Kita,Poland,1982-12-11,95.75,,,,,200,-207.5,207.5,,,,,,207.5,100,Pro Open,M,B,Raw,No,,207.5,,1982
4,Grzegorz Kopaniarz,Poland,1988-10-31,94.2,,,,,200,-210,-210,,,,,,200,100,Pro Open,M,B,Raw,No,,200,,1988
5,Josef Rey,Czechia,1984-09-03,96.05,,,,,190,200,-210,,,,,,200,100,Pro Open,M,B,Raw,No,,200,,1984
6,Tomasz Wierzbicki,Poland,1990-06-23,99.95,,,,,-180,190,-200,,,,,,190,100,Pro Open,M,B,Raw,No,,190,,1990
7,Rafał Sabanty,Poland,1993-07-23,98.85,,,,,175,182.5,-190,,,,,,182.5,100,Pro Open,M,B,Raw,No,,182.5,,1993
DQ,Mateusz Garbowski,Poland,1993-05-07,97.7,,,,,-200,,,,,,,,,100,Pro Open,M,B,Raw,No,,,,1993
1,Piotr Balcerek,Poland,1979-04-14,103.1,,,,,235,242.5,250,,,,,,250,110,Pro Open,M,B,Raw,No,,250,,1979
2,Arkadiusz Redzynia,Poland,1993-01-14,108.75,,,,,225,235,-240,,,,,,235,110,Pro Open,M,B,Raw,No,,235,,1993
3,Adrian Grabski,Poland,1982-09-12,109.4,,,,,220,230,-237.5,,,,,,230,110,Pro Open,M,B,Raw,No,,230,,1982
4,Rafał Pałubicki,Poland,1976-10-04,108.45,,,,,200,210,215,,,,,,215,110,Pro Open,M,B,Raw,No,,215,,1976
5,Krystian Rudnicki,Poland,1984-09-06,105.5,,,,,-210,210,-217.5,,,,,,210,110,Pro Open,M,B,Raw,No,,210,,1984
6,Piotr Runge,Poland,1992-10-28,107.5,,,,,-200,200,-207.5,,,,,,200,110,Pro Open,M,B,Raw,No,,200,,1992
1,Paweł Liszcz,Poland,1978-01-24,116.65,,,,,250,255,-260,,,,,,255,125,Pro Open,M,B,Raw,No,,255,,1978
2,Iaroslav Vdovychenko,Ukraine,1984-06-27,118.65,,,,,245,252.5,-262.5,,,,,,252.5,125,Pro Open,M,B,Raw,No,,252.5,,1984
3,Arkadiusz Herodowicz,Poland,1982-10-07,118.7,,,,,230,240,,,,,,,240,125,Pro Open,M,B,Raw,No,,240,,1982
4,Petr Pastýřík,Czechia,1989-08-07,120.4,,,,,185,190,,,,,,,190,125,Pro Open,M,B,Raw,No,,190,,1989
5,Michał Świerczek,Poland,1983-08-27,119.25,,,,,175,182.5,-185,,,,,,182.5,125,Pro Open,M,B,Raw,No,,182.5,,1983
6,Paweł Sztachelek,Poland,1991-07-21,121.2,,,,,175,180,-187.5,,,,,,180,125,Pro Open,M,B,Raw,No,,180,,1991
1,Arkadiusz Duranowski,Poland,1982-11-06,129.55,,,,,190,200,205,,,,,,205,140,Pro Open,M,B,Raw,No,,205,,1982
2,Jakub Elgert,Poland,2000-08-21,129.45,,,,,200,-207.5,-207.5,,,,,,200,140,Pro Open,M,B,Raw,No,,200,,2000
3,Damian Ziemlewski,Poland,1995-06-26,125.6,,,,,190,197.5,-200,,,,,,197.5,140,Pro Open,M,B,Raw,No,,197.5,,1995
4,Marcin Rochacki,Poland,1985-08-22,125.7,,,,,185,-192.5,192.5,,,,,,192.5,140,Pro Open,M,B,Raw,No,,192.5,,1985
5,Mateusz Pawlikowski,Poland,1992-06-14,138,,,,,-25,25,,,,,,,25,140,Pro Open,M,B,Raw,No,,25,,1992
1,Bartłomiej Jaruga,Poland,1986-11-02,150.4,,,,,242.5,252.5,,,,,,,252.5,140+,Pro Open,M,B,Raw,No,,252.5,,1986
2,Dawid Lange,Poland,1988-03-09,148,,,,,220,230,240,,,,,,240,140+,Pro Open,M,B,Raw,No,,240,,1988
3,Robert Wiejas,Poland,1977-05-26,145.2,,,,,220,225,-230,,,,,,225,140+,Pro Open,M,B,Raw,No,,225,,1977
4,Tomasz Węgliński,Poland,1978-03-06,145.2,,,,,210,-220,-220,,,,,,210,140+,Pro Open,M,B,Raw,No,,210,,1978
5,Łukasz Dalewski,Poland,1982-10-07,140.2,,,,,-200,-205,205,,,,,,205,140+,Pro Open,M,B,Raw,No,,205,,1982
1,Łukasz Kozłowski,Poland,1982-12-10,73.8,,,,,155,162.5,-170,,,,,,162.5,75,Pro Submasters 33-39,M,B,Raw,No,,162.5,,1982
1,Marcin Garbas,Poland,1985-02-07,81.8,,,,,200,207.5,212.5,,,,,,212.5,82.5,Pro Submasters 33-39,M,B,Raw,No,,212.5,,1985
2,Zbigniiew Boczar,Poland,1985-01-18,80.15,,,,,170,175,180,,,,,,180,82.5,Pro Submasters 33-39,M,B,Raw,No,,180,,1985
1,Robert Wrzawiński,Poland,1982-12-17,89,,,,,202.5,207.5,210,,,,,,210,90,Pro Submasters 33-39,M,B,Raw,No,,210,,1982
2,Szymon Zmora,Poland,1986-06-27,88.85,,,,,-205,-205,207.5,,,,,,207.5,90,Pro Submasters 33-39,M,B,Raw,No,,207.5,,1986
1,Tomasz Trzciński,Poland,1982-09-17,98.65,,,,,210,-215,217.5,,,,,,217.5,100,Pro Submasters 33-39,M,B,Raw,No,,217.5,,1982
2,Aleksander Kita,Poland,1982-12-11,95.75,,,,,200,-207.5,207.5,,,,,,207.5,100,Pro Submasters 33-39,M,B,Raw,No,,207.5,,1982
3,Josef Rey,Czechia,1984-09-03,96.05,,,,,190,200,-210,,,,,,200,100,Pro Submasters 33-39,M,B,Raw,No,,200,,1984
4,Łukasz Skóra,Poland,1985-07-21,99.45,,,,,180,185,-190,,,,,,185,100,Pro Submasters 33-39,M,B,Raw,No,,185,,1985
5,Wojciech Tomecki,Poland,1987-11-25,99.65,,,,,170,-180,180,,,,,,180,100,Pro Submasters 33-39,M,B,Raw,No,,180,,1987
6,Michał Sawicki,Poland,1984-05-21,99.3,,,,,155,160,167.5,,,,,,167.5,100,Pro Submasters 33-39,M,B,Raw,No,,167.5,,1984
1,Hani Lazam,Poland,1988-01-21,107.95,,,,,212.5,217.5,-220,,,,,,217.5,110,Pro Submasters 33-39,M,B,Raw,No,,217.5,,1988
2,Wojciech Różycki,Poland,1986-07-18,108.75,,,,,195,205,215,,,,,,215,110,Pro Submasters 33-39,M,B,Raw,No,,215,,1986
3,Krystian Rudnicki,Poland,1984-09-06,105.5,,,,,-210,210,-217.5,,,,,,210,110,Pro Submasters 33-39,M,B,Raw,No,,210,,1984
4,Emil Gzowski,Poland,1982-03-11,108.25,,,,,-135,135,-140,,,,,,135,110,Pro Submasters 33-39,M,B,Raw,No,,135,,1982
1,Arkadiusz Herodowicz,Poland,1982-10-07,118.7,,,,,230,240,,,,,,,240,125,Pro Submasters 33-39,M,B,Raw,No,,240,,1982
2,Adam Sławnikowski,Poland,1986-12-21,116.65,,,,,200,205,210,,,,,,210,125,Pro Submasters 33-39,M,B,Raw,No,,210,,1986
3,Michał Świerczek,Poland,1983-08-27,119.25,,,,,175,182.5,-185,,,,,,182.5,125,Pro Submasters 33-39,M,B,Raw,No,,182.5,,1983
1,Arkadiusz Duranowski,Poland,1982-11-06,129.55,,,,,190,200,205,,,,,,205,140,Pro Submasters 33-39,M,B,Raw,No,,205,,1982
2,Szczepan Widera,Poland,1984-10-31,126.9,,,,,185,202.5,-207.5,,,,,,202.5,140,Pro Submasters 33-39,M,B,Raw,No,,202.5,,1984
3,Marcin Rochacki,Poland,1985-08-22,125.7,,,,,185,-192.5,192.5,,,,,,192.5,140,Pro Submasters 33-39,M,B,Raw,No,,192.5,,1985
1,Bartłomiej Jaruga,Poland,1986-11-02,150.4,,,,,242.5,252.5,,,,,,,252.5,140+,Pro Submasters 33-39,M,B,Raw,No,,252.5,,1986
2,Łukasz Dalewski,Poland,1982-10-07,140.2,,,,,-200,-205,205,,,,,,205,140+,Pro Submasters 33-39,M,B,Raw,No,,205,,1982
3,Marcin Jankowski,Poland,1984-12-11,141.75,,,,,190,200,-210,,,,,,200,140+,Pro Submasters 33-39,M,B,Raw,No,,200,,1984
1,Sebastian Niedziela,Poland,1979-04-02,82.3,,,,,170,175,180,,,,,,180,82.5,Pro Masters 40-44,M,B,Raw,No,,180,,1979
2,Krzysztof Wieczorek,Poland,1979-01-26,80.86,,,,,120,130,135,,,,,,135,82.5,Pro Masters 40-44,M,B,Raw,No,,135,,1979
1,Marcin Kowalski,Poland,1978-01-01,83.8,,,,,215,-225,-225,,,,,,215,90,Pro Masters 40-44,M,B,Raw,No,,215,,1978
2,Daniel Bielecki,Poland,1976-11-18,82.6,,,,,170,-180,-190,,,,,,170,90,Pro Masters 40-44,M,B,Raw,No,,170,,1976
1,Daniel Kowalczyk,Poland,1977-12-24,93.4,,,,,200,-207.5,207.5,,,,,,207.5,100,Pro Masters 40-44,M,B,Raw,No,,207.5,,1977
2,Marcin Pujan,Poland,1980-11-10,90.75,,,,,150,160,167.5,,,,,,167.5,100,Pro Masters 40-44,M,B,Raw,No,,167.5,,1980
1,Rafał Pałubicki,Poland,1976-10-04,108.45,,,,,200,210,215,,,,,,215,110,Pro Masters 40-44,M,B,Raw,No,,215,,1976
2,Krzysztof Zakrzewski,Poland,1977-12-09,106.55,,,,,200,-210,-210,,,,,,200,110,Pro Masters 40-44,M,B,Raw,No,,200,,1977
3,Marek Sadowski,Poland,1979-06-17,107.95,,,,,160,-170,-170,,,,,,160,110,Pro Masters 40-44,M,B,Raw,No,,160,,1979
1,Paweł Liszcz,Poland,1978-01-24,116.65,,,,,250,255,-260,,,,,,255,125,Pro Masters 40-44,M,B,Raw,No,,255,,1978
2,Daniel Žarnowski,Poland,1981-01-23,111.18,,,,,-180,185,-192.5,,,,,,185,125,Pro Masters 40-44,M,B,Raw,No,,185,,1981
1,Maciek Kiślewski,Poland,1979-05-07,126.5,,,,,200,-205,-205,,,,,,200,140,Pro Masters 40-44,M,B,Raw,No,,200,,1979
1,Robert Wiejas,Poland,1977-05-26,145.2,,,,,220,225,-230,,,,,,225,140+,Pro Masters 40-44,M,B,Raw,No,,225,,1977
2,Tomasz Węgliński,Poland,1978-03-06,145.2,,,,,210,-220,-220,,,,,,210,140+,Pro Masters 40-44,M,B,Raw,No,,210,,1978
1,Jan Gorol,Czechia,1975-01-31,75,,,,,120,130,140,,,,,,140,75,Pro Masters 45-49,M,B,Raw,No,,140,,1975
DQ,Paweł Pracownik,Poland,1973-08-27,75,,,,,-140,-140,,,,,,,,75,Pro Masters 45-49,M,B,Raw,No,,,,1973
1,Jacek Krysiuk,Poland,1973-05-11,88.15,,,,,140,150,165,,,,,,165,90,Pro Masters 45-49,M,B,Raw,No,,165,,1973
2,Juliusz Zbierski,Poland,1974-04-02,88.6,,,,,155,160,-165,,,,,,160,90,Pro Masters 45-49,M,B,Raw,No,,160,,1974
1,Michał Kopiec,Poland,1974-08-29,90.8,,,,,175,-182.5,-182.5,,,,,,175,100,Pro Masters 45-49,M,B,Raw,No,,175,,1974
2,Wojciech Kaliciak,Poland,2001-12-15,98.1,,,,,145,-155,155,,,,,,155,100,Pro Masters 45-49,M,B,Raw,No,,155,,2001
3,Hovhannes Yazichyan,Armenia,1971-05-08,94,,,,,150,,,,,,,,150,100,Pro Masters 45-49,M,B,Raw,No,,150,,1971
4,Robert Kozłowski,Poland,1973-06-25,99.35,,,,,140,-155,-157.5,,,,,,140,100,Pro Masters 45-49,M,B,Raw,No,,140,,1973
1,Tadeusz Serafin,Poland,1973-01-23,103.5,,,,,-200,200,-210,,,,,,200,110,Pro Masters 45-49,M,B,Raw,No,,200,,1973
2,Krzysztof Golendzinowski,Poland,1971-07-18,107.45,,,,,170,175,177.5,,,,,,177.5,110,Pro Masters 45-49,M,B,Raw,No,,177.5,,1971
1,Maciej Knap,Poland,1975-07-06,133.4,,,,,210,225,-235,,,,,,225,140,Pro Masters 45-49,M,B,Raw,No,,225,,1975
2,Marcin Czaja,Poland,1976-04-06,129.75,,,,,170,180,-187.5,,,,,,180,140,Pro Masters 45-49,M,B,Raw,No,,180,,1976
1,Rico Martinez,Germany,1970-06-21,87.15,,,,,170,-180,-180,,,,,,170,90,Pro Masters 50-54,M,B,Raw,No,,170,,1970
1,Oldřich Procházka,Czechia,1970-12-23,98.7,,,,,185,-197.5,-197.5,,,,,,185,100,Pro Masters 50-54,M,B,Raw,No,,185,,1970
1,Adam Ubertowski,Poland,1967-02-19,124.3,,,,,155,165,-170,,,,,,165,125,Pro Masters 50-54,M,B,Raw,No,,165,,1967
2,Jacek Leszczyński,Poland,1966-10-23,110.2,,,,,140,150,-165,,,,,,150,125,Pro Masters 50-54,M,B,Raw,No,,150,,1966
1,Tahvo Jauhojärvi,Sweden,1961-12-08,73.3,,,,,-135,142.5,147.5,,,,,,147.5,75,Pro Masters 55-59,M,B,Raw,No,,147.5,,1961
1,Jerzy Jankowski,Poland,1965-02-23,99.2,,,,,-185,185,190,,,,,,190,100,Pro Masters 55-59,M,B,Raw,No,,190,,1965
1,Ladislav Beňo,Slovakia,1965-12-10,108.6,,,,,125,130,-135,,,,,,130,110,Pro Masters 55-59,M,B,Raw,No,,130,,1965
1,Waldemar Nacewicz,Poland,1963-04-21,140,,,,,-220,230,-250,,,,,,230,140,Pro Masters 55-59,M,B,Raw,No,,230,,1963
1,Mirosław Urbaniak,Poland,1961-04-06,88.65,,,,,150,155,157.5,,,,,,157.5,90,Pro Masters 60-64,M,B,Raw,No,,157.5,,1961
1,Roman Raczykowski,Poland,1962-02-13,103.5,,,,,130,140,142.5,,,,,,142.5,110,Pro Masters 60-64,M,B,Raw,No,,142.5,,1962
1,Antoni Kaliňski,Poland,1953-10-01,66.9,,,,,100,107.5,111,,,,,,111,67.5,Pro Masters 65-69,M,B,Raw,No,,111,,1953
1,Zbigniew Koper,Poland,1953-10-04,73,,,,,95,100,105,,,,,,105,75,Pro Masters 65-69,M,B,Raw,No,,105,,1953
1,Zbigniew Cabaj,Poland,1955-04-10,87.95,,,,,100,110,120,,,,,,120,90,Pro Masters 65-69,M,B,Raw,No,,120,,1955
1,Ryszard Wilczak,Poland,1955-10-26,101,,,,,135,140,150,,,,,,150,110,Pro Masters 65-69,M,B,Raw,No,,150,,1955
1,Henryk Świerzy,Poland,1956-03-08,110.4,,,,,135,140,-145,,,,,,140,125,Pro Masters 65-69,M,B,Raw,No,,140,,1956
1,Wiesław Ostrowski,Poland,1948-03-21,81.8,,,,,110,120,,,,,,,120,82.5,Pro Masters 70-74,M,B,Raw,No,,120,,1948
2,Roman Wanot,Poland,1948-05-22,82.2,,,,,85,-90,-90,,,,,,85,82.5,Pro Masters 70-74,M,B,Raw,No,,85,,1948
1,Jan Cenkiel,Poland,1949-03-16,97.7,,,,,135,-142.5,-142.5,,,,,,135,100,Pro Masters 70-74,M,B,Raw,No,,135,,1949
2,Henryk Odelski,Poland,1949-07-15,95.6,,,,,100,107.5,110,,,,,,110,100,Pro Masters 70-74,M,B,Raw,No,,110,,1949
1,Wojciech Grabowski,Poland,1951-03-31,107.65,,,,,130,145,152.5,,,,,,152.5,110,Pro Masters 70-74,M,B,Raw,No,,152.5,,1951
1,Tomasz Pierunek,Poland,1988-12-29,65.95,,,,,115,122.5,-127.5,,,,,,122.5,67.5,Pro Military/Fire/Police,M,B,Raw,No,,122.5,,1988
1,Karol Żukowski,Poland,1989-08-07,80.88,,,,,170,180,182.5,,,,,,182.5,82.5,Pro Military/Fire/Police,M,B,Raw,No,,182.5,,1989
2,Zbigniiew Boczar,Poland,1985-01-18,80.15,,,,,170,175,180,,,,,,180,82.5,Pro Military/Fire/Police,M,B,Raw,No,,180,,1985
3,Michał Mikołajek,Poland,1987-08-17,80,,,,,137.5,142.5,147.5,,,,,,147.5,82.5,Pro Military/Fire/Police,M,B,Raw,No,,147.5,,1987
1,Dawid Trzciński,Poland,1990-05-29,88,,,,,195,205,210,,,,,,210,90,Pro Military/Fire/Police,M,B,Raw,No,,210,,1990
2,Jacek Krysiuk,Poland,1973-05-11,88.15,,,,,140,150,165,,,,,,165,90,Pro Military/Fire/Police,M,B,Raw,No,,165,,1973
3,Krzysztof Matejko,Poland,1989-05-08,86.15,,,,,140,150,-160,,,,,,150,90,Pro Military/Fire/Police,M,B,Raw,No,,150,,1989
1,Tomasz Trzciński,Poland,1982-09-17,98.65,,,,,210,-215,217.5,,,,,,217.5,100,Pro Military/Fire/Police,M,B,Raw,No,,217.5,,1982
2,Aleksander Kita,Poland,1982-12-11,95.75,,,,,200,-207.5,207.5,,,,,,207.5,100,Pro Military/Fire/Police,M,B,Raw,No,,207.5,,1982
3,Grzegorz Kopaniarz,Poland,1988-10-31,94.2,,,,,200,-210,-210,,,,,,200,100,Pro Military/Fire/Police,M,B,Raw,No,,200,,1988
4,Michał Sawicki,Poland,1984-05-21,99.3,,,,,155,160,167.5,,,,,,167.5,100,Pro Military/Fire/Police,M,B,Raw,No,,167.5,,1984
5,Jan Cenkiel,Poland,1949-03-16,97.7,,,,,135,-142.5,-142.5,,,,,,135,100,Pro Military/Fire/Police,M,B,Raw,No,,135,,1949
1,Kamil Pilwiński,Poland,1983-05-21,108.55,,,,,180,200,215,,,,,,215,110,Pro Military/Fire/Police,M,B,Raw,No,,215,,1983
2,Wojciech Różycki,Poland,1986-07-18,108.75,,,,,195,205,215,,,,,,215,110,Pro Military/Fire/Police,M,B,Raw,No,,215,,1986
3,Piotr Runge,Poland,1992-10-28,107.5,,,,,-200,200,-207.5,,,,,,200,110,Pro Military/Fire/Police,M,B,Raw,No,,200,,1992
4,Bartłomiej Rogoziński,Poland,1982-06-05,108.25,,,,,172.5,177.5,-185,,,,,,177.5,110,Pro Military/Fire/Police,M,B,Raw,No,,177.5,,1982
5,Marek Sadowski,Poland,1979-06-17,107.95,,,,,160,-170,-170,,,,,,160,110,Pro Military/Fire/Police,M,B,Raw,No,,160,,1979
6,Wojciech Grabowski,Poland,1951-03-31,107.65,,,,,130,145,152.5,,,,,,152.5,110,Pro Military/Fire/Police,M,B,Raw,No,,152.5,,1951
1,Paweł Liszcz,Poland,1978-01-24,116.65,,,,,250,255,-260,,,,,,255,125,Pro Military/Fire/Police,M,B,Raw,No,,255,,1978
2,Rafał Śrutkowski,Poland,1982-04-14,118.15,,,,,220,235,-240,,,,,,235,125,Pro Military/Fire/Police,M,B,Raw,No,,235,,1982
3,Marcin Nisiewicz,Poland,1992-10-22,117.7,,,,,170,180,187.5,,,,,,187.5,125,Pro Military/Fire/Police,M,B,Raw,No,,187.5,,1992
4,Paweł Sztachelek,Poland,1991-07-21,121.2,,,,,175,180,-187.5,,,,,,180,125,Pro Military/Fire/Police,M,B,Raw,No,,180,,1991
1,Maciek Kiślewski,Poland,1979-05-07,126.5,,,,,200,-205,-205,,,,,,200,140,Pro Military/Fire/Police,M,B,Raw,No,,200,,1979
2,Marcin Rochacki,Poland,1985-08-22,125.7,,,,,185,-192.5,192.5,,,,,,192.5,140,Pro Military/Fire/Police,M,B,Raw,No,,192.5,,1985
1,Marcin Jankowski,Poland,1984-12-11,141.75,,,,,190,200,-210,,,,,,200,140+,Pro Military/Fire/Police,M,B,Raw,No,,200,,1984
1,Rafał Roch,Poland,1983-10-04,52,,,,,145,-150,150,,,,,,150,52,Pro Paralympian,M,B,Raw,No,,150,,1983
1,Krystian Tuzikowski,Poland,2001-06-19,64.3,,,,,115,-117.5,-117.5,,,,,,115,67.5,Pro Paralympian,M,B,Raw,No,,115,,2001
1,Sebastian Świtoński,Poland,1998-04-09,73.6,,,,,140,152.5,-160.5,,,,,,152.5,75,Pro Paralympian,M,B,Raw,No,,152.5,,1998
2,Kacper Kowalewski,Poland,1996-05-09,74.95,,,,,100,120,132.5,,,,,,132.5,75,Pro Paralympian,M,B,Raw,No,,132.5,,1996
1,Bartłomiej Rogoziński,Poland,1982-06-05,108.25,,,,,172.5,177.5,-185,,,,,,177.5,110,Pro Paralympian,M,B,Raw,No,,177.5,,1982
1,Dawid Urbanowicz,Poland,1999-11-05,90.7,,,,,-180,180,190,,,,,,190,100,Pro Juniors 20-23,M,B,Multi-ply,No,,190,,1999
1,Bogusław Ufir,Poland,1993-02-20,65.8,,,,,190,195,-205,,,,,,195,67.5,Pro Open,M,B,Multi-ply,No,,195,,1993
1,Rafał Szendera,Poland,1971-11-05,74.7,,,,,202.5,-206,-206,,,,,,202.5,75,Pro Open,M,B,Multi-ply,No,,202.5,,1971
1,Krzysztof Wolszczak,Poland,1985-06-02,81.2,,,,,-190,190,205,,,,,,205,82.5,Pro Open,M,B,Multi-ply,No,,205,,1985
1,Dawid Deptuch,Poland,1986-11-28,88.3,,,,,220,230,240,,,,,,240,90,Pro Open,M,B,Multi-ply,No,,240,,1986
2,Paweł Pruszyński,Poland,1988-04-04,87.7,,,,,-190,190,-200,,,,,,190,90,Pro Open,M,B,Multi-ply,No,,190,,1988
DQ,Rafał Żarnowski,Poland,1992-03-11,92.7,,,,,-220,-220,-220,,,,,,,100,Pro Open,M,B,Multi-ply,No,,,,1992
DQ,Franciszek Szabluk,Poland,1956-09-17,98.1,,,,,-180,-190,-190,,,,,,,100,Pro Open,M,B,Multi-ply,No,,,,1956
1,Rafał Pałubicki,Poland,1976-10-04,108.45,,,,,250,-270,-270,,,,,,250,110,Pro Open,M,B,Multi-ply,No,,250,,1976
DQ,Grzegorz Wałga,Poland,1987-08-03,,,,,,,,,,,,,,,110,Pro Open,M,B,Multi-ply,No,,,,1987
1,Jussi Kananen,Finland,1984-10-04,150.2,,,,,205,225,237.5,,,,,,237.5,140+,Pro Open,M,B,Multi-ply,No,,237.5,,1984
1,Krzysztof Wolszczak,Poland,1985-06-02,81.2,,,,,-190,190,205,,,,,,205,82.5,Pro Submasters 33-39,M,B,Multi-ply,No,,205,,1985
1,Paweł Pruszyński,Poland,1988-04-04,87.7,,,,,-190,190,-200,,,,,,190,90,Pro Submasters 33-39,M,B,Multi-ply,No,,190,,1988
1,Jussi Kananen,Finland,1984-10-04,150.2,,,,,205,225,237.5,,,,,,237.5,140+,Pro Submasters 33-39,M,B,Multi-ply,No,,237.5,,1984
1,Rafał Pałubicki,Poland,1976-10-04,108.45,,,,,250,-270,-270,,,,,,250,110,Pro Masters 40-44,M,B,Multi-ply,No,,250,,1976
DQ,Franciszek Szabluk,Poland,1956-09-17,98.1,,,,,-180,-190,-190,,,,,,,100,Pro Masters 60-64,M,B,Multi-ply,No,,,,1956
1,Wojciech Grabowski,Poland,1951-03-31,107.65,,,,,180,190,-200,,,,,,190,110,Pro Masters 70-74,M,B,Multi-ply,No,,190,,1951
1,Dawid Urbanowicz,Poland,1999-11-05,90.7,,,,,-180,180,190,,,,,,190,100,Pro Military/Fire/Police,M,B,Multi-ply,No,,190,,1999
DQ,Rafał Żarnowski,Poland,1992-03-11,92.7,,,,,-220,-220,-220,,,,,,,100,Pro Military/Fire/Police,M,B,Multi-ply,No,,,,1992
1,Wojciech Grabowski,Poland,1951-03-31,107.65,,,,,180,190,-200,,,,,,190,110,Pro Military/Fire/Police,M,B,Multi-ply,No,,190,,1951
DQ,Aleksandra Szymczykowska,Poland,1998-04-17,55.72,,,,,-120,-120,-120,,,,,,,56,Pro Open,F,B,Multi-ply,No,,,,1998
1,Małgorzata Malikowska-Pikula,Poland,1985-11-29,75.4,,,,,150,160,-170,,,,,,160,82.5,Pro Open,F,B,Multi-ply,No,,160,,1985
1,Małgorzata Malikowska-Pikula,Poland,1985-11-29,75.4,,,,,150,160,-170,,,,,,160,82.5,Pro Submasters 33-39,F,B,Multi-ply,No,,160,,1985
1,Bogusław Ufir,Poland,1993-02-20,65.8,,,,,192.5,-230,-230,,,,,,192.5,67.5,Pro Open,M,B,Multi-ply,No,,192.5,,1993
1,Filip Váša,Czechia,1990-10-31,74,,,,,170,185,192.5,,,,,,192.5,75,Pro Open,M,B,Multi-ply,No,,192.5,,1990
2,Marcin Rybczyński,Poland,1992-06-21,74.4,,,,,150,170,-195,,,,,,170,75,Pro Open,M,B,Multi-ply,No,,170,,1992
1,Zbigniiew Boczar,Poland,1985-01-18,80.15,,,,,200,220,-250,,,,,,220,82.5,Pro Open,M,B,Multi-ply,No,,220,,1985
1,Sebastian Dąbrowski,Poland,1980-07-21,88.45,,,,,-325,-330,330,,,,,,330,90,Pro Open,M,B,Multi-ply,No,,330,,1980
2,Erik Váša,Czechia,1994-08-22,88,,,,,190,205,230,,,,,,230,90,Pro Open,M,B,Multi-ply,No,,230,,1994
3,Paweł Pruszyński,Poland,1988-04-04,87.7,,,,,180,192.5,-200,,,,,,192.5,90,Pro Open,M,B,Multi-ply,No,,192.5,,1988
4,Paweł Likus,Poland,1991-04-01,86.15,,,,,190,-225,-230,,,,,,190,90,Pro Open,M,B,Multi-ply,No,,190,,1991
1,Paweł Krzemiński,Poland,1992-06-16,91.4,,,,,230,-240,-240,,,,,,230,100,Pro Open,M,B,Multi-ply,No,,230,,1992
1,Tomasz Obcowski,Poland,1979-01-05,101.95,,,,,350,-370,-400,,,,,,350,110,Pro Open,M,B,Multi-ply,No,,350,,1979
2,Rafał Pałubicki,Poland,1976-10-04,108.45,,,,,340,,,,,,,,340,110,Pro Open,M,B,Multi-ply,No,,340,,1976
3,Krystian Fijałkowski,Poland,1992-11-24,104.1,,,,,260,290,-300,,,,,,290,110,Pro Open,M,B,Multi-ply,No,,290,,1992
1,Petr Pastýřík,Czechia,1989-08-07,120.4,,,,,230,245,250,,,,,,250,125,Pro Open,M,B,Multi-ply,No,,250,,1989
2,Martin Krajčí,Slovakia,1988-01-06,117.5,,,,,-230,-235,235,,,,,,235,125,Pro Open,M,B,Multi-ply,No,,235,,1988
3,Paweł Sztachelek,Poland,1991-07-21,121.2,,,,,210,215,-220,,,,,,215,125,Pro Open,M,B,Multi-ply,No,,215,,1991
1,Jussi Kananen,Finland,1984-10-04,150.2,,,,,220,-280,-280,,,,,,220,140+,Pro Open,M,B,Multi-ply,No,,220,,1984
1,Zbigniiew Boczar,Poland,1985-01-18,80.15,,,,,200,220,-250,,,,,,220,82.5,Pro Submasters 33-39,M,B,Multi-ply,No,,220,,1985
1,Paweł Pruszyński,Poland,1988-04-04,87.7,,,,,180,192.5,-200,,,,,,192.5,90,Pro Submasters 33-39,M,B,Multi-ply,No,,192.5,,1988
1,Jozef Harandza,Slovakia,1982-05-20,119,,,,,230,250,270,,,,,,270,125,Pro Submasters 33-39,M,B,Multi-ply,No,,270,,1982
2,Adam Sławnikowski,Poland,1986-12-21,116.65,,,,,240,250,-260,,,,,,250,125,Pro Submasters 33-39,M,B,Multi-ply,No,,250,,1986
1,Michal Kráľ,Slovakia,1982-03-18,125.05,,,,,190,200,-210,,,,,,200,140,Pro Submasters 33-39,M,B,Multi-ply,No,,200,,1982
1,Jussi Kananen,Finland,1984-10-04,150.2,,,,,220,-280,-280,,,,,,220,140+,Pro Submasters 33-39,M,B,Multi-ply,No,,220,,1984
1,Sebastian Dąbrowski,Poland,1980-07-21,88.45,,,,,-325,-330,330,,,,,,330,90,Pro Masters 40-44,M,B,Multi-ply,No,,330,,1980
1,Tomasz Obcowski,Poland,1979-01-05,101.95,,,,,350,-370,-400,,,,,,350,110,Pro Masters 40-44,M,B,Multi-ply,No,,350,,1979
2,Rafał Pałubicki,Poland,1976-10-04,108.45,,,,,340,,,,,,,,340,110,Pro Masters 40-44,M,B,Multi-ply,No,,340,,1976
3,Tomasz Napierała,Poland,1979-11-07,100.5,,,,,180,-210,-220,,,,,,180,110,Pro Masters 40-44,M,B,Multi-ply,No,,180,,1979
1,Wojciech Grabowski,Poland,1951-03-31,107.65,,,,,200,220,230,,,,,,230,110,Pro Masters 70-74,M,B,Multi-ply,No,,230,,1951
1,Zbigniiew Boczar,Poland,1985-01-18,80.15,,,,,200,220,-250,,,,,,220,82.5,Pro Military/Fire/Police,M,B,Multi-ply,No,,220,,1985
1,Wojciech Grabowski,Poland,1951-03-31,107.65,,,,,200,220,230,,,,,,230,110,Pro Military/Fire/Police,M,B,Multi-ply,No,,230,,1951
2,Tomasz Napierała,Poland,1979-11-07,100.5,,,,,180,-210,-220,,,,,,180,110,Pro Military/Fire/Police,M,B,Multi-ply,No,,180,,1979
1,Paweł Sztachelek,Poland,1991-07-21,121.2,,,,,210,215,-220,,,,,,215,125,Pro Military/Fire/Police,M,B,Multi-ply,No,,215,,1991
1,Sebastian Świtoński,Poland,1998-04-09,73.6,,,,,170,-190,-193,,,,,,170,75,Pro Paralympian,M,B,Multi-ply,No,,170,,1998
1,Mateusz Kubiak,Poland,2004-06-09,77.75,,,,,,,,,170,182.5,192.5,,192.5,82.5,Pro Teen 16-17,M,D,Raw,No,,,192.5,2004
1,Jakub Pączkowski,Poland,1997-10-27,86.5,,,,,,,,,250,275,280,,280,90,Pro Juniors 20-23,M,D,Raw,No,,,280,1997
1,Michał Pawłowski,Poland,1998-01-25,108.6,,,,,,,,,295,305.5,-310,,305.5,110,Pro Juniors 20-23,M,D,Raw,No,,,305.5,1998
1,Krystian Ludkowski,Poland,1998-10-21,119.45,,,,,,,,,280,292.5,-300,,292.5,125,Pro Juniors 20-23,M,D,Raw,No,,,292.5,1998
1,Paweł Pracownik,Poland,1973-08-27,75,,,,,,,,,250,270,280,,280,75,Pro Open,M,D,Raw,No,,,280,1973
2,Andrzej Kołodziejczyk,Poland,1990-11-10,73.35,,,,,,,,,205,215,222.5,,222.5,75,Pro Open,M,D,Raw,No,,,222.5,1990
DQ,Filip Váša,Czechia,1990-10-31,74,,,,,,,,,-220,,,,,75,Pro Open,M,D,Raw,No,,,,1990
1,Karol Opaliński,Poland,1990-07-05,82,,,,,,,,,250,260,-270,,260,82.5,Pro Open,M,D,Raw,No,,,260,1990
2,Beata Koroniecka,Poland,1992-05-18,76.2,,,,,,,,,100,110,120,,120,82.5,Pro Open,F,D,Raw,No,,,120,1992
1,Jakub Pączkowski,Poland,1997-10-27,86.5,,,,,,,,,250,275,280,,280,90,Pro Open,M,D,Raw,No,,,280,1997
2,Sławomir Golonka,Poland,1993-10-31,87.3,,,,,,,,,-230,250,260,,260,90,Pro Open,M,D,Raw,No,,,260,1993
1,Błażej Białek,Poland,1990-12-28,99.1,,,,,,,,,272.5,285,-302.5,,285,100,Pro Open,M,D,Raw,No,,,285,1990
1,Krzysztof Wierzbicki,Poland,1990-06-05,103.8,,,,,,,,,400,430,-447.5,,430,110,Pro Open,M,D,Raw,No,,,430,1990
2,Artyom Khugoyan,Armenia,1989-09-10,109.95,,,,,,,,,-295,-300,300,,300,110,Pro Open,M,D,Raw,No,,,300,1989
1,Radosław Kozdrach,Poland,1996-05-04,111.45,,,,,,,,,330,-345,-345,,330,125,Pro Open,M,D,Raw,No,,,330,1996
2,Krzysztof Piekutin,Poland,1992-08-04,121.8,,,,,,,,,300,320,-332.5,,320,125,Pro Open,M,D,Raw,No,,,320,1992
3,Sławomir Milewski,Poland,1981-04-18,122.45,,,,,,,,,200,230,-240,,230,125,Pro Open,M,D,Raw,No,,,230,1981
1,Mateusz Pawlikowski,Poland,1992-06-14,138,,,,,,,,,280,300,-320,,300,140,Pro Open,M,D,Raw,No,,,300,1992
2,Robert Nemś,Poland,1969-06-15,125.95,,,,,,,,,280,-300,-300,,280,140,Pro Open,M,D,Raw,No,,,280,1969
3,Mirosław Janeczek,Poland,1992-05-10,129.4,,,,,,,,,230,260,270,,270,140,Pro Open,M,D,Raw,No,,,270,1992
1,Mariusz Wyrozębski,Poland,1982-04-01,146.9,,,,,,,,,210,230,240,,240,140+,Pro Open,M,D,Raw,No,,,240,1982
1,Macej Markowski,Slovakia,1984-07-31,82.5,,,,,,,,,230,245,-252.5,,245,82.5,Pro Submasters 33-39,M,D,Raw,No,,,245,1984
1,Rafał Śrutkowski,Poland,1982-04-14,118.15,,,,,,,,,280,-300,-300,,280,125,Pro Submasters 33-39,M,D,Raw,No,,,280,1982
2,Jozef Harandza,Slovakia,1982-05-20,119,,,,,,,,,220,242.5,257.5,,257.5,125,Pro Submasters 33-39,M,D,Raw,No,,,257.5,1982
3,Gegham Hakobyan,Armenia,1981-07-01,117.35,,,,,,,,,225,240,-255,,240,125,Pro Submasters 33-39,M,D,Raw,No,,,240,1981
1,Szczepan Widera,Poland,1984-10-31,126.9,,,,,,,,,265,282.5,310,326,310,140,Pro Submasters 33-39,M,D,Raw,No,,,310,1984
2,Michal Kráľ,Slovakia,1982-03-18,125.05,,,,,,,,,200,220,230,,230,140,Pro Submasters 33-39,M,D,Raw,No,,,230,1982
1,Hayk Barsamyan,Armenia,1983-03-03,141.65,,,,,,,,,270,302.5,310,,310,140+,Pro Submasters 33-39,M,D,Raw,No,,,310,1983
2,Mariusz Wyrozębski,Poland,1982-04-01,146.9,,,,,,,,,210,230,240,,240,140+,Pro Submasters 33-39,M,D,Raw,No,,,240,1982
1,Pavel Balážik,Slovakia,1979-08-23,58.85,,,,,,,,,142.5,152.5,160.5,-165,160.5,60,Pro Masters 40-44,M,D,Raw,No,,,160.5,1979
DQ,Pavel Vechter,Slovakia,1976-08-16,,,,,,,,,,,,,,,82.5,Pro Masters 40-44,M,D,Raw,No,,,,1976
1,Grzegorz Drewniany,Poland,1977-03-20,99.1,,,,,,,,,220,235,242.5,,242.5,100,Pro Masters 40-44,M,D,Raw,No,,,242.5,1977
2,Michal Švajka,Slovakia,1978-05-17,91.25,,,,,,,,,180,200,-215,,200,100,Pro Masters 40-44,M,D,Raw,No,,,200,1978
1,Mariusz Bartołowicz,Poland,1979-12-10,108.2,,,,,,,,,280,290,300,,300,110,Pro Masters 40-44,M,D,Raw,No,,,300,1979
1,Mariusz Cichocki,Poland,1977-03-14,118.8,,,,,,,,,280,290,-300,,290,125,Pro Masters 40-44,M,D,Raw,No,,,290,1977
DQ,Vardan Simonyan,Armenia,1991-06-02,,,,,,,,,,,,,,,67.5,Pro Masters 45-49,M,D,Raw,No,,,,1991
1,Paweł Pracownik,Poland,1973-08-27,75,,,,,,,,,250,270,280,,280,75,Pro Masters 45-49,M,D,Raw,No,,,280,1973
1,Ivan Giňovský,Slovakia,1967-03-31,90.3,,,,,,,,,190,-210,-210,,190,100,Pro Masters 50-54,M,D,Raw,No,,,190,1967
1,Gagik Tonoyan,Armenia,1966-07-05,110,,,,,,,,,270,280,287,,287,110,Pro Masters 50-54,M,D,Raw,No,,,287,1966
1,Robert Nemś,Poland,1969-06-15,125.95,,,,,,,,,280,-300,-300,,280,140,Pro Masters 50-54,M,D,Raw,No,,,280,1969
1,Tibor Gejdoš,Slovakia,1963-11-18,100.3,,,,,,,,,220,230,-240,,230,110,Pro Masters 55-59,M,D,Raw,No,,,230,1963
1,Wiesław Wrŏbel,Poland,1957-07-02,100.1,,,,,,,,,230,260,270,,270,110,Pro Masters 60-64,M,D,Raw,No,,,270,1957
1,Zbigniew Koper,Poland,1953-10-04,73,,,,,,,,,150,160,-165,,160,75,Pro Masters 65-69,M,D,Raw,No,,,160,1953
1,Zbigniew Cabaj,Poland,1955-04-10,87.95,,,,,,,,,170,190,200,,200,90,Pro Masters 65-69,M,D,Raw,No,,,200,1955
DQ,Ireneusz Kamiński,Poland,1953-05-20,,,,,,,,,,,,,,,90,Pro Masters 65-69,M,D,Raw,No,,,,1953
1,Ryszard Magdziak,Poland,1960-08-09,93.9,,,,,,,,,130,150,165,,165,100,Pro Masters 65-69,M,D,Raw,No,,,165,1960
1,Józef Sokołowski,Poland,1955-07-28,105.1,,,,,,,,,280,300,-310,,300,110,Pro Masters 65-69,M,D,Raw,No,,,300,1955
1,Ryszard Śliwiński,Poland,1950-01-22,73,,,,,,,,,140,150,155,,155,75,Pro Masters 70-74,M,D,Raw,No,,,155,1950
1,Sławomir Golonka,Poland,1993-10-31,87.3,,,,,,,,,-230,250,260,,260,90,Pro Military/Fire/Police,M,D,Raw,No,,,260,1993
1,Mariusz Bartołowicz,Poland,1979-12-10,108.2,,,,,,,,,280,290,300,,300,110,Pro Military/Fire/Police,M,D,Raw,No,,,300,1979
1,Rafał Śrutkowski,Poland,1982-04-14,118.15,,,,,,,,,280,-300,-300,,280,125,Pro Military/Fire/Police,M,D,Raw,No,,,280,1982
1,Karol Młynarkiewicz,Poland,1987-02-27,126.6,,,,,,,,,280,300,-305,,300,140,Pro Military/Fire/Police,M,D,Raw,No,,,300,1987
1,Magdalena Szpila,Poland,2002-03-06,50.26,,,,,,,,,120,127.5,130,,130,52,Pro Teen 18-19,F,D,Raw,No,,,130,2002
1,Karolina Pączkowska,Poland,2001-10-18,58.56,,,,,,,,,110,120,130.5,,130.5,60,Pro Teen 18-19,F,D,Raw,No,,,130.5,2001
1,Karolina Dubij,Poland,2002-02-12,65.35,,,,,,,,,95,105,110,,110,67.5,Pro Teen 18-19,F,D,Raw,No,,,110,2002
1,Martyna Dubij,Poland,1999-05-14,51.14,,,,,,,,,105,115,-120,,115,52,Pro Juniors 20-23,F,D,Raw,No,,,115,1999
1,Klaudia Witek,Poland,1998-08-09,53.76,,,,,,,,,125,-135,-137.5,,125,56,Pro Juniors 20-23,F,D,Raw,No,,,125,1998
1,Sandra Wilgos,Poland,2000-03-08,65.15,,,,,,,,,100,110,120,,120,67.5,Pro Juniors 20-23,F,D,Raw,No,,,120,2000
1,Kristýna Tomšovicová,Czechia,1998-03-22,93.1,,,,,,,,,70,80,-100,,80,100,Pro Juniors 20-23,F,D,Raw,No,,,80,1998
1,Dominika Dziura,Poland,1990-04-27,49.24,,,,,,,,,110,120,125,,125,52,Pro Open,F,D,Raw,No,,,125,1990
1,Marlena Filipska,Poland,1988-09-04,54,,,,,,,,,125,132.5,140,,140,56,Pro Open,F,D,Raw,No,,,140,1988
1,Anna Fistek,Poland,1997-08-19,59.15,,,,,,,,,110,120,130,,130,60,Pro Open,F,D,Raw,No,,,130,1997
1,Renata Zapała,Poland,1994-07-28,79.95,,,,,,,,,100,125,-145,,125,82.5,Pro Open,F,D,Raw,No,,,125,1994
1,Lilit Vardanyan,Armenia,1975-03-07,67.5,,,,,,,,,135,147.5,158,,158,67.5,Pro Masters 40-44,F,D,Raw,No,,,158,1975
1,Bettina Razzouki-Korkis,Poland,1965-08-28,57.5,,,,,,,,,110,120,130,135,130,60,Pro Masters 55-59,F,D,Raw,No,,,130,1965
1,Krystyna Puzio,Poland,1965-04-23,86.4,,,,,,,,,130,140,150,,150,90,Pro Masters 55-59,F,D,Raw,No,,,150,1965
1,Petr Pastýřík,Czechia,1989-08-07,120.6,,,,,,,,,270,280,-300,,280,125,Pro Open,M,D,Multi-ply,No,,,280,1989
1,Karol Kornel Repiský,Slovakia,1964-06-24,123.7,,,,,,,,,-235,235,,,235,125,Pro Masters 55-59,M,D,Multi-ply,No,,,235,1964
