Division,WeightClassKg,Place,Name,Team,BodyweightKg,Best3SquatKg,Best3BenchKg,Best3DeadliftKg,TotalKg,Equipment,Event,Sex
Boys,51.71,1,Carlos Cadena,Waxahachie,51.62,149.69,95.25,176.9,421.84,Single-ply,SBD,M
Boys,51.71,2,Josue Leon,Sulphur Springs,49.62,140.61,61.23,149.69,351.53,Single-ply,SBD,M
Boys,55.79,3,Scott Byrd,Longview,51.89,124.74,68.04,142.88,335.66,Single-ply,SBD,M
Boys,51.71,4,Edgar Simmons,Marshall,51.53,117.93,70.31,120.2,308.44,Single-ply,SBD,M
Boys,51.71,5,Taylor Kelly,Mabank,51.62,124.74,63.5,115.67,303.91,Single-ply,SBD,M
Boys,51.71,6,Brett Butler,Mabank,46.81,115.67,63.5,122.47,301.64,Single-ply,SBD,M
Boys,55.79,7,Tk Wilbert,Marshall,51.8,102.06,61.23,127.01,290.3,Single-ply,SBD,M
Boys,51.71,8,David Blackwell,Nacogdoches,51.17,97.52,38.56,97.52,233.6,Single-ply,SBD,M
Boys,55.79,DQ,Ashton Griffin,Lindale,51.82,106.59,70.31,,,Single-ply,SBD,M
Boys,51.71,DQ,Dj Grogan,Marshall,51.07,136.08,79.38,,,Single-ply,SBD,M
Boys,55.79,1,Blake Mirowitz,Red Oak,55.61,151.95,88.45,174.63,415.04,Single-ply,SBD,M
Boys,55.79,2,James Payton,Nacogdoches,55.79,142.88,79.38,151.95,374.21,Single-ply,SBD,M
Boys,55.79,3,Peyton Adkins,Midlothian,53.98,138.35,81.65,149.69,369.68,Single-ply,SBD,M
Boys,55.79,4,Manuel Rojas,Hallsville,52.71,124.74,83.91,140.61,349.27,Single-ply,SBD,M
Boys,55.79,5,Josh Matheson,Mabank,55.61,131.54,81.65,124.74,337.93,Single-ply,SBD,M
Boys,55.79,6,Justin Gunderson,Sulphur Springs,54.34,124.74,70.31,124.74,319.78,Single-ply,SBD,M
Boys,55.79,7,Arturo Ledezma,Mabank,55.79,120.2,74.84,124.74,319.78,Single-ply,SBD,M
Boys,59.87,8,David McGee,Red Oak,55.97,115.67,61.23,142.88,319.78,Single-ply,SBD,M
Boys,59.87,9,Ahmad Traylor,Marshall,55.97,117.93,70.31,129.27,317.51,Single-ply,SBD,M
Boys,55.79,10,Micah Ethington,Nacogdoches,54.34,127.01,52.16,133.81,312.98,Single-ply,SBD,M
Boys,59.87,1,Larkin Alexander,Waxahachie,58.69,183.7,106.59,188.24,478.54,Single-ply,SBD,M
Boys,59.87,2,Vincent Sellers,Midlothian,59.87,183.7,106.59,181.44,471.74,Single-ply,SBD,M
Boys,59.87,3,Taylor Link,Sulphur Springs,59.69,165.56,113.4,170.1,449.06,Single-ply,SBD,M
Boys,67.13,4,Charles Crosby,Red Oak,59.96,167.83,79.38,181.44,428.64,Single-ply,SBD,M
Boys,59.87,5,Justin Marion,Huntsville,56.06,161.03,102.06,163.29,426.38,Single-ply,SBD,M
Boys,59.87,6,Alfred Champion,Greenville,59.69,163.29,86.18,167.83,417.3,Single-ply,SBD,M
Boys,59.87,7,Daniel Cadena,Waxahachie,59.51,149.69,83.91,176.9,410.5,Single-ply,SBD,M
Boys,67.13,8,Jt Delay,Mabank,59.96,158.76,92.99,151.95,403.7,Single-ply,SBD,M
Boys,67.13,9,Riley Foshee,Lindale,59.99,163.29,72.57,165.56,401.43,Single-ply,SBD,M
Boys,59.87,10,Cade Zmolik,Ennis,59.24,149.69,95.25,145.15,390.09,Single-ply,SBD,M
Boys,67.13,1,Chris Ford,Marshall,65.95,222.26,145.15,222.26,589.67,Single-ply,SBD,M
Boys,67.13,2,Andric Okra,Marshall,66.68,181.44,111.13,206.38,498.95,Single-ply,SBD,M
Boys,67.13,3,Terrance Walker,Mount Pleasant,65.14,213.19,113.4,170.1,496.68,Single-ply,SBD,M
Boys,67.13,4,Tyrone Crawford,Waxahachie,65.86,176.9,113.4,192.78,483.08,Single-ply,SBD,M
Boys,67.13,5,Tim Bailey #3,Lindale,66.22,181.44,111.13,188.24,480.81,Single-ply,SBD,M
Boys,67.13,6,Johnathan Carlisle,Sulphur Springs,66.86,183.7,106.59,181.44,471.74,Single-ply,SBD,M
Boys,67.13,7,Austin Martin #3,Greenville,65.86,176.9,108.86,183.7,469.47,Single-ply,SBD,M
Boys,67.13,8,DeMarcus Lynch,Lindale,65.43,192.78,83.91,188.24,464.93,Single-ply,SBD,M
Boys,67.13,9,Brandon Perkins,Jacksonville,65.41,149.69,117.93,190.51,458.13,Single-ply,SBD,M
Boys,67.13,10,Jonny Sorey,Forney,64.77,174.63,90.72,181.44,446.79,Single-ply,SBD,M
Boys,74.84,1,Dakota Anthony,Longview,74.66,229.06,129.27,229.06,587.4,Single-ply,SBD,M
Boys,82.1,2,Ryan Kilgore,Hallsville,75.02,217.72,111.13,199.58,528.44,Single-ply,SBD,M
Boys,82.1,3,Alex Cuarenta,Nacogdoches,75.02,210.92,92.99,206.38,510.29,Single-ply,SBD,M
Boys,74.84,4,Kannon Carter,Mount Pleasant,72.67,195.04,113.4,188.24,496.68,Single-ply,SBD,M
Boys,74.84,5,Jeremi Lewis,Red Oak,74.39,195.04,108.86,188.24,492.15,Single-ply,SBD,M
Boys,74.84,6,Justin Seeton,Midlothian,73.3,174.63,97.52,199.58,471.74,Single-ply,SBD,M
Boys,74.84,7,Victor Gonzales,Midlothian,71.3,172.37,102.06,195.04,469.47,Single-ply,SBD,M
Boys,82.1,8,Aaron Hodges,Huntsville,74.93,174.63,90.72,190.51,455.86,Single-ply,SBD,M
Boys,74.84,DQ,Austin Gipson,Jacksonville,73.94,,,,,Single-ply,SBD,M
Boys,74.84,DQ,Carter Cornelius,Marshall,74.21,181.44,,,,Single-ply,SBD,M
Boys,82.1,1,Jc Haigwood,Marshall,81.65,235.87,165.56,258.55,659.98,Single-ply,SBD,M
Boys,82.1,2,Stephen Julian,Mount Pleasant,80.74,226.8,154.22,231.33,612.35,Single-ply,SBD,M
Boys,82.1,3,Cody Evans,Corsicana,82.01,235.87,124.74,251.74,612.35,Single-ply,SBD,M
Boys,82.1,4,Brandon Evans,Corsicana,81.28,226.8,129.27,240.4,596.47,Single-ply,SBD,M
Boys,82.1,5,Joe Scott,Sulphur Springs,80.74,238.14,140.61,215.46,594.21,Single-ply,SBD,M
Boys,82.1,6,Cody Dobiyanski,Lindale,79.83,219.99,120.2,226.8,566.99,Single-ply,SBD,M
Boys,82.1,7,Decorean Blankenship,Longview,81.19,215.46,124.74,226.8,566.99,Single-ply,SBD,M
Boys,89.81,8,Jerry Roland,Hallsville,82.19,208.65,120.2,210.92,539.77,Single-ply,SBD,M
Boys,82.1,DQ,Quinton Smith,Huntsville,80.74,238.14,140.61,,,Single-ply,SBD,M
Boys,89.81,1,Demeon Timmons,Marshall,86.18,258.55,154.22,226.8,639.57,Single-ply,SBD,M
Boys,89.81,2,Andrew Kindred,Waxahachie,87.91,249.48,117.93,249.48,616.89,Single-ply,SBD,M
Boys,89.81,3,Dekota Newson,Marshall,89.27,242.67,129.27,240.4,612.35,Single-ply,SBD,M
Boys,89.81,4,Blake McCown,Texarkana Texas,87.36,226.8,133.81,222.26,582.87,Single-ply,SBD,M
Boys,89.81,5,Dustin Schultz,Mabank,89.72,213.19,142.88,208.65,564.72,Single-ply,SBD,M
Boys,89.81,6,Chonston Williams,Ennis,88.54,204.12,138.35,217.72,560.19,Single-ply,SBD,M
Boys,89.81,7,Stephen Godwin,Hallsville,89.09,219.99,140.61,199.58,560.19,Single-ply,SBD,M
Boys,89.81,8,Seth Savage,Sulphur Springs,89.54,204.12,108.86,188.24,501.22,Single-ply,SBD,M
Boys,89.81,DQ,Dalton Snyder,Ennis,83.55,210.92,,,,Single-ply,SBD,M
Boys,89.81,DQ,Jose Ortiz,Forney,89.36,,,,,Single-ply,SBD,M
Boys,99.79,1,Dillon Bramblitt,Mabank,98.79,294.84,183.7,235.87,714.41,Single-ply,SBD,M
Boys,99.79,2,Keith Moore,Lindale,99.34,249.48,142.88,276.69,669.05,Single-ply,SBD,M
Boys,99.79,3,Bryan Randall,Waxahachie,96.71,233.6,147.42,238.14,619.15,Single-ply,SBD,M
Boys,99.79,4,Brandon Polk,Corsicana,97.43,249.48,131.54,226.8,607.81,Single-ply,SBD,M
Boys,99.79,5,Clayton Godfrey,Texarkana Texas,98.34,235.87,142.88,226.8,605.55,Single-ply,SBD,M
Boys,99.79,6,Mekail Faquir,Corsicana,98.79,219.99,124.74,233.6,578.33,Single-ply,SBD,M
Boys,109.77,7,Eric Ray,Red Oak,99.88,231.33,133.81,204.12,569.26,Single-ply,SBD,M
Boys,99.79,8,Clay Caroll,Corsicana,96.8,204.12,142.88,217.72,564.72,Single-ply,SBD,M
Boys,99.79,9,Rene Zavala,Waxahachie,91.99,219.99,140.61,195.04,555.65,Single-ply,SBD,M
Boys,109.77,1,Nolan Duncan,Mabank,109.13,276.69,174.63,249.48,700.8,Single-ply,SBD,M
Boys,109.77,2,Andrew Burton,Sulphur Springs,108.05,260.82,165.56,272.16,698.53,Single-ply,SBD,M
Boys,109.77,3,Bridge Blount,Huntsville,105.69,269.89,151.95,272.16,694,Single-ply,SBD,M
Boys,109.77,4,Rob Boyd,Ennis,106.5,242.67,163.29,247.21,653.17,Single-ply,SBD,M
Boys,109.77,5,Tj Carter,Ennis,106.32,238.14,145.15,244.94,628.23,Single-ply,SBD,M
Boys,109.77,6,Adrian McCoy,Marshall,105.87,240.4,142.88,226.8,610.08,Single-ply,SBD,M
Boys,109.77,7,Dustin Upchurch,Waxahachie,105.05,242.67,136.08,226.8,605.55,Single-ply,SBD,M
Boys,109.77,8,Cameron Bradbury,Lindale,100.24,217.72,124.74,222.26,564.72,Single-ply,SBD,M
Boys,124.74,1,Rishaad Wimbley,Forney,119.66,290.3,176.9,272.16,739.36,Single-ply,SBD,M
Boys,124.74,2,Jacob Alford,Lindale,122.92,324.32,170.1,224.53,718.94,Single-ply,SBD,M
Boys,124.74,3,Heath LeMoine,Midlothian,121.74,251.74,131.54,201.85,585.13,Single-ply,SBD,M
Boys,124.74,4,Forbes Baggett,Huntsville,117.3,226.8,136.08,219.99,582.87,Single-ply,SBD,M
Boys,124.74,5,Ricky Hall,Corsicana,113.67,251.74,133.81,190.51,576.06,Single-ply,SBD,M
Boys,124.74,6,Martinues Manning,Texarkana Texas,115.12,219.99,145.15,195.04,560.19,Single-ply,SBD,M
Boys,124.74,7,Tavian Taylor,Terrell,118.3,231.33,140.61,181.44,553.38,Single-ply,SBD,M
Boys,124.74,DQ,Chris Ramos,Forney,117.03,226.8,,,,Single-ply,SBD,M
Boys,124.74,DQ,Jensen Jackson,Marshall,120.2,254.01,158.76,,,Single-ply,SBD,M
Boys,124.74+,1,Ethan Perkins,Nacogdoches,132.27,317.51,183.7,260.82,762.04,Single-ply,SBD,M
Boys,124.74+,2,Jalen Stephens,Mount Pleasant,130.54,292.57,170.1,249.48,712.14,Single-ply,SBD,M
Boys,124.74+,3,Mason Y'Barbo,Sulphur Springs,130.73,254.01,156.49,254.01,664.51,Single-ply,SBD,M
Boys,124.74+,4,Christian Ivy,Corsicana,125.19,263.08,147.42,231.33,641.83,Single-ply,SBD,M
Boys,124.74+,5,Drew Cosper,Mabank,156.17,272.16,165.56,201.85,639.57,Single-ply,SBD,M
Boys,124.74+,6,Ryan Burgess,Lindale,162.39,265.35,127.01,226.8,619.15,Single-ply,SBD,M
Boys,124.74+,7,Sam Schomp,Lindale,132.36,233.6,145.15,213.19,591.94,Single-ply,SBD,M
Boys,124.74+,8,Nick Lewis,Texarkana Texas,141.79,240.4,136.08,204.12,580.6,Single-ply,SBD,M
