Place,Name,BirthYear,Country,WeightClassKg,BodyweightKg,Bench1Kg,Bench2Kg,Bench3Kg,Best3BenchKg,TotalKg,Event,Equipment,Sex,Division,BirthDate
1,Fredrik Eskil Myrvang,1990,Norway,59,57.22,157.5,-160,160,160,160,B,Raw,M,Open,
2,Ivan Kuvaldin,2001,Kazakhstan,59,58.24,-150,155,160,160,160,B,Raw,M,Open,
3,Andrey Shpitser,1986,Kazakhstan,59,56.3,152.5,155,-157.5,155,155,B,Raw,M,Open,
4,Vasyl Kropyvnytskyi,1993,Ukraine,59,58.46,140,-145,-145,140,140,B,Raw,M,Open,
DQ,Daniel Thomas #2,1985,UK,59,58.8,-145,-145,-145,,,B,Raw,M,Open,
1,Wataru Tobita,1999,Japan,66,65.2,-205,-205,205,205,205,B,Raw,M,Open,
2,Abdulkarim Karaman,1994,Kazakhstan,66,65.35,182.5,-195,-195,182.5,182.5,B,Raw,M,Open,
3,Ren Tamoto,1998,Japan,66,65.05,145,152.5,157.5,157.5,157.5,B,Raw,M,Open,
4,Philipp Ziemer,1990,Germany,66,65.2,150,-155,155,155,155,B,Raw,M,Open,
5,Vladimir Zubenko,1992,Kyrgyzstan,66,64.4,145,-155,-155,145,145,B,Raw,M,Open,
6,Oliver Schneider,1989,Germany,66,65.25,-140,140,-152.5,140,140,B,Raw,M,Open,
1,Daiki Kodama,1979,Japan,74,72.3,210,220,-222.5,220,220,B,Raw,M,Open,
2,Ivan Chuprinko,1986,Ukraine,74,73.2,210,220,-222.5,220,220,B,Raw,M,Open,
3,Azat Salmen,1989,Kazakhstan,74,72.95,180,-185,185,185,185,B,Raw,M,Open,
4,Andrew Ward #1,1988,UK,74,73.7,152.5,162.5,170,170,170,B,Raw,M,Open,
DQ,Dmitrii Ivanov,1993,Kyrgyzstan,74,73.95,-160,-160,-160,,,B,Raw,M,Open,
1,Mehdi Sahari,1996,France,83,78.65,-207.5,207.5,212.5,212.5,212.5,B,Raw,M,Open,
2,Yusuke Suzuki,1984,Japan,83,81.1,-207.5,207.5,210,210,210,B,Raw,M,Open,
3,Volodymyr Tsaturian,1995,Ukraine,83,81.7,-197.5,197.5,-212.5,197.5,197.5,B,Raw,M,Open,
4,Kim Beck-Gundersen,1985,Norway,83,82.05,185,192.5,-200,192.5,192.5,B,Raw,M,Open,
5,Khurelbaatar Sodnomdorj,1993,Mongolia,83,82.1,-192.5,192.5,-200,192.5,192.5,B,Raw,M,Open,
6,Jeffrey Hasselt,1987,Netherlands,83,81.2,-180,180,187.5,187.5,187.5,B,Raw,M,Open,
7,Benjamin Haugk,1990,Germany,83,80.8,-157.5,157.5,160,160,160,B,Raw,M,Open,
8,Richard Kerr-Phillips,1990,New Zealand,83,82.15,-157.5,157.5,-165,157.5,157.5,B,Raw,M,Open,
9,Prakash Carlo Vincent,1972,India,83,82.15,-140,140,-145,140,140,B,Raw,M,Open,
10,Lauren Cohen,1979,USA,83,78.4,122.5,132.5,137.5,137.5,137.5,B,Raw,M,Open,
DQ,Farid Salehi,1998,Iran,83,82.1,-185,-192.5,-192.5,,,B,Raw,M,Open,
1,Orgilbold Galdan,1986,Mongolia,93,89.35,210,220,227.5,227.5,227.5,B,Raw,M,Open,
2,Bohdan Bon,1995,Ukraine,93,92.15,210,-222.5,222.5,222.5,222.5,B,Raw,M,Open,
3,Vyacheslav Tsoy,1984,Kazakhstan,93,92.4,-217.5,222.5,-230,222.5,222.5,B,Raw,M,Open,
4,Jakub Sedláček,1988,Czechia,93,91.9,205,212.5,-222.5,212.5,212.5,B,Raw,M,Open,
5,Jarle Bjørgo Onarheim,1992,Norway,93,92.8,192.5,202.5,210,210,210,B,Raw,M,Open,
6,Ryan McLellan,1993,Canada,93,91.6,-190,190,200,200,200,B,Raw,M,Open,
7,Christopher Teague,1991,UK,93,92.8,-192.5,192.5,-202.5,192.5,192.5,B,Raw,M,Open,
8,Yasuki Yamashita,1991,Japan,93,92.7,180,-192.5,-222.5,180,180,B,Raw,M,Open,
9,Michel El Maalouf,1987,Lebanon,93,92.65,160,-167.5,-167.5,160,160,B,Raw,M,Open,
DQ,Davit Gabelaia,1989,Georgia,93,92.85,-207.5,-207.5,-212.5,,,B,Raw,M,Open,
1,Joni Tajakka,1992,Finland,105,104,-222.5,222.5,-232.5,222.5,222.5,B,Raw,M,Open,
2,Tserentogtokh Gankhuu,1984,Mongolia,105,101.7,-215,-220,220,220,220,B,Raw,M,Open,
3,Levani Mtiulishvili,1990,Georgia,105,101.45,-215,215,-217.5,215,215,B,Raw,M,Open,
4,Christian Flueras,1996,Germany,105,104.55,180,190,-195,190,190,B,Raw,M,Open,
5,Ralf A. Male,1994,Norway,105,104.55,185,-192.5,-192.5,185,185,B,Raw,M,Open,
6,Wesley McGuinness,1989,UK,105,98.9,170,177.5,-190,177.5,177.5,B,Raw,M,Open,
7,Vijaya Kanchan,1968,India,105,105,160,167.5,-177.5,167.5,167.5,B,Raw,M,Open,
DQ,Denis Rybka,1985,Kazakhstan,105,104.3,-215,-217.5,-217.5,,,B,Raw,M,Open,
1,Sodnompiljee Enkhbayar,1985,Mongolia,120,105.7,250,260,,260,260,B,Raw,M,Open,
2,Yuki Nagoshi,1998,Japan,120,116.35,245,-260,-262.5,245,245,B,Raw,M,Open,
3,Dmitriy Li,1991,Kazakhstan,120,118.45,230,240,242.5,242.5,242.5,B,Raw,M,Open,
4,Simo Sistonen,1983,Finland,120,116.6,230,-237.5,240,240,240,B,Raw,M,Open,
5,Jakob Thrane Mainz,1993,Denmark,120,119.45,220,232.5,-242.5,232.5,232.5,B,Raw,M,Open,
DQ,Markus Patschke,1988,Germany,120,118,-210,-210,-210,,,B,Raw,M,Open,
DQ,Tuvshintugs Danzan,1984,Mongolia,120,119.05,-225,-225,-225,,,B,Raw,M,Open,
1,Romuald Massé,1992,France,120+,151.25,245,257.5,-265,257.5,257.5,B,Raw,M,Open,
2,Gregory Young,1982,Canada,120+,163.75,247.5,-255,-260,247.5,247.5,B,Raw,M,Open,
DQ,Shirin Bolkovadze,1992,Kazakhstan,120+,135.1,-250,-250,-250,,,B,Raw,M,Open,
1,Adilet Token,2005,Kazakhstan,53,52.15,80,90,-100,90,90,B,Raw,M,Sub-Juniors,
2,Muratbek Uulu Erlan,2008,Kyrgyzstan,53,52.84,50,-60,-60,50,50,B,Raw,M,Sub-Juniors,
1,Maksat Mynbolat,2005,Kazakhstan,59,58.32,120,-130,-137,120,120,B,Raw,M,Sub-Juniors,
2,Muratbek Uulu Islam,2005,Kyrgyzstan,59,58.16,60,70,75,75,75,B,Raw,M,Sub-Juniors,
1,Thomas Billoir,2006,France,66,65,100,112.5,-117.5,112.5,112.5,B,Raw,M,Sub-Juniors,
1,Konstantin Chelbakov,2004,Kazakhstan,74,72.7,120,-127.5,127.5,127.5,127.5,B,Raw,M,Sub-Juniors,
2,Krzysztof Perlik,2004,Poland,74,72.6,120,-127.5,-127.5,120,120,B,Raw,M,Sub-Juniors,
1,Max Wadsworth,2004,UK,83,81.15,140,145,152.5,152.5,152.5,B,Raw,M,Sub-Juniors,
2,Viktor Hubáček,2004,Czechia,83,82.6,145,152.5,-155,152.5,152.5,B,Raw,M,Sub-Juniors,
3,Nurali Zhansay,2005,Kazakhstan,83,81.5,135,142.5,145,145,145,B,Raw,M,Sub-Juniors,
4,Victor Garnier,2004,France,83,80.6,132.5,140,142.5,142.5,142.5,B,Raw,M,Sub-Juniors,
5,Sodbaatar Byambajargal,2004,Mongolia,83,81.1,127.5,135,-142.5,135,135,B,Raw,M,Sub-Juniors,
1,Owen Babin,2004,France,93,89.3,142.5,150,-157.5,150,150,B,Raw,M,Sub-Juniors,
2,Ruslan Polekhin,2005,Kazakhstan,93,91.35,145,-152.5,-157.5,145,145,B,Raw,M,Sub-Juniors,
3,Erkhemjargal Byambatugs,2004,Mongolia,93,90.4,120,135,-145,135,135,B,Raw,M,Sub-Juniors,
1,Marcus Thornton,2004,UK,105,99.3,140,142.5,147.5,147.5,147.5,B,Raw,M,Sub-Juniors,
2,Abdulaziz Oktamov,2004,Kazakhstan,105,95.65,100,112.5,122.5,122.5,122.5,B,Raw,M,Sub-Juniors,
1,Aibek Kuramyssov,2005,Kazakhstan,120,107.1,120,135,142.5,142.5,142.5,B,Raw,M,Sub-Juniors,
1,Bakdaulet Orynbassarov,2004,Kazakhstan,120+,120.25,145,150,152.5,152.5,152.5,B,Raw,M,Sub-Juniors,
2,Adam Rutter,2005,UK,120+,134.05,145,-150,152.5,152.5,152.5,B,Raw,M,Sub-Juniors,
1,Ruslan Karimbekov,2003,Kazakhstan,53,51.58,100,115,117.5,117.5,117.5,B,Raw,M,Juniors,
1,Anton Marchenko,2003,Kazakhstan,59,58.32,120,125,132.5,132.5,132.5,B,Raw,M,Juniors,
2,Jaba Sepiashvili,2003,Georgia,59,57.14,115,122.5,-130,122.5,122.5,B,Raw,M,Juniors,
DD,Dmitriy Chebanov,1999,Kazakhstan,66,65.4,150,157.5,-165,157.5,,B,Raw,M,Juniors,
1,Simoni Orbelashvili,2002,Georgia,66,63.05,-155,155,-162.5,155,155,B,Raw,M,Juniors,
2,Adilet Abay,2003,Kazakhstan,66,65.5,105,120,-122.5,120,120,B,Raw,M,Juniors,
1,Natan Balogh,2000,Hungary,74,73.5,160,-162.5,-170,160,160,B,Raw,M,Juniors,
2,Artem Tarada,2001,Kazakhstan,74,73.25,145,150,-152.5,150,150,B,Raw,M,Juniors,
3,Haroon Choudhary,2001,India,74,72.9,-140,140,-147.5,140,140,B,Raw,M,Juniors,
4,Giorgi Krupnov,2002,Georgia,74,72.5,135,-145,-145,135,135,B,Raw,M,Juniors,
1,Simen Johnson Myrvold,2000,Norway,83,82.05,175,182.5,190,190,190,B,Raw,M,Juniors,
2,Daniyar Shaukatov,2000,Kazakhstan,83,81.95,175,180,-190,180,180,B,Raw,M,Juniors,
1,Christian Rupp,1999,Germany,93,92.1,185,192.5,195,195,195,B,Raw,M,Juniors,
2,Isak Asperud,2002,Norway,93,88.35,180,187.5,192.5,192.5,192.5,B,Raw,M,Juniors,
3,Tornike Paatashvili,2001,Georgia,93,92.25,170,177.5,-187.5,177.5,177.5,B,Raw,M,Juniors,
1,Kolter Kaarel,2002,Estonia,105,103.9,190,200,207.5,207.5,207.5,B,Raw,M,Juniors,
2,Muhammad-Ali Mirzoev,1999,Tajikistan,105,104.15,182.5,187.5,192.5,192.5,192.5,B,Raw,M,Juniors,
3,Artem Gryazev,2000,Kazakhstan,105,102.35,180,185,190,190,190,B,Raw,M,Juniors,
4,Adrian Montag,1999,Germany,105,104.4,180,182.5,-192.5,182.5,182.5,B,Raw,M,Juniors,
1,Yuri Karoglanyan,1999,Armenia,120,115.55,180,187.5,195,195,195,B,Raw,M,Juniors,
2,Buned Amanov,2003,Kazakhstan,120,116.5,160,165,170,170,170,B,Raw,M,Juniors,
3,Kirill Omaralinov,2001,Kazakhstan,120,108.6,152.5,-160,160,160,160,B,Raw,M,Juniors,
1,Kristian Eek Haugen,2001,Norway,120+,134.3,210,220,225,225,225,B,Raw,M,Juniors,
2,Temur Samkharadze,2001,Georgia,120+,154.6,-215,222.5,-227.5,222.5,222.5,B,Raw,M,Juniors,
3,Denis Kurečka,1999,Czechia,120+,146.45,195,202.5,-222.5,202.5,202.5,B,Raw,M,Juniors,
4,Alexander Eteria,2001,Georgia,120+,130.35,185,192.5,-202.5,192.5,192.5,B,Raw,M,Juniors,
1,Almaz Ospanov,1978,Kazakhstan,66,65.25,145,150,-155,150,150,B,Raw,M,Masters 1,
2,Sławomir Śledź,1976,Poland,66,64.15,135,140,-150,140,140,B,Raw,M,Masters 1,
3,Odon Bayaraa,1980,Mongolia,66,65.25,127.5,135,-152.5,135,135,B,Raw,M,Masters 1,
4,Maik Roese,1979,Germany,66,65.95,120,125,-127.5,125,125,B,Raw,M,Masters 1,
5,Ayazahan Maldybayev,1977,Kazakhstan,66,65.7,107.5,-115,115,115,115,B,Raw,M,Masters 1,
1,Sacha Husse,1979,France,74,73.05,155,167.5,175,175,175,B,Raw,M,Masters 1,
2,Adam Balawejder,1981,Poland,74,73.9,165,170,172.5,172.5,172.5,B,Raw,M,Masters 1,
3,Amir Reza Mesforoosh,1980,Iran,74,69.55,120,125,130,130,130,B,Raw,M,Masters 1,
4,Ville Vaivila,1977,Finland,74,70.45,105,112.5,-117.5,112.5,112.5,B,Raw,M,Masters 1,
1,Jonathan Losa,1982,USA,83,81.8,185,198,-205.5,198,198,B,Raw,M,Masters 1,
2,Merdan Nursahatov,1976,US Virgin Islands,83,80.6,187.5,192.5,-198.5,192.5,192.5,B,Raw,M,Masters 1,
3,Levani Giligashvili,1982,Georgia,83,82.1,182.5,187.5,-195,187.5,187.5,B,Raw,M,Masters 1,
4,Gantugs Ganjuur,1978,Mongolia,83,81.95,165,-170,170,170,170,B,Raw,M,Masters 1,
5,Jari Kaarnais,1980,Finland,83,81.45,140,150,155,155,155,B,Raw,M,Masters 1,
6,Jan Kluwe,1974,Germany,83,81.95,140,145,-152.5,145,145,B,Raw,M,Masters 1,
1,Otgondalai Tsend-Ayush,1981,Mongolia,93,91.75,195,200,205,205,205,B,Raw,M,Masters 1,
2,Battumur Khumuugul,1974,Mongolia,93,91.8,190,197.5,-207.5,197.5,197.5,B,Raw,M,Masters 1,
3,Viktor Dak,1975,Kazakhstan,93,90.95,170,-175,175,175,175,B,Raw,M,Masters 1,
4,Lorand Berke,1979,Hungary,93,92.45,155,162.5,165,165,165,B,Raw,M,Masters 1,
5,Ross Carlyle,1978,UK,93,92.1,140,150,162.5,162.5,162.5,B,Raw,M,Masters 1,
6,Muratbek Zhooshbekov,1982,Kyrgyzstan,93,85.95,90,100,105,105,105,B,Raw,M,Masters 1,
1,Phillip Wilkins,1980,US Virgin Islands,105,100,222.5,230,-238,230,230,B,Raw,M,Masters 1,
2,Kairat Urgeshbayev,1981,Kazakhstan,105,103.35,190,200,205,205,205,B,Raw,M,Masters 1,
3,Viktor Bukin,1977,Kazakhstan,105,101.5,170,182.5,-205,182.5,182.5,B,Raw,M,Masters 1,
1,Kornél Schauer,1977,Hungary,120,118.15,215,220,-225,220,220,B,Raw,M,Masters 1,
2,Dimitri Bonnay,1982,France,120,118.65,-215,215,-220,215,215,B,Raw,M,Masters 1,
3,Philippe Billoir,1978,France,120,119.1,210,215,-217.5,215,215,B,Raw,M,Masters 1,
4,Ben Olenius,1981,Finland,120,119.75,205,215,-220,215,215,B,Raw,M,Masters 1,
5,Khoder El Sen,1981,Lebanon,120,117.6,197.5,-210,-217.5,197.5,197.5,B,Raw,M,Masters 1,
6,Dmitriy Gneidin,1978,Kazakhstan,120,109.1,185,190,-197.5,190,190,B,Raw,M,Masters 1,
1,Ankhbayar Damdin,1979,Mongolia,120+,150.15,210,215,217.5,217.5,217.5,B,Raw,M,Masters 1,
2,Pavol Demčák,1977,Czechia,120+,121.05,212.5,-222.5,-222.5,212.5,212.5,B,Raw,M,Masters 1,
3,Aidar Koshkarov,1976,Kazakhstan,120+,142.6,202.5,210,212.5,212.5,212.5,B,Raw,M,Masters 1,
4,David Hernandez,1981,France,120+,144.6,207.5,-212.5,212.5,212.5,212.5,B,Raw,M,Masters 1,
5,Sven Mueller,1975,Germany,120+,127.3,185,195,202.5,202.5,202.5,B,Raw,M,Masters 1,
6,Tarmo Pärna,1978,Estonia,120+,125.15,200,-207.5,-210,200,200,B,Raw,M,Masters 1,
7,Aibar Yerzhanov,1982,Kazakhstan,120+,122.05,190,-202.5,-210,190,190,B,Raw,M,Masters 1,
8,Koekemoer Werner,1976,South Africa,120+,189.45,165,-172.5,-172.5,165,165,B,Raw,M,Masters 1,
1,Koji Yoshino,1969,Japan,59,58.4,105,110,-120,110,110,B,Raw,M,Masters 2,
2,Malik Beldinov,1963,Kazakhstan,59,58.22,80,90,95,95,95,B,Raw,M,Masters 2,
1,Oleksandr Chernyshov,1966,Ukraine,66,65.85,125,132.5,137.5,137.5,137.5,B,Raw,M,Masters 2,
2,Steve Petrencak,1968,USA,66,63.45,125,127.5,-132.5,127.5,127.5,B,Raw,M,Masters 2,
3,François Besnard,1971,France,66,65.45,120,122.5,-130,122.5,122.5,B,Raw,M,Masters 2,
1,Ramis Be,1971,Canada,74,72.05,130,132.5,-142.5,132.5,132.5,B,Raw,M,Masters 2,
2,Vincent Eldin,1972,France,74,72.9,125,130,-142.5,130,130,B,Raw,M,Masters 2,
3,David Caille,1968,France,74,71.7,115,122.5,127.5,127.5,127.5,B,Raw,M,Masters 2,
4,Tetsuo Koike,1970,Singapore,74,72.8,112.5,122.5,127.5,127.5,127.5,B,Raw,M,Masters 2,
5,Bayarjargal Dolgorsuren,1969,Mongolia,74,72.9,115,-125,-127.5,115,115,B,Raw,M,Masters 2,
6,Jagannath Poorathankandy,1968,India,74,72.2,95,102.5,-107.5,102.5,102.5,B,Raw,M,Masters 2,
DQ,Boris Darnopykh,1970,Kazakhstan,74,73.05,-112.5,-117.5,-125,,,B,Raw,M,Masters 2,
1,Takuya Yamashita,1968,Japan,83,82.15,160,170,-175,170,170,B,Raw,M,Masters 2,
2,Bjørn-Andre Egerdahl,1970,Norway,83,80.15,150,155,160,160,160,B,Raw,M,Masters 2,
3,Vesa Hartikainen,1969,Finland,83,82.05,145,-150,-162.5,145,145,B,Raw,M,Masters 2,
4,Purevdorj Purevsukh,1971,Mongolia,83,82.25,135,-147.5,-147.5,135,135,B,Raw,M,Masters 2,
DQ,Ove Henning Lorentzen,1971,Norway,83,81.8,-160,-160,-160,,,B,Raw,M,Masters 2,
1,Jan Kuehl,1971,Germany,93,91.25,170,177.5,-180,177.5,177.5,B,Raw,M,Masters 2,
2,Sergey Menshenin,1964,Kazakhstan,93,91.7,135,145,150,150,150,B,Raw,M,Masters 2,
3,Rustam Mirzabayev,1966,Kazakhstan,93,92.2,130,135,-140,135,135,B,Raw,M,Masters 2,
1,Teskhuu Ichinnorov,1971,Mongolia,105,103.65,177.5,180,185,185,185,B,Raw,M,Masters 2,
2,Yevgeniy Nefedov,1963,Kazakhstan,105,103.15,170,177.5,180,180,180,B,Raw,M,Masters 2,
3,Thomas Kraemer,1970,Germany,105,103.4,155,-165,180,180,180,B,Raw,M,Masters 2,
4,Kaj Wasenius,1972,Finland,105,103.7,120,125,130,130,130,B,Raw,M,Masters 2,
1,János Cserna,1968,Hungary,120,118.3,192.5,-200,202.5,202.5,202.5,B,Raw,M,Masters 2,
2,Patrick Barger,1969,US Virgin Islands,120,108.7,190,197.5,-202.5,197.5,197.5,B,Raw,M,Masters 2,
3,Hassan Koaik,1972,Lebanon,120,117.25,190,197.5,-200,197.5,197.5,B,Raw,M,Masters 2,
4,Murat Jaitabarov,1963,Kazakhstan,120,109.6,170,-180,-180,170,170,B,Raw,M,Masters 2,
5,Crain John,1969,South Africa,120,117.7,170,-175,-182.5,170,170,B,Raw,M,Masters 2,
6,Darren Ball,1970,UK,120,116.6,150,-160,160,160,160,B,Raw,M,Masters 2,
7,Hermanus de Beer,1970,South Africa,120,115.75,140,152.5,-160,152.5,152.5,B,Raw,M,Masters 2,
1,Konstantin Demidenko,1967,Kazakhstan,120+,143.7,200,215,-230,215,215,B,Raw,M,Masters 2,
2,Joe Dibert,1969,USA,120+,137.7,202.5,-217.5,-217.5,202.5,202.5,B,Raw,M,Masters 2,
3,Jaroslav Šoukal,1972,Czechia,120+,172.5,180,-190,-190,180,180,B,Raw,M,Masters 2,
4,Olim Sanakulov,1971,Uzbekistan,120+,152.9,130,150,-160,150,150,B,Raw,M,Masters 2,
5,Shreenath Sharma Deepak,1971,India,120+,136.8,75,80,85,85,85,B,Raw,M,Masters 2,
1,Tsukasa Kameda,1961,Japan,59,58.58,90,105,110,110,110,B,Raw,M,Masters 3,
1,Steve Edwards,1962,USA,66,64.45,90,100,-105,100,100,B,Raw,M,Masters 3,
1,Daniel Sides,1956,USA,74,72.4,100,107.5,117.5,117.5,117.5,B,Raw,M,Masters 3,
2,Serik Yerishuly,1958,Kazakhstan,74,73.5,100,107.5,-117.5,107.5,107.5,B,Raw,M,Masters 3,
3,George Kern,1960,USA,74,72.25,85,-92.5,-92.5,85,85,B,Raw,M,Masters 3,
1,Howard Sturman,1958,US Virgin Islands,83,80.95,145,155,-163.5,155,155,B,Raw,M,Masters 3,
2,Bat-Erdene Shagdarsuren,1959,Mongolia,83,76.1,112.5,117.5,-120,117.5,117.5,B,Raw,M,Masters 3,
3,Kadyrkul Umbetalin,1958,Kazakhstan,83,79.7,100,107.5,112.5,112.5,112.5,B,Raw,M,Masters 3,
4,Voitto Ahopelto,1956,Finland,83,82.1,90,-105,-110,90,90,B,Raw,M,Masters 3,
1,Franz Nerb,1959,Germany,93,91.8,165,-172.5,-172.5,165,165,B,Raw,M,Masters 3,
2,Thomas Cencich,1960,USA,93,90.75,135,140,142.5,142.5,142.5,B,Raw,M,Masters 3,
3,Renat Sagitov,1962,Kazakhstan,93,88.6,132.5,137.5,140,140,140,B,Raw,M,Masters 3,
4,Rune Larsen,1961,Norway,93,91.15,132.5,-137.5,-140,132.5,132.5,B,Raw,M,Masters 3,
1,Bakyt Kerimbekov,1961,Kyrgyzstan,105,101.35,155,-160,-170,155,155,B,Raw,M,Masters 3,
2,Dana Rosenzweig,1957,USA,105,94.5,115,122.5,130,130,130,B,Raw,M,Masters 3,
3,Khizir Bayramkylov,1962,Kazakhstan,105,97.2,130,-135,-135,130,130,B,Raw,M,Masters 3,
1,Andy Rigby,1962,UK,120,105.05,182.5,193.5,201,201,201,B,Raw,M,Masters 3,
2,Werner Wieninger,1957,Germany,120,118.25,170,-177.5,-177.5,170,170,B,Raw,M,Masters 3,
1,James Ray #1,1957,USA,120+,131.25,160,170,172.5,172.5,172.5,B,Raw,M,Masters 3,
2,Andrey Zhuravlev,1959,Kazakhstan,120+,120.7,160,165,-170,165,165,B,Raw,M,Masters 3,
3,Terry Young,1954,Canada,120+,142.5,130,135,137.5,137.5,137.5,B,Raw,M,Masters 3,
4,Helmut Rangnit,1956,Germany,120+,130.55,127.5,132.5,-135,132.5,132.5,B,Raw,M,Masters 3,
1,Mel Tatsumi,1948,USA,59,56.98,62.5,65,-75,65,65,B,Raw,M,Masters 4,
2,Perenlei Shagdar,1951,Mongolia,59,58.78,65,-70,-72.5,65,65,B,Raw,M,Masters 4,
1,Tarou Yamamoto,1950,Japan,66,63.5,105,110,112.5,112.5,112.5,B,Raw,M,Masters 4,
2,Talipbek Alzhanov,1942,Kazakhstan,66,65.6,60,65,70,70,70,B,Raw,M,Masters 4,
1,Kadirzhan Izgarin,1946,Kazakhstan,74,72.45,70,75,82.5,82.5,82.5,B,Raw,M,Masters 4,
2,Antero Kauranen,1948,Finland,74,72.6,72.5,77.5,-85,77.5,77.5,B,Raw,M,Masters 4,
1,Gerhard Baumeister,1952,Germany,83,82.6,115,120,125,125,125,B,Raw,M,Masters 4,
2,Daribay Ospanov,1949,Kazakhstan,83,82.05,110,115,-120,115,115,B,Raw,M,Masters 4,
3,Sultan Tursunbayev,1950,Kazakhstan,83,81.7,80,90,-100,90,90,B,Raw,M,Masters 4,
1,Jiří Horník,1948,Czechia,93,90.95,115,122.5,-125,122.5,122.5,B,Raw,M,Masters 4,
1,Werner Richter,1947,Germany,105,102,160,170,-175,170,170,B,Raw,M,Masters 4,
2,Kairat Turlubekov,1948,Kazakhstan,105,96,105,110,-115,110,110,B,Raw,M,Masters 4,
3,Mick Ellender,1945,UK,105,93.1,100,107.5,-112.5,107.5,107.5,B,Raw,M,Masters 4,
4,Valeriy Stepanenko,1951,Kazakhstan,105,104.15,95,-102.5,-102.5,95,95,B,Raw,M,Masters 4,
1,Mihkel Laurits,1944,Estonia,120,105.05,105,112.5,-120,112.5,112.5,B,Raw,M,Masters 4,
1,Vladimir Babichev,1949,Kazakhstan,120+,125,90,100,110,110,110,B,Raw,M,Masters 4,
1,Nataliya Cheremenko,2001,Ukraine,47,46.88,85,90,92.5,92.5,92.5,B,Raw,F,Open,
2,Anastasiya Zhurbina,1999,Kazakhstan,47,46.46,85,90,-95,90,90,B,Raw,F,Open,
3,Kristina Tsoy,1991,Kazakhstan,47,45.82,65,-72.5,-72.5,65,65,B,Raw,F,Open,
1,Selma Karoline Matilde Ramberg,2001,Norway,52,51.32,105,110,114,114,114,B,Raw,F,Open,
2,Alison Huet,1996,France,52,51.88,92.5,97.5,100,100,100,B,Raw,F,Open,
3,Mónika Nyers,1978,Hungary,52,51,97.5,-102.5,-102.5,97.5,97.5,B,Raw,F,Open,
4,Lorraine Balbiani,1995,France,52,51.2,85,87.5,-92.5,87.5,87.5,B,Raw,F,Open,
5,Miyabi Kikuchi,1998,Japan,52,51.22,80,87.5,-97.5,87.5,87.5,B,Raw,F,Open,
6,Isabel Wagner,1994,Germany,52,50.54,65,70,-72.5,70,70,B,Raw,F,Open,
7,Akshatha Poojarthi,1987,India,52,51.96,65,67.5,70,70,70,B,Raw,F,Open,
1,Anna Rykun,1998,Ukraine,57,56.6,115,120,122,122,122,B,Raw,F,Open,
2,Akane Ishibashi,1993,Japan,57,55.3,-107.5,107.5,-122.5,107.5,107.5,B,Raw,F,Open,
3,Hanna Buturlym,1997,Ukraine,57,56.3,100,105,-110,105,105,B,Raw,F,Open,
4,Mia Margrethe Ramberg Storstad,1999,Norway,57,56.18,92.5,97.5,-105,97.5,97.5,B,Raw,F,Open,
5,Sheina Kaye,1997,UK,57,54.68,75,-77.5,-77.5,75,75,B,Raw,F,Open,
1,Melissa Hexter,1994,UK,63,60.7,102.5,107.5,110,110,110,B,Raw,F,Open,
2,Ekaterina Kryukova,1985,Kazakhstan,63,62.75,105,110,-112.5,110,110,B,Raw,F,Open,
3,Elise Rosenborg,1993,Norway,63,61.85,102.5,-107.5,-112.5,102.5,102.5,B,Raw,F,Open,
4,Olga Bakhtygaliyeva,2001,Kazakhstan,63,61.65,90,95,-102.5,95,95,B,Raw,F,Open,
1,Asel Nurkenova,2000,Kazakhstan,69,67.35,115,120,-125,120,120,B,Raw,F,Open,
2,Moa Wikner,1995,UK,69,68.25,100,105,107.5,107.5,107.5,B,Raw,F,Open,
3,Hanna Kadatska,1977,Ukraine,69,64.85,92.5,100,-102.5,100,100,B,Raw,F,Open,
4,Sopiko Kvantchiani,1998,Georgia,69,64.45,90,-97.5,-100,90,90,B,Raw,F,Open,
5,Shiori Kaneko,1991,Japan,69,63.6,70,-80,-80,70,70,B,Raw,F,Open,
1,Xeniya Khan,1987,Kazakhstan,76,75.6,115,120,125,125,125,B,Raw,F,Open,
2,Daria Ławniczak,1995,Poland,76,75.8,95,-100,-100,95,95,B,Raw,F,Open,
3,Khatia Khurtsilava,1994,Georgia,76,70.3,65,70,75,75,75,B,Raw,F,Open,
1,Emmeth Salo,1998,Finland,84,82.25,120,-130,130,130,130,B,Raw,F,Open,
2,Zhadyra Bermukhambetova,1986,Kazakhstan,84,83,125,-132.5,-132.5,125,125,B,Raw,F,Open,
3,Nino Tchrikishvili,1991,Georgia,84,83.6,-100,-100,100,100,100,B,Raw,F,Open,
DQ,Julie Franch Guerra,1990,France,84,82.45,-115,-115,-115,,,B,Raw,F,Open,
1,Ágnes Szabó,1988,Hungary,84+,109.5,142.5,145,-153.5,145,145,B,Raw,F,Open,
2,Xeniya Okatenko,1994,Kazakhstan,84+,117.7,120,125,132.5,132.5,132.5,B,Raw,F,Open,
3,Johanna Laitinen,1986,Finland,84+,111.75,130,-135,-135,130,130,B,Raw,F,Open,
4,Rebecca Coggle,1983,UK,84+,133.7,115,122.5,-130,122.5,122.5,B,Raw,F,Open,
1,Darya Manokhina,2007,Kazakhstan,43,42.48,45,-50,-55,45,45,B,Raw,F,Sub-Juniors,
1,Angelina Smolina,2006,Kazakhstan,47,45.22,45,52.5,-57.5,52.5,52.5,B,Raw,F,Sub-Juniors,
1,Yevheniia Hevko,2006,Ukraine,52,51.34,65,70,-75,70,70,B,Raw,F,Sub-Juniors,
2,Olesya Zhilyayeva,2004,Kazakhstan,52,51.16,50,60,-62.5,60,60,B,Raw,F,Sub-Juniors,
1,Amina Karimova,2005,Kazakhstan,57,56.24,65,-72.5,72.5,72.5,72.5,B,Raw,F,Sub-Juniors,
2,Virag Kohalmi,2006,Hungary,57,56.42,47.5,52.5,55,55,55,B,Raw,F,Sub-Juniors,
1,Alyona Larkina,2004,Kazakhstan,63,61.9,45,55,60,60,60,B,Raw,F,Sub-Juniors,
1,Shirin Yunussaliyeva,2004,Kazakhstan,69,63.4,40,47.5,50,50,50,B,Raw,F,Sub-Juniors,
1,Barno Dzhumabaeva,2007,Kazakhstan,76,75.1,112.5,120,-130,120,120,B,Raw,F,Sub-Juniors,
1,Yekaterina Shestakova,2007,Kazakhstan,84,82,-55,60,65,65,65,B,Raw,F,Sub-Juniors,
2,Gracie Besant,2007,UK,84,77.4,50,55,-65,55,55,B,Raw,F,Sub-Juniors,
1,Sarvinoz Nasiriddiona,2006,Kazakhstan,84+,108.75,60,70,-75,70,70,B,Raw,F,Sub-Juniors,
1,Sara Seitmullina,2002,Kazakhstan,43,42.1,30,-35,35,35,35,B,Raw,F,Juniors,
1,Alena Gladkova,2001,Kazakhstan,52,51.26,75,80,85,85,85,B,Raw,F,Juniors,
2,Tiko Gviniashvili,1999,Georgia,52,51.76,70,-75,-82.5,70,70,B,Raw,F,Juniors,
3,Sharath Shetty Siya,2003,India,52,51.48,42.5,47.5,-52.5,47.5,47.5,B,Raw,F,Juniors,
1,Anastasiya Butenko,2003,Kazakhstan,57,56.44,65,70,75,75,75,B,Raw,F,Juniors,
2,Diana Nuriddinova,2001,Kazakhstan,57,52.56,45,55,-60,55,55,B,Raw,F,Juniors,
1,Alexandrea Rán Guðnýjardóttir,1999,Iceland,63,61.6,95,100,102.5,102.5,102.5,B,Raw,F,Juniors,
2,Taisiya Dyachenko,2000,Kazakhstan,63,62.5,-92.5,92.5,-105,92.5,92.5,B,Raw,F,Juniors,
3,Chanice Sumners,1999,UK,63,62.15,-72.5,72.5,-75,72.5,72.5,B,Raw,F,Juniors,
4,Natalie Matthews,2000,UK,63,61.95,65,67.5,-72.5,67.5,67.5,B,Raw,F,Juniors,
1,Marthine Myhr,1999,Norway,69,68.85,102.5,107.5,-110,107.5,107.5,B,Raw,F,Juniors,
2,Nigara Abdyrova,2002,Kazakhstan,69,67,90,100,-107.5,100,100,B,Raw,F,Juniors,
3,Annie Carlo Venizeia,2000,India,69,68,70,-80,80,80,80,B,Raw,F,Juniors,
1,Laura Mautalen,2000,France,76,75.05,130,137.5,141.5,141.5,141.5,B,Raw,F,Juniors,
2,Diana Shatko,2002,Kazakhstan,76,74,-105,105,107.5,107.5,107.5,B,Raw,F,Juniors,
1,Matthildur Óskarsdóttir,1999,Iceland,84,82.05,115,120,125,125,125,B,Raw,F,Juniors,
2,Melina Irawo,2000,UK,84,81.35,105,107.5,110,110,110,B,Raw,F,Juniors,
1,Regina Meier,1999,Kazakhstan,84+,126.95,90,100,107.5,107.5,107.5,B,Raw,F,Juniors,
1,Natalya Tskhay,1975,Kazakhstan,47,45.9,45,50,-55,50,50,B,Raw,F,Masters 1,
2,Inna Dak,1980,Kazakhstan,47,46.84,37.5,40,-42.5,40,40,B,Raw,F,Masters 1,
1,Alexandra Goryaeva,1981,Kazakhstan,52,47.56,32.5,35,37.5,37.5,37.5,B,Raw,F,Masters 1,
1,Sachiko Iwamoto,1973,Japan,57,54.94,-90,90,103,103,103,B,Raw,F,Masters 1,
2,Faith Clough,1982,USA,57,56.62,55,-65,65,65,65,B,Raw,F,Masters 1,
1,Nadejda Malyugina,1979,Uzbekistan,63,59.68,75,80,85,85,85,B,Raw,F,Masters 1,
2,Niina Köninki,1981,Finland,63,60.35,85,-87.5,-87.5,85,85,B,Raw,F,Masters 1,
3,Zaneta Possehl,1977,Germany,63,62.35,70,72.5,-75,72.5,72.5,B,Raw,F,Masters 1,
4,Mélisa Meunier,1975,France,63,60.1,65,67.5,-70,67.5,67.5,B,Raw,F,Masters 1,
1,Pauliina Suomela,1976,Finland,69,67,90,92.5,-97.5,92.5,92.5,B,Raw,F,Masters 1,
2,Nina Ruuhivirta,1977,Finland,69,68.05,90,92.5,-97.5,92.5,92.5,B,Raw,F,Masters 1,
3,Vanessa Lessing,1978,South Africa,69,66.3,65,67.5,70,70,70,B,Raw,F,Masters 1,
4,Svetlana Zhumasheva,1981,Kazakhstan,69,69,50,55,-70,55,55,B,Raw,F,Masters 1,
1,Iolanda Costa,1977,Brazil,76,75.45,110,115,-117.5,115,115,B,Raw,F,Masters 1,
2,Eilen Pollen,1981,Norway,76,74.6,100,105,-107.5,105,105,B,Raw,F,Masters 1,
3,Nurgul Kilyabayeva,1981,Kazakhstan,76,73.9,50,55,-57.5,55,55,B,Raw,F,Masters 1,
1,Tiina Voho,1973,Finland,84,77.15,95,100,-107.5,100,100,B,Raw,F,Masters 1,
2,Lucy Hyde,1979,UK,84,82.2,80,85,87.5,87.5,87.5,B,Raw,F,Masters 1,
3,Aigul Kissykova,1982,Kazakhstan,84,81.75,35,42.5,-47.5,42.5,42.5,B,Raw,F,Masters 1,
1,Marina Altaibaeva,1973,Kazakhstan,84+,116.2,50,-55,-55,50,50,B,Raw,F,Masters 1,
1,Nicey K L,1968,India,52,50.5,25,30,-32.5,30,30,B,Raw,F,Masters 2,
1,Sae Takemoto,1969,Japan,57,54.02,70,75,77.5,77.5,77.5,B,Raw,F,Masters 2,
2,Marie-France Cabos,1967,France,57,56.24,70,-75,-77.5,70,70,B,Raw,F,Masters 2,
1,Sanna Oksanen,1971,Finland,63,61.8,72.5,-77.5,77.5,77.5,77.5,B,Raw,F,Masters 2,
2,Maureen Gordon,1964,UK,63,61.7,65,67.5,72.5,72.5,72.5,B,Raw,F,Masters 2,
3,Rita Shergold,1965,UK,63,59.92,57.5,-62.5,62.5,62.5,62.5,B,Raw,F,Masters 2,
1,Florence Leccese,1969,France,69,63.3,67.5,72.5,-75,72.5,72.5,B,Raw,F,Masters 2,
2,Tiina Uotila,1972,Finland,69,65.5,60,65,-70,65,65,B,Raw,F,Masters 2,
3,Sreeja Kalathil,1968,India,69,66.55,30,35,37.5,37.5,37.5,B,Raw,F,Masters 2,
1,Alexandra Kalinina,1968,Kazakhstan,76,72.5,102.5,108,-115,108,108,B,Raw,F,Masters 2,
2,Megumi Tokutake,1964,Japan,76,74.4,97.5,-105,-108.5,97.5,97.5,B,Raw,F,Masters 2,
1,Karina Müller-Freyer,1970,Germany,84,82.75,70,75,-77.5,75,75,B,Raw,F,Masters 2,
1,Jo Whiteley,1970,UK,84+,123.35,85,90,92.5,92.5,92.5,B,Raw,F,Masters 2,
1,Heidi Schraft,1961,Canada,52,49.16,42.5,47.5,-52.5,47.5,47.5,B,Raw,F,Masters 3,
1,Bakhytgul Koshanova,1960,Kazakhstan,57,56.34,35,40,45,45,45,B,Raw,F,Masters 3,
1,Evelyne Herbin,1956,France,63,62.5,62.5,67.5,-70,67.5,67.5,B,Raw,F,Masters 3,
1,Patricia Maciejewski,1961,France,69,68.05,75,80,81,81,81,B,Raw,F,Masters 3,
1,Françoise Heligon,1943,France,52,47.38,35,37.5,40,40,40,B,Raw,F,Masters 4,
2,Judith McGauley,1948,UK,52,49.66,30,32.5,35,35,35,B,Raw,F,Masters 4,
1,Furkat Shamuratov,1996,Kazakhstan,59,58.28,177.5,-187.5,187.5,187.5,187.5,B,Single-ply,M,Open,
2,Shingis Yelzhanov,2001,Kazakhstan,59,57.92,175,185,-187.5,185,185,B,Single-ply,M,Open,
3,Mehdi Shajirati,1995,Iran,59,58.68,90,135,142.5,142.5,142.5,B,Single-ply,M,Open,
1,Andreas Frasl,1983,Austria,66,64.9,-215,-215,215,215,215,B,Single-ply,M,Open,
2,Mohammad Parvardeh,1991,Iran,66,65.6,170,180,-187.5,180,180,B,Single-ply,M,Open,
DQ,Masashi Fukuda,1984,Japan,66,65.65,-242.5,-242.5,-242.5,,,B,Single-ply,M,Open,
DQ,Abdulkarim Karaman,1994,Kazakhstan,66,66,-242.5,-242.5,-242.5,,,B,Single-ply,M,Open,
1,Ivan Chuprinko,1986,Ukraine,74,73.6,280,292.5,-300.5,292.5,292.5,B,Single-ply,M,Open,
2,Daiki Kodama,1979,Japan,74,72.45,282.5,-292.5,-295,282.5,282.5,B,Single-ply,M,Open,
3,Eldos Yermakhanov,1990,Kazakhstan,74,73.1,250,257.5,-285,257.5,257.5,B,Single-ply,M,Open,
4,Martin Foriš,1997,Slovakia,74,73.5,220,230,247.5,247.5,247.5,B,Single-ply,M,Open,
5,Hiroshi Ishikawa,1997,Japan,74,73.25,245,-252.5,-260,245,245,B,Single-ply,M,Open,
1,Daniyar Shaukatov,2000,Kazakhstan,83,82.9,-285,287.5,297.5,297.5,297.5,B,Single-ply,M,Open,
2,Yosuke Kikuchi,1995,Japan,83,81.7,285,290,-297.5,290,290,B,Single-ply,M,Open,
3,Mads Friche,1983,Denmark,83,82.5,245,-255,-262.5,245,245,B,Single-ply,M,Open,
4,Lauren Cohen,1979,USA,83,79.5,120,130,140,140,140,B,Single-ply,M,Open,
DQ,Oleg Butenko,1983,Kazakhstan,83,82,-285,-290,-292.5,,,B,Single-ply,M,Open,
DQ,Bayarbaatar Batgerel,1991,Mongolia,83,82.25,-252.5,-260,-260,,,B,Single-ply,M,Open,
1,Yasuki Yamashita,1991,Japan,93,92.3,285,290,-297.5,290,290,B,Single-ply,M,Open,
2,Rafał Zalewski,1983,Poland,93,92.7,285,290,-297.5,290,290,B,Single-ply,M,Open,
3,Gansukh Batsukh,1988,Mongolia,93,89.75,260,272.5,-290,272.5,272.5,B,Single-ply,M,Open,
4,Anant More Sagar,1987,India,93,85.1,205,210,217.5,217.5,217.5,B,Single-ply,M,Open,
5,Yuki Sato,1983,Japan,93,91.75,210,-285,-295,210,210,B,Single-ply,M,Open,
6,Henry Lehtsaar,1987,Estonia,93,92,205,210,-215,210,210,B,Single-ply,M,Open,
1,Naoki Hasegawa,1992,Japan,105,99.55,315,322.5,-346.5,322.5,322.5,B,Single-ply,M,Open,
2,Igor Trifonov,1989,Kazakhstan,105,102.5,-310,310,-325,310,310,B,Single-ply,M,Open,
3,Satoshi Kase,1991,Japan,105,104.35,270,275,277.5,277.5,277.5,B,Single-ply,M,Open,
4,Christian Flueras,1996,Germany,105,103.5,255,265,275,275,275,B,Single-ply,M,Open,
5,Zdeněk Tuháček,1986,Czechia,105,98.3,227.5,235,242.5,242.5,242.5,B,Single-ply,M,Open,
DQ,Ralf A. Male,1994,Norway,105,104.3,-290,-290,-290,,,B,Single-ply,M,Open,
DQ,Tumenjargal Dashzegve,1987,Mongolia,105,104.55,-320,-325,-335,,,B,Single-ply,M,Open,
DQ,Volodymyr Bettyar,1984,Ukraine,105,104.7,-310,-310,-312.5,,,B,Single-ply,M,Open,
1,Per Marius Hole,1989,Norway,120,119.65,335,355,360,360,360,B,Single-ply,M,Open,
2,Arslan Suyunshaliyev,1989,Kazakhstan,120,117.6,340,-355,357.5,357.5,357.5,B,Single-ply,M,Open,
3,Jakob Thrane Mainz,1993,Denmark,120,119.4,285,292.5,305,305,305,B,Single-ply,M,Open,
4,Milan Selinger,1984,Czechia,120,119.7,-292.5,292.5,302.5,302.5,302.5,B,Single-ply,M,Open,
5,Jaan Lahe,1986,Estonia,120,118.9,-260,260,-292.5,260,260,B,Single-ply,M,Open,
DQ,Erdenekhuu Tumurbaatar,1985,Mongolia,120,118.9,-280,-280,-292.5,,,B,Single-ply,M,Open,
1,Chimedtseren Bataa,1981,Mongolia,120+,123.25,355,-367.5,367.5,367.5,367.5,B,Single-ply,M,Open,
2,Kenneth Sandvik,1975,Finland,120+,141.6,305,322.5,-357.5,322.5,322.5,B,Single-ply,M,Open,
3,Jaroslav Šoukal,1972,Czechia,120+,171.65,300,322.5,-357.5,322.5,322.5,B,Single-ply,M,Open,
DQ,Martin Marshall,1987,UK,120+,129.1,-225,-225,-225,,,B,Single-ply,M,Open,
1,Khakimkhozha Tursynbayev,2007,Kazakhstan,53,52.1,75,80,85,85,85,B,Single-ply,M,Sub-Juniors,
2,Muratbek Uulu Erlan,2008,Kyrgyzstan,53,52.84,50,60,-65,60,60,B,Single-ply,M,Sub-Juniors,
1,Aitas Ospanov,2004,Kazakhstan,59,58.8,137.5,-145,-152.5,137.5,137.5,B,Single-ply,M,Sub-Juniors,
2,Muratbek Uulu Islam,2005,Kyrgyzstan,59,57.1,60,70,-80,70,70,B,Single-ply,M,Sub-Juniors,
1,Rozmatkhozha Tursynbayev,2005,Kazakhstan,66,65.7,140,150,-155,150,150,B,Single-ply,M,Sub-Juniors,
2,Timur Zharmenov,2005,Kazakhstan,66,62.55,65,80,-90,80,80,B,Single-ply,M,Sub-Juniors,
1,Anton Lancev,2004,Kazakhstan,74,73.35,150,160,-180,160,160,B,Single-ply,M,Sub-Juniors,
2,Krzysztof Perlik,2004,Poland,74,73,115,,,115,115,B,Single-ply,M,Sub-Juniors,
1,Nuraly Zhansai,2005,Kazakhstan,83,82.55,170,177.5,-180,177.5,177.5,B,Single-ply,M,Sub-Juniors,
2,Sodbaatar Byambajargal,2004,Mongolia,83,82.6,150,160,-180,160,160,B,Single-ply,M,Sub-Juniors,
3,Pawel Wloch,2006,Poland,83,74.6,95,115,120,120,120,B,Single-ply,M,Sub-Juniors,
1,David Horník,2004,Czechia,93,83.25,165,172.5,-180,172.5,172.5,B,Single-ply,M,Sub-Juniors,
2,Yegor Oleinikov,2005,Kazakhstan,93,91.6,140,150,152.5,152.5,152.5,B,Single-ply,M,Sub-Juniors,
3,Erkhemjargal Byambatugs,2004,Mongolia,93,90.65,110,140,150,150,150,B,Single-ply,M,Sub-Juniors,
1,Zhasulan Nurov,2006,Kazakhstan,105,100.05,100,-160,160,160,160,B,Single-ply,M,Sub-Juniors,
1,Bakdaulet Orynbassarov,2004,Kazakhstan,120+,120.9,160,170,180,180,180,B,Single-ply,M,Sub-Juniors,
1,Raimbek Kadyrov,2001,Kazakhstan,53,50.82,110,125,130,130,130,B,Single-ply,M,Juniors,
1,Ivan Kuvaldin,2001,Kazakhstan,59,58.34,175,185,190,190,190,B,Single-ply,M,Juniors,
2,Otgon-Erdene Lonjidjargal,2001,Mongolia,59,58.66,100,-140,-140,100,100,B,Single-ply,M,Juniors,
1,Abdurakhman Abdurashidov,2003,Kazakhstan,66,65.3,167.5,175,185,185,185,B,Single-ply,M,Juniors,
2,Kohei Hariu,1999,Japan,66,65.1,180,182.5,-187.5,182.5,182.5,B,Single-ply,M,Juniors,
1,Eldor Akmurzayev,2003,Kazakhstan,74,71.65,175,182.5,187.5,187.5,187.5,B,Single-ply,M,Juniors,
2,Haroon Choudhary,2001,India,74,73.3,130,142.5,-147.5,142.5,142.5,B,Single-ply,M,Juniors,
1,Mansurjon Rassulov,2003,Kazakhstan,83,75.15,170,180,-185,180,180,B,Single-ply,M,Juniors,
1,Shizuki Matsuo,2000,Japan,93,85.2,220,235,-272.5,235,235,B,Single-ply,M,Juniors,
2,Bakhtiyar Dargul,2003,Kazakhstan,93,90.4,175,185,-195,185,185,B,Single-ply,M,Juniors,
1,Rustam Valiullin,2000,Kazakhstan,105,101.1,-230,232.5,242.5,242.5,242.5,B,Single-ply,M,Juniors,
2,Masami Aridome,1999,Japan,105,94.75,200,202.5,-232.5,202.5,202.5,B,Single-ply,M,Juniors,
3,Futa Honda,2000,Japan,105,93.7,190,200,-232.5,200,200,B,Single-ply,M,Juniors,
1,Vasiliy Scherbina,2000,Kazakhstan,120,106.55,215,220,225,225,225,B,Single-ply,M,Juniors,
2,Dominik Plaskonis,2000,Slovakia,120,118.75,217.5,-222.5,225,225,225,B,Single-ply,M,Juniors,
3,Hayato Kurashita,1999,Japan,120,111.7,200,217.5,222.5,222.5,222.5,B,Single-ply,M,Juniors,
1,Buned Amanov,2003,Kazakhstan,120+,120.25,210,217.5,,217.5,217.5,B,Single-ply,M,Juniors,
2,Yuri Karoglanyan,1999,Armenia,120+,120.3,210,-212.5,-232.5,210,210,B,Single-ply,M,Juniors,
1,Kairat Ichshanov,1978,Kazakhstan,59,58.22,110,-135,-135,110,110,B,Single-ply,M,Masters 1,
1,Akinori Amakawa,1977,Japan,66,65.35,175,180,185,185,185,B,Single-ply,M,Masters 1,
2,Almaz Ospanov,1978,Kazakhstan,66,65.75,-172.5,172.5,185,185,185,B,Single-ply,M,Masters 1,
3,Aaron Gideon,1980,UK,66,65.5,-170,170,-182.5,170,170,B,Single-ply,M,Masters 1,
4,Odon Bayaraa,1980,Mongolia,66,65.6,-170,170,-177.5,170,170,B,Single-ply,M,Masters 1,
5,Amir Reza Mesforoosh,1980,Iran,66,65.8,150,-160,-172.5,150,150,B,Single-ply,M,Masters 1,
1,Motoya Okutani,1980,Japan,74,73.25,200,202.5,-227.5,202.5,202.5,B,Single-ply,M,Masters 1,
2,Bartosz Żelazko,1973,Poland,74,73.95,-195,-195,195,195,195,B,Single-ply,M,Masters 1,
3,Kosuke Araki,1982,Japan,74,73.7,130,-195,-195,130,130,B,Single-ply,M,Masters 1,
DQ,Adam Balawejder,1981,Poland,74,73.75,-225,-225,-225,,,B,Single-ply,M,Masters 1,
1,Munkhtuul Damba,1974,Mongolia,83,82.45,210,-220,220,220,220,B,Single-ply,M,Masters 1,
2,Oleg Pekuchshev,1977,Kazakhstan,83,79.95,200,207.5,210,210,210,B,Single-ply,M,Masters 1,
3,Arkadiusz Wloch,1975,Poland,83,82.1,175,-202.5,-210,175,175,B,Single-ply,M,Masters 1,
1,Shigenari Suzuki,1973,Japan,93,89.2,255,262.5,267.5,267.5,267.5,B,Single-ply,M,Masters 1,
2,Thomas Wetzstein,1974,Austria,93,92.25,257.5,265,-270,265,265,B,Single-ply,M,Masters 1,
3,Aki Kangasjärvi,1977,Finland,93,91.85,205,215,220,220,220,B,Single-ply,M,Masters 1,
4,Naranbaatar Badgaa,1975,Mongolia,93,91,212.5,217.5,-222.5,217.5,217.5,B,Single-ply,M,Masters 1,
1,Sukhbat Enkhbayar,1979,Mongolia,105,100.9,255,265,272.5,272.5,272.5,B,Single-ply,M,Masters 1,
2,Frank Barthel,1980,Germany,105,104.35,-270,-270,270,270,270,B,Single-ply,M,Masters 1,
3,Eryk Walczak,1977,Poland,105,104.35,250,252.5,265,265,265,B,Single-ply,M,Masters 1,
4,Barkhasbaatar Lkhagvajav,1981,Mongolia,105,104.45,252.5,257.5,-267.5,257.5,257.5,B,Single-ply,M,Masters 1,
5,Saduakas Salavatov,1980,Kazakhstan,105,104.3,237.5,250,-257.5,250,250,B,Single-ply,M,Masters 1,
6,Alexandr Muratov,1976,Kazakhstan,105,102.75,235,242.5,-252.5,242.5,242.5,B,Single-ply,M,Masters 1,
7,Akihisa Takemura,1973,Japan,105,103.4,200,-237.5,-267.5,200,200,B,Single-ply,M,Masters 1,
1,Hjalmar Mäe,1980,Estonia,120,112.4,290,300,310,310,310,B,Single-ply,M,Masters 1,
2,Otgonbayar Ayush,1977,Mongolia,120,118.55,260,-275,275,275,275,B,Single-ply,M,Masters 1,
3,Mikko Tiensuu,1978,Finland,120,118,235,260,-275,260,260,B,Single-ply,M,Masters 1,
4,Sandrino Herder,1975,Germany,120,119.2,200,215,-237.5,215,215,B,Single-ply,M,Masters 1,
5,Rustambek Sadykov,1976,Kazakhstan,120,105.55,135,150,-162.5,150,150,B,Single-ply,M,Masters 1,
1,René Groß,1981,Germany,120+,124.85,305,315,325,325,325,B,Single-ply,M,Masters 1,
2,Aidar Koshkarov,1976,Kazakhstan,120+,142.8,270,277.5,280,280,280,B,Single-ply,M,Masters 1,
3,Yevgeniy Yermyshev,1978,Kazakhstan,120+,128,260,275,277.5,277.5,277.5,B,Single-ply,M,Masters 1,
4,Graeme Reid,1978,UK,120+,134.1,200,-210,210,210,210,B,Single-ply,M,Masters 1,
1,Koji Yoshino,1969,Japan,59,58.42,130,132.5,140,140,140,B,Single-ply,M,Masters 2,
2,Steve Petrencak,1968,USA,59,58.94,132.5,135,-142.5,135,135,B,Single-ply,M,Masters 2,
3,Malik Beldinov,1963,Kazakhstan,59,58.76,90,97.5,102.5,102.5,102.5,B,Single-ply,M,Masters 2,
1,Oleksandr Chernyshov,1966,Ukraine,66,65.1,137.5,150,160,160,160,B,Single-ply,M,Masters 2,
1,Mitsuo Kametani,1971,Japan,74,69,205,214,-220,214,214,B,Single-ply,M,Masters 2,
2,Vincent Eldin,1972,France,74,73.4,170,175,-180,175,175,B,Single-ply,M,Masters 2,
3,Boris Darnopykh,1970,Kazakhstan,74,72.95,127.5,135,140,140,140,B,Single-ply,M,Masters 2,
4,Bayarjargal Dolgorsuren,1969,Mongolia,74,72.75,120,-125,-137.5,120,120,B,Single-ply,M,Masters 2,
DQ,Jagannath Poorathankandy,1968,India,74,71.45,-130,-130,-130,,,B,Single-ply,M,Masters 2,
1,Ove Henning Lorentzen,1971,Norway,83,81.35,205,210,217.5,217.5,217.5,B,Single-ply,M,Masters 2,
2,Takuya Yamashita,1968,Japan,83,81,207.5,212.5,-220,212.5,212.5,B,Single-ply,M,Masters 2,
3,Prakash Carlo Vincent,1972,India,83,82.3,185,-195,-205,185,185,B,Single-ply,M,Masters 2,
4,Serikkazy Azilkhanov,1963,Kazakhstan,83,81.9,140,-152.5,-152.5,140,140,B,Single-ply,M,Masters 2,
DQ,Cyril Pinguet,1972,France,83,81.75,-210,-210,-220,,,B,Single-ply,M,Masters 2,
DQ,Vesa Hartikainen,1969,Finland,83,82.4,-202.5,-202.5,-205,,,B,Single-ply,M,Masters 2,
1,Alf-Ivar Hellerud,1969,Norway,93,90.9,-240,240,-270,240,240,B,Single-ply,M,Masters 2,
2,Petteri Laurikainen,1969,Finland,93,92,230,-240,-242.5,230,230,B,Single-ply,M,Masters 2,
3,Kaoru Watanabe,1967,Japan,93,92.3,180,190,-222.5,190,190,B,Single-ply,M,Masters 2,
DQ,Bakhyt Kaukakov,1967,Kazakhstan,93,91.5,-180,-180,-190,,,B,Single-ply,M,Masters 2,
DQ,Tomi Vikla,1970,Finland,93,92.25,-240,-240,-245,,,B,Single-ply,M,Masters 2,
1,Teskhuu Ichinnorov,1971,Mongolia,105,103.16,235,242.5,-247.5,242.5,242.5,B,Single-ply,M,Masters 2,
2,Kaido Leesmann,1969,Estonia,105,104.35,230,-240,-245,230,230,B,Single-ply,M,Masters 2,
3,Mario Schnurr,1966,Germany,105,97.7,210,220,-230,220,220,B,Single-ply,M,Masters 2,
4,Vijaya Kanchan,1968,India,105,105,220,-230,-240,220,220,B,Single-ply,M,Masters 2,
5,Evgeny Nefedov,1972,Kazakhstan,105,103.65,210,-220,-222.5,210,210,B,Single-ply,M,Masters 2,
6,Kaj Wasenius,1972,Finland,105,104.25,160,170,-180,170,170,B,Single-ply,M,Masters 2,
DQ,Mike Ferrantelli,1966,USA,105,103.5,-237.5,-237.5,-237.5,,,B,Single-ply,M,Masters 2,
1,János Cserna,1968,Hungary,120,118.1,245,250,-255,250,250,B,Single-ply,M,Masters 2,
2,Andrey Altaybaev,1972,Kazakhstan,120,113.7,220,-232.5,232.5,232.5,232.5,B,Single-ply,M,Masters 2,
3,Bayarkhuu Tserendamba,1971,Mongolia,120,118.8,225,-235,-255,225,225,B,Single-ply,M,Masters 2,
4,Timo Rukkila,1972,Finland,120,116.15,-200,-200,200,200,200,B,Single-ply,M,Masters 2,
1,Joe Dibert,1969,USA,120+,137.45,200,-318,-318,200,200,B,Single-ply,M,Masters 2,
2,Olim Sanakulov,1971,Uzbekistan,120+,155.25,100,120,,120,120,B,Single-ply,M,Masters 2,
3,Shreenath Sharma Deepak,1971,India,120+,137.2,70,77.5,-122.5,77.5,77.5,B,Single-ply,M,Masters 2,
1,Štefan Koľšovský,1961,Slovakia,59,57.64,132.5,137.5,142.5,142.5,142.5,B,Single-ply,M,Masters 3,
1,Masato Hashimoto,1957,Japan,66,64.15,105,-112.5,-120,105,105,B,Single-ply,M,Masters 3,
1,Daniel Sides,1956,USA,74,72.75,137.5,-142.5,147.5,147.5,147.5,B,Single-ply,M,Masters 3,
2,Michael Rodriguez #13,1961,USA,74,72.9,142.5,145,-150,145,145,B,Single-ply,M,Masters 3,
3,Patrick Malenfant,1958,France,74,72,115,-120,,115,115,B,Single-ply,M,Masters 3,
1,Tomotaka Sakai,1957,Japan,83,81.5,140,145,-167.5,145,145,B,Single-ply,M,Masters 3,
2,Bat-Erdene Shagdarsuren,1959,Mongolia,83,76.9,125,130,135,135,135,B,Single-ply,M,Masters 3,
3,Voitto Ahopelto,1956,Finland,83,82.05,115,127.5,-137.5,127.5,127.5,B,Single-ply,M,Masters 3,
1,Thomas Cencich,1960,USA,93,90.7,185,190,205,205,205,B,Single-ply,M,Masters 3,
2,Kim Salby,1961,Denmark,93,92.4,170,175,-192.5,175,175,B,Single-ply,M,Masters 3,
3,Dana Rosenzweig,1957,USA,93,91.8,135,150,157.5,157.5,157.5,B,Single-ply,M,Masters 3,
1,Bakyt Kerimbekov,1961,Kyrgyzstan,105,101.75,-225,225,-242,225,225,B,Single-ply,M,Masters 3,
2,Khizir Bayramkylov,1962,Kazakhstan,105,97.3,140,150,160,160,160,B,Single-ply,M,Masters 3,
3,Makoto Takatori,1962,Japan,105,101.1,120,142.5,-152.5,142.5,142.5,B,Single-ply,M,Masters 3,
1,Robert Keller #1,1962,USA,120,118.85,100,110,115,115,115,B,Single-ply,M,Masters 3,
1,Andrey Zhuravlev,1959,Kazakhstan,120+,121,160,162.5,165,165,165,B,Single-ply,M,Masters 3,
2,Helmut Rangnit,1956,Germany,120+,130.7,120,150,-165,150,150,B,Single-ply,M,Masters 3,
1,Perenlei Shagdar,1951,Mongolia,59,58.94,55,-57.5,75,75,75,B,Single-ply,M,Masters 4,
1,Talipbek Alzhanov,1942,Kazakhstan,66,64.7,-65,65,-70,65,65,B,Single-ply,M,Masters 4,
1,Antero Kauranen,1948,Finland,74,71.65,67.5,80,,80,80,B,Single-ply,M,Masters 4,
1,Sultan Tursunbayev,1950,Kazakhstan,83,80.2,65,80,90,90,90,B,Single-ply,M,Masters 4,
1,Daribay Ospanov,1949,Kazakhstan,93,84,135,-142.5,142.5,142.5,142.5,B,Single-ply,M,Masters 4,
1,Jiří Horník,1948,Czechia,105,93.5,135,142.5,147.5,147.5,147.5,B,Single-ply,M,Masters 4,
2,Mick Ellender,1945,UK,105,94.3,120,130,-140,130,130,B,Single-ply,M,Masters 4,
1,Anastasiya Zhurbina,1999,Kazakhstan,47,46.72,95,100,102.5,102.5,102.5,B,Single-ply,F,Open,
2,Oksana Motrunchyk,1992,Ukraine,47,46.58,90,95,100,100,100,B,Single-ply,F,Open,
3,Kristina Tsoy,1991,Kazakhstan,47,45.65,70,75,-95,75,75,B,Single-ply,F,Open,
4,Pooja Mali,1997,India,47,46.68,55,57.5,-60,57.5,57.5,B,Single-ply,F,Open,
1,Oksana Vedmid,1991,Ukraine,52,51.5,-135,135,-145,135,135,B,Single-ply,F,Open,
2,Akshatha Poojarthi,1987,India,52,51.9,-75,75,-80,75,75,B,Single-ply,F,Open,
DQ,Miyabi Kikuchi,1998,Japan,52,51.48,-120,-125,-125,,,B,Single-ply,F,Open,
1,Akane Ishibashi,1993,Japan,57,55.42,125,130,-135,130,130,B,Single-ply,F,Open,
2,Maura Shuttleworth,1976,USA,57,56.84,112.5,117.5,-132.5,117.5,117.5,B,Single-ply,F,Open,
3,Assiya Orazbekova,1987,Kazakhstan,57,53.84,100,105,107.5,107.5,107.5,B,Single-ply,F,Open,
4,Marcela Sandvik,1974,Finland,57,54.7,105,107.5,-110,107.5,107.5,B,Single-ply,F,Open,
1,Maj B Rames,1989,Denmark,63,62.3,145,150,155,155,155,B,Single-ply,F,Open,
2,Zhadyra Kabieva,1992,Kazakhstan,63,62.55,137.5,-147.5,-152.5,137.5,137.5,B,Single-ply,F,Open,
1,Asel Nurkenova,2000,Kazakhstan,69,66.6,130,140,-150,140,140,B,Single-ply,F,Open,
2,Shiori Kaneko,1991,Japan,69,63.1,70,-130,-140,70,70,B,Single-ply,F,Open,
1,Kumi Mizoguchi,1988,Japan,76,75.55,-170,170,177.5,177.5,177.5,B,Single-ply,F,Open,
2,Xeniya Khan,1987,Kazakhstan,76,75.5,175,-180,-180,175,175,B,Single-ply,F,Open,
3,Annemia Pretzmann,1992,Denmark,76,75.2,140,-170,-170,140,140,B,Single-ply,F,Open,
1,Zhadyra Bermukhambetova,1986,Kazakhstan,84,83.65,170,175,185,185,185,B,Single-ply,F,Open,
2,Daria Ławniczak,1995,Poland,84,77.5,135,-140,-140,135,135,B,Single-ply,F,Open,
3,Alona Borshchevska,1999,Ukraine,84,76.2,105,112.5,-135,112.5,112.5,B,Single-ply,F,Open,
1,Aziza Abduraimova,1989,Kazakhstan,84+,91.55,170,-175,-175,170,170,B,Single-ply,F,Open,
DQ,Tetyana Belousova,1975,Ukraine,84+,106.6,-170,-170,-172.5,,,B,Single-ply,F,Open,
1,Darya Leonova,2007,Kazakhstan,43,40.92,45,-47.5,47.5,47.5,47.5,B,Single-ply,F,Sub-Juniors,
1,Olesya Zhilyayeva,2004,Kazakhstan,52,51.56,67.5,75,-80,75,75,B,Single-ply,F,Sub-Juniors,
1,Anastassiya Aparina,2007,Kazakhstan,57,54.5,80,85,95,95,95,B,Single-ply,F,Sub-Juniors,
1,Amina Karimova,2005,Kazakhstan,63,57.72,82.5,90,100,100,100,B,Single-ply,F,Sub-Juniors,
2,Veronika Yakusheva,2005,Kazakhstan,63,58.1,45,-50,50,50,50,B,Single-ply,F,Sub-Juniors,
1,Aiken Nuridin,2007,Kazakhstan,69,67.05,75,85,90,90,90,B,Single-ply,F,Sub-Juniors,
1,Yana Yurtanova,2004,Kazakhstan,76,74.15,75,82.5,85,85,85,B,Single-ply,F,Sub-Juniors,
1,Arina Sidenkova,2007,Kazakhstan,84,81.95,110,-115,120,120,120,B,Single-ply,F,Sub-Juniors,
1,Adelya Doskul,2003,Kazakhstan,52,51.38,-70,70,75,75,75,B,Single-ply,F,Juniors,
2,Sharath Shetty Siya,2003,India,52,51.72,50,55,60,60,60,B,Single-ply,F,Juniors,
1,Regina Bille,2002,Kazakhstan,57,56.48,85,87.5,-90,87.5,87.5,B,Single-ply,F,Juniors,
1,Olga Bakhtigaliyeva,2001,Kazakhstan,63,62.2,115,120,127.5,127.5,127.5,B,Single-ply,F,Juniors,
2,Alexandrea Rán Guðnýjardóttir,1999,Iceland,63,62.05,112.5,117.5,125,125,125,B,Single-ply,F,Juniors,
1,Taisiya Dyachenko,2000,Kazakhstan,69,63.15,135,-142.5,-142.5,135,135,B,Single-ply,F,Juniors,
2,Natália Mikulášová,1999,Slovakia,69,63.45,105,110,120,120,120,B,Single-ply,F,Juniors,
3,Annie Carlo Venizela,2000,India,69,68.05,-100,100,-112.5,100,100,B,Single-ply,F,Juniors,
1,Mariya Bovkun,2001,Kazakhstan,76,69.45,100,105,-115,105,105,B,Single-ply,F,Juniors,
2,Anastassiya Damrina,2001,Kazakhstan,76,74.25,90,100,-112.5,100,100,B,Single-ply,F,Juniors,
1,Nora Kristin Larsen,2001,Norway,84,79.8,150,160,170,170,170,B,Single-ply,F,Juniors,
2,Iroda Abdyrova,2001,Kazakhstan,84,79.4,-130,-130,130,130,130,B,Single-ply,F,Juniors,
1,Polina Onufrak,2002,Kazakhstan,84+,106.15,-120,-120,120,120,120,B,Single-ply,F,Juniors,
DQ,Regina Meier,1999,Kazakhstan,84+,127.7,-140,-140,-140,,,B,Single-ply,F,Juniors,
1,Natalya Tskhay,1975,Kazakhstan,47,45.75,60,-65,-65,60,60,B,Single-ply,F,Masters 1,
1,Alexandra Goryaeva,1981,Kazakhstan,52,48.12,40,45,-50,45,45,B,Single-ply,F,Masters 1,
1,Nadejda Malyugina,1979,Uzbekistan,63,60.02,85,90,-92.5,90,90,B,Single-ply,F,Masters 1,
2,Meena Sharma,1974,India,63,62.05,75,82.5,90,90,90,B,Single-ply,F,Masters 1,
3,Zaneta Possehl,1977,Germany,63,62.55,80,-85,85,85,85,B,Single-ply,F,Masters 1,
4,Mélisa Meunier,1975,France,63,60.06,80,-85,-85,80,80,B,Single-ply,F,Masters 1,
1,Iolanda Costa,1977,Brazil,76,74.7,110,127.5,135,135,135,B,Single-ply,F,Masters 1,
1,Tiina Voho,1973,Finland,84,77.3,90,127.5,-132.5,127.5,127.5,B,Single-ply,F,Masters 1,
2,Aigul Kissykova,1982,Kazakhstan,84,81.45,-42.5,42.5,-47.5,42.5,42.5,B,Single-ply,F,Masters 1,
1,Marina Altaibaeva,1973,Kazakhstan,84+,116.05,50,57.5,-62.5,57.5,57.5,B,Single-ply,F,Masters 1,
1,Nicey K L,1968,India,52,50.82,25,27.5,30,30,30,B,Single-ply,F,Masters 2,
1,Marie-France Cabos,1967,France,57,55.86,90,95,-100,95,95,B,Single-ply,F,Masters 2,
1,Maureen Gordon,1964,UK,63,61.45,92.5,-97.5,97.5,97.5,97.5,B,Single-ply,F,Masters 2,
2,Rita Shergold,1965,UK,63,60.2,80,-90,-90,80,80,B,Single-ply,F,Masters 2,
3,Venera Kurets,1966,Kazakhstan,63,61.9,35,42.5,-47.5,42.5,42.5,B,Single-ply,F,Masters 2,
1,Tone Glomstein,1964,Norway,69,66.65,82.5,87.5,97.5,97.5,97.5,B,Single-ply,F,Masters 2,
2,Florence Leccese,1969,France,69,63.95,85,90,95,95,95,B,Single-ply,F,Masters 2,
3,Sreeja Kalathil,1968,India,69,66.05,27.5,30,32.5,32.5,32.5,B,Single-ply,F,Masters 2,
1,Megumi Tokutake,1964,Japan,76,74.25,110,120,138,138,138,B,Single-ply,F,Masters 2,
1,Jo Whiteley,1970,UK,84+,122.65,-150,152.5,160,160,160,B,Single-ply,F,Masters 2,
1,Heidi Schraft,1961,Canada,52,48.92,60,65,-70,65,65,B,Single-ply,F,Masters 3,
1,Bakhytgul Koshanova,1960,Kazakhstan,57,55.98,42.5,47.5,50,50,50,B,Single-ply,F,Masters 3,
1,Evelyne Herbin,1956,France,63,62.55,72.5,77.5,80,80,80,B,Single-ply,F,Masters 3,
1,Patricia Maciejewski,1961,France,69,67.85,82.5,87.5,-90,87.5,87.5,B,Single-ply,F,Masters 3,
1,Françoise Heligon,1943,France,52,47.32,45,47.5,-50,47.5,47.5,B,Single-ply,F,Masters 4,
1,Chiyomi Sawa,1949,Japan,76,75.4,97.5,102.5,107.5,107.5,107.5,B,Single-ply,F,Masters 4,
